israel_bombing_category = {
	ISR_capture_iranian_officials = {
		allowed = {
			tag = ISR
		}
		available = {
			original_tag = ISR
			has_country_flag = nuclear_scientist_unlock
			PER = {
				influence_higher_10 = yes
			}
		}
		visible = {
			has_country_flag = nuclear_scientist_unlock
		}
		icon = GFX_decision_spr_political_assassination
		cost = 75
		days_remove = 30
		days_re_enable = 150
		fire_only_once = no
		remove_effect = {
			log = "[GetDateText]: [Root.GetName]: Decision ISR_capture_iranian_officials"
			#PER
			if = {
				limit = {
					OR = {
						AND = {
							PER = {
								has_tech = IRBM7
							}
							PER = {
								has_tech = IRBM8
							}
						}
						AND = {
							PER = {
								has_tech = GLCM7
							}
							PER = {
								has_tech = GLCM8
							}
						}
					}
				}
				custom_effect_tooltip = high_fail_warn_tt
				set_temp_variable = {
					percent_change = -10
				}
				set_temp_variable = {
					tag_index = ISR
				}
				set_temp_variable = {
					influence_target = PER
				}
				change_influence_percentage = yes
				random_list = {
					40 = {
						custom_effect_tooltip = capture_succ_tt
						hidden_effect = {
							PER = {
								add_timed_idea = {
									idea = ISR_kill_scientist_idea
									days = 365
								}
							}
							ISR = {
								country_event = israel_mechanic.9
							}
							PER = {
								country_event = israel_mechanic.9
							}
						}
					}
					60 = {
						custom_effect_tooltip = capture_fail_tt
						hidden_effect = {
							add_war_support = -0.05
							ISR = {
								country_event = israel_mechanic.10
							}
							PER = {
								country_event = israel_mechanic.10
							}
						}
					}
				}
			}
			if = {
				limit = {
					NOT = {
						PER = {
							has_tech = IRBM7
						}
						PER = {
							has_tech = IRBM8
						}
						PER = {
							has_tech = GLCM7
						}
						PER = {
							has_tech = GLCM8
						}
					}
				}
				custom_effect_tooltip = low_fail_warn_tt
				set_temp_variable = {
					percent_change = -10
				}
				set_temp_variable = {
					tag_index = ISR
				}
				set_temp_variable = {
					influence_target = PER
				}
				change_influence_percentage = yes
				random_list = {
					60 = {
						custom_effect_tooltip = capture_succ_tt
						hidden_effect = {
							PER = {
								add_timed_idea = {
									idea = ISR_kill_scientist_idea
									days = 365
								}
							}
							ISR = {
								country_event = israel_mechanic.11
							}
							PER = {
								country_event = israel_mechanic.11
							}
						}
					}
					40 = {
						custom_effect_tooltip = capture_fail_tt
						hidden_effect = {
							add_war_support = -0.05
							ISR = {
								country_event = israel_mechanic.12
							}
							PER = {
								country_event = israel_mechanic.12
							}
						}
					}
				}
			}
			add_named_threat = {
				threat = 0.4
				name = iran_sci_killed
			}
		}
	}
	ISR_kill_souleimani = {
		allowed = {
			tag = ISR
		}
		available = {
			original_tag = ISR
			has_country_flag = sul_kill_unlock
			OR = {
				IRQ = {
					influence_higher_10 = yes
				}
				PER = {
					influence_higher_10 = yes
				}
			}
			PER = {
				has_character = PER_qasem_soleimani
			}
		}
		visible = {
			has_country_flag = sul_kill_unlock
		}
		icon = GFX_decision_ignite_civil_war
		custom_cost_trigger = {
			has_equipment = {
				Kamikaze_drone_equipment > 9
			}
		}
		custom_cost_text = PER_launch_drone_attack_tt
		days_remove = 30
		days_re_enable = 150
		fire_only_once = no
		complete_effect = {
			log = "[GetDateText]: [Root.GetName]: Decision ISR_kill_souleimani"
			add_equipment_to_stockpile = {
				type = Kamikaze_drone_equipment
				amount = -10
				producer = ISR
			}
			custom_effect_tooltip = drone_attack_tt
		}
		remove_effect = {
			log = "[GetDateText]: [Root.GetName]: Decision ISR_kill_souleimani"
			#PER/IRQ
			if = {
				limit = {
					NOT = {
						has_country_flag = USA_did_support_sol
					}
					PER = {
						has_character = PER_qasem_soleimani
					}
				}
				custom_effect_tooltip = high_fail_warn_tt
				set_temp_variable = {
					percent_change = -10
				}
				set_temp_variable = {
					tag_index = ISR
				}
				set_temp_variable = {
					influence_target = IRQ
				}
				change_influence_percentage = yes
				set_temp_variable = {
					percent_change = -10
				}
				set_temp_variable = {
					tag_index = ISR
				}
				set_temp_variable = {
					influence_target = PER
				}
				change_influence_percentage = yes
				random_list = {
					40 = {
						custom_effect_tooltip = capture_succ_tt
						hidden_effect = {
							PER = {
								add_timed_idea = {
									idea = ISR_souleimani_killed_idea
									days = 365
								}
								retire_character = PER_qasem_soleimani
							}
							ISR = {
								country_event = israel_mechanic.13
							}
							PER = {
								country_event = israel_mechanic.13
							}
							IRQ = {
								country_event = israel_mechanic.13
							}
						}
						clr_country_flag = sul_kill_unlock
					}
					60 = {
						custom_effect_tooltip = capture_fail_tt
						hidden_effect = {
							add_war_support = -0.05
							ISR = {
								country_event = israel_mechanic.14
							}
							PER = {
								country_event = israel_mechanic.14
							}
							IRQ = {
								country_event = israel_mechanic.14
							}
						}
					}
				}
			}
			if = {
				limit = {
					has_country_flag = USA_did_support_sol
					PER = {
						has_character = PER_qasem_soleimani
					}
				}
				custom_effect_tooltip = low_fail_warn_tt
				set_temp_variable = {
					percent_change = -10
				}
				set_temp_variable = {
					tag_index = ISR
				}
				set_temp_variable = {
					influence_target = IRQ
				}
				change_influence_percentage = yes
				set_temp_variable = {
					percent_change = -10
				}
				set_temp_variable = {
					tag_index = ISR
				}
				set_temp_variable = {
					influence_target = PER
				}
				change_influence_percentage = yes
				random_list = {
					50 = {
						custom_effect_tooltip = capture_succ_tt
						hidden_effect = {
							PER = {
								add_timed_idea = {
									idea = ISR_souleimani_killed_idea
									days = 365
								}
								retire_character = PER_qasem_soleimani
							}
							ISR = {
								country_event = israel_mechanic.13
							}
							PER = {
								country_event = israel_mechanic.13
							}
							USA = {
								country_event = israel_mechanic.13
							}
							IRQ = {
								country_event = israel_mechanic.13
							}
						}
						clr_country_flag = sul_kill_unlock
					}
					50 = {
						custom_effect_tooltip = capture_fail_tt
						hidden_effect = {
							add_war_support = -0.05
							ISR = {
								country_event = israel_mechanic.14
							}
							PER = {
								country_event = israel_mechanic.14
							}
							USA = {
								country_event = israel_mechanic.14
							}
							IRQ = {
								country_event = israel_mechanic.14
							}
						}
					}
				}
			}
			add_named_threat = {
				threat = 0.5
				name = kill_soleimani_thr
			}
		}
	}
	ISR_olympic_games = {
		allowed = {
			tag = ISR
		}
		available = {
			original_tag = ISR
			has_country_flag = olymp_hack_unlock
			OR = {
				network_strength = {
					target = PER
					value > 30
				}
				PER = {
					influence_higher_10 = yes
				}
			}
		}
		visible = {
			has_country_flag = olymp_hack_unlock
		}
		icon = GFX_decision_hacker_button
		cost = 75
		days_remove = 21
		days_re_enable = 150
		fire_only_once = no
		complete_effect = {
		}
		remove_effect = {
			log = "[GetDateText]: [Root.GetName]: Decision ISR_olympic_games"
			#PER
			if = {
				limit = {
					NOT = {
						has_country_flag = USA_did_support_olymp
					}
				}
				custom_effect_tooltip = high_fail_warn_tt
				random_list = {
					40 = {
						custom_effect_tooltip = hack_succ_tt
						hidden_effect = {
							if = {
								limit = {
									has_dlc = "La Resistance"
								}
								add_intel = {
									target = PER
									civilian_intel = 15
									army_intel = 15
								}
								add_decryption = {
									target = PER
									ratio = 0.5
								}
							}
							add_timed_idea = {
								idea = ISR_olympic_games_op
								days = 180
							}
							PER = {
								random_owned_controlled_state = {
									damage_building = {
										type = nuclear_reactor
										damage = 1
									}
								}
								random_owned_controlled_state = {
									damage_building = {
										type = nuclear_reactor
										damage = 1
									}
								}
							}
							ISR = {
								country_event = israel_mechanic.15
							}
							PER = {
								country_event = israel_mechanic.15
							}
						}
						clr_country_flag = olymp_hack_unlock
					}
					60 = {
						custom_effect_tooltip = hack_fail_tt
						hidden_effect = {
							add_war_support = -0.05
							ISR = {
								country_event = israel_mechanic.16
							}
							PER = {
								country_event = israel_mechanic.16
							}
						}
					}
				}
				add_named_threat = {
					threat = 0.5
					name = olymp_games_thr
				}
			}
			if = {
				limit = {
					has_country_flag = USA_did_support_olymp
				}
				custom_effect_tooltip = low_fail_warn_tt
				random_list = {
					60 = {
						custom_effect_tooltip = hack_succ_tt
						hidden_effect = {
							if = {
								limit = {
									has_dlc = "La Resistance"
								}
								add_intel = {
									target = PER
									civilian_intel = 15
									army_intel = 15
								}
								add_decryption = {
									target = PER
									ratio = 0.5
								}
							}
							add_timed_idea = {
								idea = ISR_olympic_games_op
								days = 180
							}
							PER = {
								random_owned_controlled_state = {
									damage_building = {
										type = nuclear_reactor
										damage = 1
									}
								}
								random_owned_controlled_state = {
									damage_building = {
										type = nuclear_reactor
										damage = 1
									}
								}
							}
							ISR = {
								country_event = israel_mechanic.15
							}
							PER = {
								country_event = israel_mechanic.15
							}
						}
						clr_country_flag = olymp_hack_unlock
					}
					40 = {
						custom_effect_tooltip = hack_fail_tt
						hidden_effect = {
							add_war_support = -0.05
							ISR = {
								country_event = israel_mechanic.16
							}
							PER = {
								country_event = israel_mechanic.16
							}
						}
					}
				}
				add_named_threat = {
					threat = 0.5
					name = olymp_games_thr
				}
			}
		}
	}
}

#################
israel_palestine_category = {
	ISR_catch_the_boat = {
		available = {
			always = no
		}
		activation = {
			has_country_flag = ISR_catch_boat
		}
		days_mission_timeout = 52
		is_good = no
		icon = GFX_decision_iran_guns
		cancel_trigger = {
			has_completed_focus = ISR_operation_noahs_ark
		}
		visible = {
			has_country_flag = ISR_catch_boat
		}
		cancel_if_not_visible = yes
		timeout_effect = {
			custom_effect_tooltip = ISR_boat_aint_catched_TT
			hidden_effect = {
				clr_country_flag = ISR_catch_boat
				PAL = {
					country_event = israel.76
				}
				ISR = {
					country_event = israel.77
				}
				PER = {
					country_event = israel.79
				}
			}
		}
	}
	###post passover-massacre
	ISR_pal_rooting_terrorists = {
		available = {
			always = no
		}
		activation = {
			has_country_flag = ISR_start_operation
		}
		days_mission_timeout = 40
		is_good = no
		icon = GFX_decision_category_taliban_insurgency
		cancel_trigger = {
			custom_trigger_tooltip = {
				tooltip = oper_succ_var_tt
			}
			always = no #ADDED RECENTLY AS A FIX ATTEMPT
		}
		visible = {
			has_country_flag = ISR_start_operation
		}
		cancel_if_not_visible = yes
		timeout_effect = {
			custom_effect_tooltip = ISR_operation_failed_root_terr_tt
			hidden_effect = {
				clr_country_flag = ISR_start_operation
				if = {
					limit = {
						check_variable = {
							oper_succ_var > 10
						}
					}
					ISR = {
						country_event = israel.91
					}
					PAL = {
						country_event = israel.91
					}
				}
				if = {
					limit = {
						check_variable = {
							oper_succ_var < 10
						}
					}
					ISR = {
						country_event = israel.92
					}
					PAL = {
						country_event = israel.92
					}
				}
			}
		}
	}
	ISR_churchofnativity_approach = {
		icon = {
			key = GFX_decision_annex
			trigger = {
				has_decision = ISR_churchofnativity_approach
			}
		}
		available = {
			NOT = {
				has_country_flag = churchnativity_done
				has_country_flag = tanzaim_progr
				has_country_flag = tulkarm_progr
				has_country_flag = hebrraid_progr
				has_country_flag = kasbanablus_progr
				has_country_flag = jerichofate_progr
				has_country_flag = jeninlabs_progr
			}
			divisions_in_state = {
				type = infantry
				size > 1
				state = 208
			}
		}
		visible = {
			has_country_flag = gu_westbank_select
			has_country_flag = ISR_start_operation
			NOT = {
				has_country_flag = churchnativity_done
			}
		}
		highlight_states = {
			highlight_state_targets = {
				state = 208
			}
			highlight_provinces = {
				13206
			}
			highlight_color_while_active = 3
			highlight_color_before_active = 2
		}
		ai_will_do = {
			factor = 1
		}
		cost = 50
		custom_cost_text = decision_cost_CP_15
		days_remove = 30
		custom_cost_trigger = {
			command_power > 14
		}
		complete_effect = {
			set_country_flag = churchnativity_progr
			hidden_effect = {
				add_command_power = -15
			}
			country_event = israel.82
			add_days_mission_timeout = {
				mission = ISR_pal_rooting_terrorists
				days = 5
			}
		}
		fire_only_once = yes
		remove_effect = {
			log = "[GetDateText]: [Root.GetName]: Decision remove ISR_churchofnativity_approach"
			set_country_flag = churchnativity_done
			clr_country_flag = churchnativity_progr
		}
	}
	ISR_dismantle_kasbah_of_nablus = {
		icon = {
			key = GFX_decision_monte_attack_button
			trigger = {
				has_decision = ISR_dismantle_kasbah_of_nablus
			}
		}
		available = {
			NOT = {
				has_country_flag = kasbanablus_done
				has_country_flag = tanzaim_progr
				has_country_flag = tulkarm_progr
				has_country_flag = hebrraid_progr
				has_country_flag = jerichofate_progr
				has_country_flag = churchnativity_progr
				has_country_flag = jeninlabs_progr
			}
			divisions_in_state = {
				type = infantry
				size > 1
				state = 208
			}
		}
		visible = {
			has_country_flag = gu_westbank_select
			has_country_flag = ISR_start_operation
			NOT = {
				has_country_flag = kasbanablus_done
			}
		}
		highlight_states = {
			highlight_state_targets = {
				state = 208
			}
			highlight_provinces = {
				13206
			}
			highlight_color_while_active = 3
			highlight_color_before_active = 2
		}
		ai_will_do = {
			factor = 1
		}
		cost = 50
		custom_cost_text = decision_cost_CP_15
		days_remove = 10
		custom_cost_trigger = {
			command_power > 14
		}
		complete_effect = {
			log = "[GetDateText]: [Root.GetName]: Decision remove ISR_dismantle_kasbah_of_nablus"
			hidden_effect = {
				add_command_power = -15
			}
			set_country_flag = kasbanablus_progr
			country_event = israel.85
			add_days_mission_timeout = {
				mission = ISR_pal_rooting_terrorists
				days = 5
			}
		}
		fire_only_once = yes
		remove_effect = {
			log = "[GetDateText]: [Root.GetName]: Decision remove ISR_dismantle_kasbah_of_nablus"
			set_country_flag = kasbanablus_done
			clr_country_flag = kasbanablus_progr
		}
	}
	ISR_dismantle_jenin_labs = {
		icon = {
			key = GFX_decisions_category_cobasna
			trigger = {
				has_decision = ISR_dismantle_jenin_labs
			}
		}
		available = {
			NOT = {
				has_country_flag = jeninlabs_done
				has_country_flag = tanzaim_progr
				has_country_flag = tulkarm_progr
				has_country_flag = hebrraid_progr
				has_country_flag = jerichofate_progr
				has_country_flag = churchnativity_progr
				has_country_flag = kasbanablus_progr
			}
			divisions_in_state = {
				type = infantry
				size > 1
				state = 208
			}
		}
		visible = {
			has_country_flag = gu_westbank_select
			has_country_flag = ISR_start_operation
			NOT = {
				has_country_flag = jeninlabs_done
			}
		}
		highlight_states = {
			highlight_state_targets = {
				state = 208
			}
			highlight_provinces = {
				13206
			}
			highlight_color_while_active = 3
			highlight_color_before_active = 2
		}
		ai_will_do = {
			factor = 1
		}
		cost = 50
		custom_cost_text = decision_cost_CP_15
		days_remove = 1
		custom_cost_trigger = {
			command_power > 14
		}
		complete_effect = {
			log = "[GetDateText]: [Root.GetName]: Decision remove ISR_dismantle_jenin_labs"
			hidden_effect = {
				add_command_power = -15
			}
			set_country_flag = jeninlabs_progr
			country_event = israel.86
			add_days_mission_timeout = {
				mission = ISR_pal_rooting_terrorists
				days = 5
			}
		}
		fire_only_once = yes
		remove_effect = {
			log = "[GetDateText]: [Root.GetName]: Decision remove ISR_dismantle_jenin_labs"
			set_country_flag = jeninlabs_done
			clr_country_flag = jeninlabs_progr
		}
	}
	ISR_fate_of_jericho = {
		icon = {
			key = GFX_decision_money_dec
			trigger = {
				has_decision = ISR_fate_of_jericho
			}
		}
		available = {
			NOT = {
				has_country_flag = jerichofate_done
				has_country_flag = tanzaim_progr
				has_country_flag = tulkarm_progr
				has_country_flag = hebrraid_progr
				has_country_flag = jeninlabs_progr
				has_country_flag = churchnativity_progr
				has_country_flag = kasbanablus_progr
			}
			divisions_in_state = {
				type = infantry
				size > 1
				state = 208
			}
		}
		visible = {
			has_country_flag = gu_westbank_select
			has_country_flag = ISR_start_operation
			NOT = {
				has_country_flag = jerichofate_done
			}
		}
		highlight_states = {
			highlight_state_targets = {
				state = 208
			}
			highlight_provinces = {
				13206
			}
			highlight_color_while_active = 3
			highlight_color_before_active = 2
		}
		ai_will_do = {
			factor = 1
		}
		cost = 50
		custom_cost_text = decision_cost_CP_15
		days_remove = 1
		custom_cost_trigger = {
			command_power > 14
		}
		complete_effect = {
			log = "[GetDateText]: [Root.GetName]: Decision remove ISR_fate_of_jericho"
			hidden_effect = {
				add_command_power = -15
			}
			set_country_flag = jerichofate_progr
			country_event = israel.87
			add_days_mission_timeout = {
				mission = ISR_pal_rooting_terrorists
				days = 5
			}
		}
		fire_only_once = yes
		remove_effect = {
			log = "[GetDateText]: [Root.GetName]: Decision remove ISR_fate_of_jericho"
			set_country_flag = jerichofate_done
			clr_country_flag = jerichofate_progr
		}
	}
	ISR_border_raid_hebron = {
		icon = {
			key = GFX_decision_category_border_conflicts
			trigger = {
				has_decision = ISR_fate_of_jericho
			}
		}
		available = {
			NOT = {
				has_country_flag = jerichofate_progr
				has_country_flag = tanzaim_progr
				has_country_flag = tulkarm_progr
				has_country_flag = hebrraid_done
				has_country_flag = jeninlabs_progr
				has_country_flag = churchnativity_progr
				has_country_flag = kasbanablus_progr
			}
			divisions_in_state = {
				type = infantry
				size > 1
				state = 208
			}
		}
		visible = {
			has_country_flag = gu_westbank_select
			has_country_flag = ISR_start_operation
			NOT = {
				has_country_flag = hebrraid_done
			}
		}
		highlight_states = {
			highlight_state_targets = {
				state = 208
			}
			highlight_provinces = {
				13206
			}
			highlight_color_while_active = 3
			highlight_color_before_active = 2
		}
		ai_will_do = {
			factor = 1
		}
		cost = 50
		custom_cost_text = decision_cost_CP_15
		days_remove = 5
		custom_cost_trigger = {
			command_power > 14
		}
		complete_effect = {
			log = "[GetDateText]: [Root.GetName]: Decision remove ISR_border_raid_hebron"
			hidden_effect = {
				add_command_power = -15
			}
			set_country_flag = hebrraid_progr
			country_event = israel.88
			add_days_mission_timeout = {
				mission = ISR_pal_rooting_terrorists
				days = 5
			}
		}
		fire_only_once = yes
		remove_effect = {
			log = "[GetDateText]: [Root.GetName]: Decision remove ISR_border_raid_hebron"
			set_country_flag = hebrraid_done
			clr_country_flag = hebrraid_progr
		}
	}
	ISR_storm_tulkarm_fort = {
		icon = {
			key = GFX_decisions_category_kto
			trigger = {
				has_decision = ISR_storm_tulkarm_fort
			}
		}
		available = {
			NOT = {
				has_country_flag = tulkarm_done
				has_country_flag = tanzaim_progr
				has_country_flag = tulkarm_progr
				has_country_flag = hebrraid_progr
				has_country_flag = jeninlabs_progr
				has_country_flag = churchnativity_progr
				has_country_flag = kasbanablus_progr
			}
			divisions_in_state = {
				type = infantry
				size > 1
				state = 208
			}
		}
		visible = {
			has_country_flag = gu_westbank_select
			has_country_flag = ISR_start_operation
			NOT = {
				has_country_flag = tulkarm_done
			}
		}
		highlight_states = {
			highlight_state_targets = {
				state = 208
			}
			highlight_provinces = {
				13206
			}
			highlight_color_while_active = 3
			highlight_color_before_active = 2
		}
		ai_will_do = {
			factor = 1
		}
		cost = 50
		custom_cost_text = decision_cost_CP_15
		days_remove = 5
		custom_cost_trigger = {
			command_power > 14
		}
		complete_effect = {
			log = "[GetDateText]: [Root.GetName]: Decision remove ISR_storm_tulkarm_fort"
			hidden_effect = {
				add_command_power = -15
			}
			set_country_flag = tulkarm_progr
			country_event = israel.89
			add_days_mission_timeout = {
				mission = ISR_pal_rooting_terrorists
				days = 5
			}
		}
		fire_only_once = yes
		remove_effect = {
			log = "[GetDateText]: [Root.GetName]: Decision remove ISR_storm_tulkarm_fort"
			set_country_flag = tulkarm_done
			clr_country_flag = tulkarm_progr
		}
	}
	ISR_deal_tanzim = {
		icon = {
			key = GFX_decision_eng_trade_unions_support
			trigger = {
				has_decision = ISR_deal_tanzim
			}
		}
		available = {
			NOT = {
				has_country_flag = tanzaim_done
				has_country_flag = tanzaim_progr
				has_country_flag = tulkarm_progr
				has_country_flag = hebrraid_progr
				has_country_flag = jeninlabs_progr
				has_country_flag = churchnativity_progr
				has_country_flag = kasbanablus_progr
			}
			divisions_in_state = {
				type = infantry
				size > 1
				state = 208
			}
		}
		visible = {
			has_country_flag = gu_westbank_select
			has_country_flag = ISR_start_operation
			NOT = {
				has_country_flag = tanzaim_done
			}
		}
		highlight_states = {
			highlight_state_targets = {
				state = 208
			}
			highlight_provinces = {
				13206
			}
			highlight_color_while_active = 3
			highlight_color_before_active = 2
		}
		ai_will_do = {
			factor = 1
		}
		cost = 100
		days_remove = 10
		complete_effect = {
			log = "[GetDateText]: [Root.GetName]: Decision remove ISR_deal_tanzim"
			set_country_flag = tanzaim_progr
			country_event = israel.90
			add_days_mission_timeout = {
				mission = ISR_pal_rooting_terrorists
				days = 5
			}
		}
		fire_only_once = yes
		remove_effect = {
			log = "[GetDateText]: [Root.GetName]: Decision remove ISR_deal_tanzim"
			set_country_flag = tanzaim_done
			clr_country_flag = tanzaim_progr
		}
	}
	###during Intifada
	ISR_ask_egypt_to_mediate = {
		icon = {
			key = GFX_decision_egypt_militar
			trigger = {
				has_decision = ISR_ask_egypt_to_mediate
			}
		}
		available = {
			country_exists = EGY
			NOT = {
				has_war_with = EGY
			}
			EGY = {
				has_opinion = {
					target = ISR
					value > 4
				}
			}
			OR = {
				has_idea = ISR_very_frequent_incidents
				has_idea = ISR_intifada
				has_idea = palestinian_resistance
			}
		}
		visible = {
			original_tag = ISR
			has_country_flag = gu_gaza_select
			NOT = {
				has_country_flag = mediat_done
			}
		}
		highlight_states = {
			highlight_state_targets = {
				state = 209
			}
			highlight_color_while_active = 3
			highlight_color_before_active = 2
		}
		ai_will_do = {
			factor = 1
		}
		cost = 100
		days_remove = 10
		complete_effect = {
			log = "[GetDateText]: [Root.GetName]: Decision remove ISR_ask_egypt_to_mediate"
			set_country_flag = mediat_progr
			EGY = {
				country_event = israel.93
			}
		}
		fire_only_once = yes
		remove_effect = {
			log = "[GetDateText]: [Root.GetName]: Decision remove ISR_ask_egypt_to_mediate"
			set_country_flag = mediat_done
			clr_country_flag = mediat_progr
		}
	}

	PAL_emergency_quartet_meeting = {
		icon = {
			key = GFX_decision_canadian_english_category
			trigger = {
				has_decision = PAL_emergency_quartet_meeting
			}
		}
		available = {
			country_exists = SOV
			country_exists = ENG
			country_exists = GER
			country_exists = FRA
			NOT = {
				has_war_with = SOV
				has_war_with = ENG
				has_war_with = GER
				has_war_with = FRA
			}
			SOV = {
				has_opinion = {
					target = PAL
					value > 4
				}
			}
			ENG = {
				has_opinion = {
					target = PAL
					value > 4
				}
			}
			GER = {
				has_opinion = {
					target = PAL
					value > 4
				}
			}
			FRA = {
				has_opinion = {
					target = PAL
					value > 4
				}
			}
			has_added_tension_amount < 5
			OR = {
				has_idea = ISR_very_frequent_incidents
				has_idea = ISR_intifada
				has_idea = palestinian_resistance
			}
		}
		visible = {
			original_tag = PAL
			has_country_flag = gu_westbank_select
			NOT = {
				has_country_flag = emergquar_done
			}
		}
		highlight_states = {
			highlight_state_targets = {
				state = 208
			}
			highlight_provinces = {
				13206
			}
			highlight_color_while_active = 3
			highlight_color_before_active = 2
		}
		ai_will_do = {
			factor = 1
		}
		cost = 50
		days_remove = 30
		complete_effect = {
			log = "[GetDateText]: [Root.GetName]: Decision remove PAL_emergency_quartet_meeting"
			set_country_flag = emergquar_progr
			set_temp_variable = {
				percent_change = -3
			}
			change_domestic_influence_percentage = yes
			PAL_increase_quartet = yes
		}
		fire_only_once = yes
		remove_effect = {
			log = "[GetDateText]: [Root.GetName]: Decision remove PAL_emergency_quartet_meeting"
			set_country_flag = emergquar_done
			clr_country_flag = emergquar_progr
		}
	}

	ISR_associate_with_waronterror = {
		icon = {
			key = GFX_decision_CUB_train_usa
			trigger = {
				has_decision = ISR_associate_with_waronterror
			}
		}
		available = {
			country_exists = USA
			NOT = {
				has_war_with = USA
			}
			USA = {
				has_country_flag = Operation_iraqi_freedom
				has_opinion = {
					target = ISR
					value > 14
				}
			}
			OR = {
				has_idea = ISR_very_frequent_incidents
				has_idea = ISR_intifada
				has_idea = palestinian_resistance
			}
		}
		visible = {
			original_tag = ISR
			has_country_flag = gu_mainisr_select
			NOT = {
				has_country_flag = assocwarter_done
			}
		}
		highlight_states = {
			highlight_state_targets = {
				state = 204
			}
			highlight_color_while_active = 3
			highlight_color_before_active = 2
		}
		ai_will_do = {
			factor = 1
		}
		cost = 100
		days_remove = 30
		complete_effect = {
			log = "[GetDateText]: [Root.GetName]: Decision remove ISR_associate_with_waronterror"
			set_country_flag = assocwarter_progr
			add_timed_idea = {
				idea = Enduring_Freedom
				days = 365
			}
			add_opinion_modifier = {
				target = USA
				modifier = diplomatic_support
			}
			reverse_add_opinion_modifier = {
				target = USA
				modifier = diplomatic_support
			}
			set_temp_variable = {
				percent_change = 6
			}
			set_temp_variable = {
				tag_index = USA
			}
			set_temp_variable = {
				influence_target = ISR
			}
			change_influence_percentage = yes
		}
		fire_only_once = yes
		remove_effect = {
			log = "[GetDateText]: [Root.GetName]: Decision remove ISR_associate_with_waronterror"
			set_country_flag = assocwarter_done
			clr_country_flag = assocwarter_progr
		}
	}
	###always available decis
	#ISR_clearance_tax_discuss = {
	#	icon = {
	#		key = GFX_decisions_tax_up_button
	#		trigger = {
	#			has_decision = ISR_clearance_tax_discuss
	#		}
	#	}
	#	available = {
	#		country_exists = PAL
	#		NOT = {
	#			has_war_with = PAL
	#		}
	#		PAL = {
	#			is_subject_of = ISR
	#		}
	#	}
	#	visible = {
	#		original_tag = ISR
	#		has_country_flag = gu_westbank_select
	#		NOT = {
	#			has_country_flag = taxclear_done
	#		}
	#	}
	#	highlight_states = {
	#		highlight_state_targets = {
	#			state = 208
	#		}
	#		highlight_provinces = {
	#			13206
	#		}
	#		highlight_color_while_active = 3
	#		highlight_color_before_active = 2
	#	}
	#	ai_will_do = {
	#		factor = 1
	#	}
	#	cost = 100
	#	days_remove = 30
	#	complete_effect = {
	#		set_country_flag = taxclear_progr
	#		country_event = israel.98
	#	}
	#	fire_only_once = yes
	#	remove_effect = {
	#		log = "[GetDateText]: [Root.GetName]: Decision remove ISR_clearance_tax_discuss"
	#		set_country_flag = taxclear_done
	#		clr_country_flag = taxclear_progr
	#	}
	#}
	###After Gaza Uprising
	ISR_raid_beit_leiha = {
		icon = {
			key = GFX_decision_monte_attack_button
			trigger = {
				has_decision = ISR_raid_beit_leiha
			}
		}
		available = {
			NOT = {
				has_country_flag = operations_blocked
			}
			divisions_in_state = {
				type = infantry
				size > 3
				state = 206
			}
			country_exists = HAM
			NOT = {
				has_war_with = HAM
			}
			HAM = {
				NOT = { has_government = democratic }
				neutrality_neutral_social_in_power_or_coalition = no
			}
		}
		visible = {
			original_tag = ISR
			has_completed_focus = ISR_disengagement_plan
			has_country_flag = gu_gaza_select
			NOT = {
				has_country_flag = raidbeit_done
			}
		}
		highlight_states = {
			highlight_state_targets = {
				state = 209
			}
			highlight_color_while_active = 3
			highlight_color_before_active = 2
		}
		ai_will_do = {
			factor = 1
		}
		custom_cost_text = decision_cost_CP_15
		days_remove = 15
		custom_cost_trigger = {
			command_power > 14
		}
		complete_effect = {
			log = "[GetDateText]: [Root.GetName]: Decision ISR_raid_beit_leiha"
			hidden_effect = {
				add_command_power = -15
			}
			block_operations = yes
			set_country_flag = raidbeit_progr
			start_border_war = {
				change_state_after_war = no
				attacker = {
					state = 206
					num_provinces = 4
					on_win = israel.101
					on_lose = israel.102
					on_cancel = israel.103
					dig_in_factor = 155
					terrain_factor = 15
				}
				defender = {
					state = 209
					num_provinces = 1
					on_win = israel.102
					on_lose = israel.101
					on_cancel = israel.103
				}
			}
		}
		fire_only_once = yes
		remove_effect = {
			log = "[GetDateText]: [Root.GetName]: Decision remove ISR_raid_beit_leiha"
			set_country_flag = raidbeit_done
			clr_country_flag = raidbeit_progr
		}
	}

	ISR_jabel_mukaber_judge = {
		icon = {
			key = GFX_decision_generic_speech
			trigger = {
				has_decision = ISR_jabel_mukaber_judge
			}
		}
		available = {
			NOT = {
				has_country_flag = operations_blocked
			}
			country_exists = PAL
			country_exists = HAM
			NOT = {
				has_war_with = PAL
				has_war_with = HAM
			}
			207 = {
				industrial_complex > 2
			}
		}
		visible = {
			original_tag = ISR
			has_completed_focus = ISR_focus_on_the_clusters
			has_country_flag = gu_mainisr_select
			NOT = {
				has_country_flag = mukaber_done
			}
		}
		highlight_states = {
			highlight_state_targets = {
				state = 207
			}
			highlight_color_while_active = 3
			highlight_color_before_active = 2
		}
		cost = 80
		ai_will_do = {
			factor = 1
		}
		days_remove = 15
		complete_effect = {
			log = "[GetDateText]: [Root.GetName]: Decision ISR_jabel_mukaber_judge"
			block_operations = yes
			set_country_flag = mukaber_progr
			country_event = israel.105
		}
		fire_only_once = yes
		remove_effect = {
			log = "[GetDateText]: [Root.GetName]: Decision remove ISR_jabel_mukaber_judge"
			set_country_flag = mukaber_done
			clr_country_flag = mukaber_progr
		}
	}

	HAM_gush_etzion_capt = {
		icon = {
			key = GFX_decision_generic_scorched_earth
			trigger = {
				has_decision = HAM_gush_etzion_capt
			}
		}
		available = {
			NOT = {
				has_country_flag = operations_blocked
			}
			country_exists = ISR
			NOT = {
				has_war_with = ISR
			}
			PAL = {
				is_subject_of = ISR
			}
			ISR = {
				has_completed_focus = ISR_yesha_council
			}
		}
		visible = {
			HAM = {
				NOT = { has_government = democratic }
				neutrality_neutral_social_in_power_or_coalition = no
			}
			original_tag = HAM
			has_country_flag = gu_mainisr_select
			NOT = {
				has_country_flag = gushetz_done
			}
		}
		highlight_states = {
			highlight_state_targets = {
				state = 206
			}
			highlight_color_while_active = 3
			highlight_color_before_active = 2
		}
		cost = 80
		ai_will_do = {
			factor = 1
		}
		days_remove = 15
		complete_effect = {
			log = "[GetDateText]: [Root.GetName]: Decision HAM_gush_etzion_capt"
			block_operations = yes
			set_country_flag = gushetz_progr
			add_command_power = 15
			add_war_support = 0.05
			set_party_index_to_ruling_party = yes
			set_temp_variable = {
				party_popularity_increase = 0.05
			}
			set_temp_variable = {
				temp_outlook_increase = 0.05
			}
			add_relative_party_popularity = yes
			ISR = { add_manpower = -3 }
			ISR = {
				country_event = israel.110
			}
		}
		fire_only_once = yes
		remove_effect = {
			log = "[GetDateText]: [Root.GetName]: Decision remove HAM_gush_etzion_capt"
			set_country_flag = gushetz_done
			clr_country_flag = gushetz_progr
		}
	}

	HAM_start_raid_on_isr = {
		icon = {
			key = GFX_decision_israeli_guns
			trigger = {
				has_decision = HAM_start_raid_on_isr
			}
		}
		available = {
			NOT = {
				has_country_flag = operations_blocked
			}
			country_exists = ISR
			NOT = {
				has_war_with = ISR
			}
		}
		visible = {
			HAM = {
				NOT = { has_government = democratic }
				neutrality_neutral_social_in_power_or_coalition = no
			}
			original_tag = HAM
			has_country_flag = gu_mainisr_select
			NOT = {
				has_country_flag = mainraid_done
			}
		}
		highlight_states = {
			highlight_state_targets = {
				state = 206
			}
			highlight_color_while_active = 3
			highlight_color_before_active = 2
		}
		cost = 80
		ai_will_do = {
			factor = 1
		}
		days_remove = 15
		complete_effect = {
			log = "[GetDateText]: [Root.GetName]: Decision HAM_start_raid_on_isr"
			block_operations = yes
			set_country_flag = mainraid_progr
			start_border_war = {
				change_state_after_war = no
				attacker = {
					state = 209
					num_provinces = 1
					on_win = israel.114
					on_lose = israel.113
					on_cancel = israel.103
					dig_in_factor = 155
					terrain_factor = 15
				}
				defender = {
					state = 206
					num_provinces = 4
					on_win = israel.113
					on_lose = israel.114
					on_cancel = israel.103
				}
			}
		}
		fire_only_once = yes
		remove_effect = {
			log = "[GetDateText]: [Root.GetName]: Decision remove HAM_start_raid_on_isr"
			set_country_flag = mainraid_done
			clr_country_flag = mainraid_progr
		}
	}

}

israel_arab_boycott_category = {
}

israel_knesset_category = {
	ISR_open_bureaucracy = {
		allowed = {
			original_tag = ISR
		}
		days_remove = 0
		days_re_enable = 0
		fire_only_once = no
		ai_will_do = {
			factor = 355
		}
		icon = GFX_decision_ISR_centralisation_button
		remove_effect = {
			log = "[GetDateText]: [Root.GetName]: ISR_open_bureaucracy"
			if = {
				limit = {
					NOT = {
						has_country_flag = ISR_bureaucracy_debate
					}
				}
				set_country_flag = ISR_bureaucracy_debate
			}
			else = {
				clr_country_flag = ISR_bureaucracy_debate
			}
		}
	}
	ISR_up_bureaucracy = {
		allowed = {
			original_tag = ISR
		}
		days_remove = 50
		days_re_enable = 50
		fire_only_once = no
		cost = 100
		ai_will_do = {
			factor = 355
		}
		visible = {
			has_country_flag = ISR_bureaucracy_debate
		}
		icon = GFX_decision_ISR_centralisation_button
		available = {
			NOT = {
				OR = {
					has_country_flag = ISR_bill_in_progress
					has_country_flag = ISR_small_knesset
				}
			}
		}
		complete_effect = {
			set_country_flag = ISR_bill_in_progress
			custom_effect_tooltip = ISR_knesset_start_TT
			hidden_effect = {
				country_event = {
					id = israel.knesset.0
					days = 1
				}
				country_event = {
					id = israel.knesset.3
					days = 30
				}
				country_event = {
					id = israel.knesset.4
					days = 10
				}
				random_list = {
					50 = {
						country_event = {
							id = israel.knesset.1
							days = 15
						}
					}
					50 = {
						country_event = {
							id = israel.knesset.2
							days = 15
						}
					}
				}
				random_list = {
					30 = {
						country_event = {
							id = israel.knesset.7
							days = 40
						}
					}
				}
			}
		}
		remove_effect = {
			log = "[GetDateText]: [Root.GetName]: ISR_up_bureaucracy"
			custom_effect_tooltip = ISR_knesset_end_TT
			hidden_effect = {
				clr_country_flag = ISR_bill_in_progress
				if = {
					limit = {
						check_variable = {
							bill_support > 59
						}
					}
					increase_centralization = yes
					country_event = israel.knesset.5
				}
				else = {
					country_event = israel.knesset.6
				}
				clear_variable = bill_support
			}
		}
	}
	ISR_down_bureaucracy = {
		allowed = {
			original_tag = ISR
		}
		days_remove = 50
		days_re_enable = 50
		fire_only_once = no
		cost = 100
		ai_will_do = {
			factor = 355
		}
		visible = {
			has_country_flag = ISR_bureaucracy_debate
		}
		icon = GFX_decision_ISR_centralisation_button
		available = {
			NOT = {
				OR = {
					has_country_flag = ISR_bill_in_progress
					has_country_flag = ISR_small_knesset
				}
			}
		}
		complete_effect = {
			set_country_flag = ISR_bill_in_progress
			custom_effect_tooltip = ISR_knesset_start_TT
			hidden_effect = {
				country_event = {
					id = israel.knesset.0
					days = 1
				}
				country_event = {
					id = israel.knesset.3
					days = 30
				}
				country_event = {
					id = israel.knesset.4
					days = 10
				}
				random_list = {
					50 = {
						country_event = {
							id = israel.knesset.1
							days = 15
						}
					}
					50 = {
						country_event = {
							id = israel.knesset.2
							days = 15
						}
					}
				}
				random_list = {
					30 = {
						country_event = {
							id = israel.knesset.7
							days = 40
						}
					}
				}
			}
		}
		remove_effect = {
			log = "[GetDateText]: [Root.GetName]: ISR_down_bureaucracy"
			custom_effect_tooltip = ISR_knesset_end_TT
			hidden_effect = {
				clr_country_flag = ISR_bill_in_progress
				if = {
					limit = {
						check_variable = {
							bill_support > 59
						}
					}
					decrease_centralization = yes
					country_event = israel.knesset.5
				}
				else = {
					country_event = israel.knesset.6
				}
				clear_variable = bill_support
			}
		}
	}
	ISR_open_military = {
		allowed = {
			original_tag = ISR
		}
		days_remove = 0
		days_re_enable = 0
		fire_only_once = no
		ai_will_do = {
			factor = 355
		}
		icon = GFX_decision_ISR_military_button
		remove_effect = {
			log = "[GetDateText]: [Root.GetName]: ISR_open_military"
			if = {
				limit = {
					NOT = {
						has_country_flag = ISR_military_debate
					}
				}
				set_country_flag = ISR_military_debate
			}
			else = {
				clr_country_flag = ISR_military_debate
			}
		}
	}
	ISR_up_military = {
		allowed = {
			original_tag = ISR
		}
		days_remove = 50
		days_re_enable = 50
		fire_only_once = no
		cost = 100
		ai_will_do = {
			factor = 355
		}
		visible = {
			has_country_flag = ISR_military_debate
		}
		icon = GFX_decision_ISR_military_button
		available = {
			NOT = {
				OR = {
					has_country_flag = ISR_bill_in_progress
					has_country_flag = ISR_small_knesset
				}
			}
		}
		complete_effect = {
			log = "[GetDateText]: [Root.GetName]: ISR_up_military"
			set_country_flag = ISR_bill_in_progress
			custom_effect_tooltip = ISR_knesset_start_TT
			hidden_effect = {
				country_event = {
					id = israel.knesset.0
					days = 1
				}
				country_event = {
					id = israel.knesset.3
					days = 30
				}
				country_event = {
					id = israel.knesset.4
					days = 10
				}
				random_list = {
					50 = {
						country_event = {
							id = israel.knesset.1
							days = 15
						}
					}
					50 = {
						country_event = {
							id = israel.knesset.2
							days = 15
						}
					}
				}
				random_list = {
					30 = {
						country_event = {
							id = israel.knesset.7
							days = 40
						}
					}
				}
			}
		}
		remove_effect = {
			log = "[GetDateText]: [Root.GetName]: ISR_up_military"
			custom_effect_tooltip = ISR_knesset_end_TT
			hidden_effect = {
				clr_country_flag = ISR_bill_in_progress
				if = {
					limit = {
						check_variable = {
							bill_support > 59
						}
					}
					increase_military_spending = yes
					country_event = israel.knesset.5
				}
				else = {
					country_event = israel.knesset.6
				}
				clear_variable = bill_support
			}
		}
	}
	ISR_down_military = {
		allowed = {
			original_tag = ISR
		}
		days_remove = 50
		days_re_enable = 50
		fire_only_once = no
		cost = 100
		ai_will_do = {
			factor = 355
		}
		visible = {
			has_country_flag = ISR_military_debate
		}
		icon = GFX_decision_ISR_military_button
		available = {
			NOT = {
				OR = {
					has_country_flag = ISR_bill_in_progress
					has_country_flag = ISR_small_knesset
				}
			}
		}
		complete_effect = {
			log = "[GetDateText]: [Root.GetName]: ISR_down_military"
			set_country_flag = ISR_bill_in_progress
			custom_effect_tooltip = ISR_knesset_start_TT
			hidden_effect = {
				country_event = {
					id = israel.knesset.0
					days = 1
				}
				country_event = {
					id = israel.knesset.3
					days = 30
				}
				country_event = {
					id = israel.knesset.4
					days = 10
				}
				random_list = {
					50 = {
						country_event = {
							id = israel.knesset.1
							days = 15
						}
					}
					50 = {
						country_event = {
							id = israel.knesset.2
							days = 15
						}
					}
				}
				random_list = {
					30 = {
						country_event = {
							id = israel.knesset.7
							days = 40
						}
					}
				}
			}
		}
		remove_effect = {
			log = "[GetDateText]: [Root.GetName]: ISR_down_military"
			custom_effect_tooltip = ISR_knesset_end_TT
			hidden_effect = {
				clr_country_flag = ISR_bill_in_progress
				if = {
					limit = {
						check_variable = {
							bill_support > 59
						}
					}
					decrease_military_spending = yes
					country_event = israel.knesset.5
				}
				else = {
					country_event = israel.knesset.6
				}
				clear_variable = bill_support
			}
		}
	}
	ISR_open_police = {
		allowed = {
			original_tag = ISR
		}
		days_remove = 0
		days_re_enable = 0
		fire_only_once = no
		ai_will_do = {
			factor = 355
		}
		icon = GFX_decision_ISR_police_button
		remove_effect = {
			log = "[GetDateText]: [Root.GetName]: ISR_open_police"
			if = {
				limit = {
					NOT = {
						has_country_flag = ISR_police_debate
					}
				}
				set_country_flag = ISR_police_debate
			}
			else = {
				clr_country_flag = ISR_police_debate
			}
		}
	}
	ISR_up_police = {
		allowed = {
			original_tag = ISR
		}
		days_remove = 50
		days_re_enable = 50
		fire_only_once = no
		cost = 100
		ai_will_do = {
			factor = 355
		}
		visible = {
			has_country_flag = ISR_police_debate
		}
		icon = GFX_decision_ISR_police_button
		available = {
			NOT = {
				OR = {
					has_country_flag = ISR_bill_in_progress
					has_country_flag = ISR_small_knesset
				}
			}
		}
		complete_effect = {
			log = "[GetDateText]: [Root.GetName]: ISR_up_police"
			set_country_flag = ISR_bill_in_progress
			custom_effect_tooltip = ISR_knesset_start_TT
			hidden_effect = {
				country_event = {
					id = israel.knesset.0
					days = 1
				}
				country_event = {
					id = israel.knesset.3
					days = 30
				}
				country_event = {
					id = israel.knesset.4
					days = 10
				}
				random_list = {
					50 = {
						country_event = {
							id = israel.knesset.1
							days = 15
						}
					}
					50 = {
						country_event = {
							id = israel.knesset.2
							days = 15
						}
					}
				}
				random_list = {
					30 = {
						country_event = {
							id = israel.knesset.7
							days = 40
						}
					}
				}
			}
		}
		remove_effect = {
			log = "[GetDateText]: [Root.GetName]: ISR_up_police"
			custom_effect_tooltip = ISR_knesset_end_TT
			hidden_effect = {
				clr_country_flag = ISR_bill_in_progress
				if = {
					limit = {
						check_variable = {
							bill_support > 59
						}
					}
					increase_policing_budget = yes
					country_event = israel.knesset.5
				}
				else = {
					country_event = israel.knesset.6
				}
				clear_variable = bill_support
			}
		}
	}
	ISR_down_police = {
		allowed = {
			original_tag = ISR
		}
		days_remove = 50
		days_re_enable = 50
		fire_only_once = no
		cost = 100
		ai_will_do = {
			factor = 355
		}
		visible = {
			has_country_flag = ISR_police_debate
		}
		icon = GFX_decision_ISR_police_button
		available = {
			NOT = {
				OR = {
					has_country_flag = ISR_bill_in_progress
					has_country_flag = ISR_small_knesset
				}
			}
		}
		complete_effect = {
			set_country_flag = ISR_bill_in_progress
			custom_effect_tooltip = ISR_knesset_start_TT
			hidden_effect = {
				country_event = {
					id = israel.knesset.0
					days = 1
				}
				country_event = {
					id = israel.knesset.3
					days = 30
				}
				country_event = {
					id = israel.knesset.4
					days = 10
				}
				random_list = {
					50 = {
						country_event = {
							id = israel.knesset.1
							days = 15
						}
					}
					50 = {
						country_event = {
							id = israel.knesset.2
							days = 15
						}
					}
				}
				random_list = {
					30 = {
						country_event = {
							id = israel.knesset.7
							days = 40
						}
					}
				}
			}
		}
		remove_effect = {
			log = "[GetDateText]: [Root.GetName]: ISR_down_police"
			custom_effect_tooltip = ISR_knesset_end_TT
			hidden_effect = {
				clr_country_flag = ISR_bill_in_progress
				if = {
					limit = {
						check_variable = {
							bill_support > 59
						}
					}
					decrease_policing_budget = yes
					country_event = israel.knesset.5
				}
				else = {
					country_event = israel.knesset.6
				}
				clear_variable = bill_support
			}
		}
	}
	ISR_open_education = {
		allowed = {
			original_tag = ISR
		}
		days_remove = 0
		days_re_enable = 0
		fire_only_once = no
		ai_will_do = {
			factor = 355
		}
		icon = GFX_decision_ISR_education_button
		remove_effect = {
			log = "[GetDateText]: [Root.GetName]: ISR_open_education"
			if = {
				limit = {
					NOT = {
						has_country_flag = ISR_education_debate
					}
				}
				set_country_flag = ISR_education_debate
			}
			else = {
				clr_country_flag = ISR_education_debate
			}
		}
	}
	ISR_up_education = {
		allowed = {
			original_tag = ISR
		}
		days_remove = 50
		days_re_enable = 50
		fire_only_once = no
		cost = 100
		ai_will_do = {
			factor = 355
		}
		visible = {
			has_country_flag = ISR_education_debate
		}
		icon = GFX_decision_ISR_education_button
		available = {
			NOT = {
				OR = {
					has_country_flag = ISR_bill_in_progress
					has_country_flag = ISR_small_knesset
				}
			}
		}
		complete_effect = {
			log = "[GetDateText]: [Root.GetName]: ISR_up_education"
			set_country_flag = ISR_bill_in_progress
			custom_effect_tooltip = ISR_knesset_start_TT
			hidden_effect = {
				country_event = {
					id = israel.knesset.0
					days = 1
				}
				country_event = {
					id = israel.knesset.3
					days = 30
				}
				country_event = {
					id = israel.knesset.4
					days = 10
				}
				random_list = {
					50 = {
						country_event = {
							id = israel.knesset.1
							days = 15
						}
					}
					50 = {
						country_event = {
							id = israel.knesset.2
							days = 15
						}
					}
				}
				random_list = {
					30 = {
						country_event = {
							id = israel.knesset.7
							days = 40
						}
					}
				}
			}
		}
		remove_effect = {
			log = "[GetDateText]: [Root.GetName]: ISR_up_education"
			custom_effect_tooltip = ISR_knesset_end_TT
			hidden_effect = {
				clr_country_flag = ISR_bill_in_progress
				if = {
					limit = {
						check_variable = {
							bill_support > 59
						}
					}
					increase_education_budget = yes
					country_event = israel.knesset.5
				}
				else = {
					country_event = israel.knesset.6
				}
				clear_variable = bill_support
			}
		}
	}
	ISR_down_education = {
		allowed = {
			original_tag = ISR
		}
		days_remove = 50
		days_re_enable = 50
		fire_only_once = no
		cost = 100
		ai_will_do = {
			factor = 355
		}
		visible = {
			has_country_flag = ISR_education_debate
		}
		icon = GFX_decision_ISR_education_button
		available = {
			NOT = {
				OR = {
					has_country_flag = ISR_bill_in_progress
					has_country_flag = ISR_small_knesset
				}
			}
		}
		complete_effect = {
			log = "[GetDateText]: [Root.GetName]: ISR_down_education"
			set_country_flag = ISR_bill_in_progress
			custom_effect_tooltip = ISR_knesset_start_TT
			hidden_effect = {
				country_event = {
					id = israel.knesset.0
					days = 1
				}
				country_event = {
					id = israel.knesset.3
					days = 30
				}
				country_event = {
					id = israel.knesset.4
					days = 10
				}
				random_list = {
					50 = {
						country_event = {
							id = israel.knesset.1
							days = 15
						}
					}
					50 = {
						country_event = {
							id = israel.knesset.2
							days = 15
						}
					}
				}
				random_list = {
					30 = {
						country_event = {
							id = israel.knesset.7
							days = 40
						}
					}
				}
			}
		}
		remove_effect = {
			log = "[GetDateText]: [Root.GetName]: ISR_down_education"
			custom_effect_tooltip = ISR_knesset_end_TT
			hidden_effect = {
				clr_country_flag = ISR_bill_in_progress
				if = {
					limit = {
						check_variable = {
							bill_support > 59
						}
					}
					decrease_education_budget = yes
					country_event = israel.knesset.5
				}
				else = {
					country_event = israel.knesset.6
				}
				clear_variable = bill_support
			}
		}
	}
	ISR_open_medicine = {
		allowed = {
			original_tag = ISR
		}
		days_remove = 0
		days_re_enable = 0
		fire_only_once = no
		ai_will_do = {
			factor = 355
		}
		icon = GFX_decision_ISR_healthcare_button
		remove_effect = {
			log = "[GetDateText]: [Root.GetName]: ISR_open_medicine"
			if = {
				limit = {
					NOT = {
						has_country_flag = ISR_medicine_debate
					}
				}
				set_country_flag = ISR_medicine_debate
			}
			else = {
				clr_country_flag = ISR_medicine_debate
			}
		}
	}
	ISR_up_medicine = {
		allowed = {
			original_tag = ISR
		}
		days_remove = 50
		days_re_enable = 50
		fire_only_once = no
		cost = 100
		ai_will_do = {
			factor = 355
		}
		visible = {
			has_country_flag = ISR_medicine_debate
		}
		icon = GFX_decision_ISR_healthcare_button
		available = {
			NOT = {
				OR = {
					has_country_flag = ISR_bill_in_progress
					has_country_flag = ISR_small_knesset
				}
			}
		}
		complete_effect = {
			log = "[GetDateText]: [Root.GetName]: ISR_up_medicine"
			set_country_flag = ISR_bill_in_progress
			custom_effect_tooltip = ISR_knesset_start_TT
			hidden_effect = {
				country_event = {
					id = israel.knesset.0
					days = 1
				}
				country_event = {
					id = israel.knesset.3
					days = 30
				}
				country_event = {
					id = israel.knesset.4
					days = 10
				}
				random_list = {
					50 = {
						country_event = {
							id = israel.knesset.1
							days = 15
						}
					}
					50 = {
						country_event = {
							id = israel.knesset.2
							days = 15
						}
					}
				}
				random_list = {
					30 = {
						country_event = {
							id = israel.knesset.7
							days = 40
						}
					}
				}
			}
		}
		remove_effect = {
			log = "[GetDateText]: [Root.GetName]: ISR_up_medicine"
			custom_effect_tooltip = ISR_knesset_end_TT
			hidden_effect = {
				clr_country_flag = ISR_bill_in_progress
				if = {
					limit = {
						check_variable = {
							bill_support > 59
						}
					}
					increase_healthcare_budget = yes
					country_event = israel.knesset.5
				}
				else = {
					country_event = israel.knesset.6
				}
				clear_variable = bill_support
			}
		}
	}
	ISR_down_medicine = {
		allowed = {
			original_tag = ISR
		}
		days_remove = 50
		days_re_enable = 50
		fire_only_once = no
		cost = 100
		ai_will_do = {
			factor = 355
		}
		visible = {
			has_country_flag = ISR_medicine_debate
		}
		icon = GFX_decision_ISR_healthcare_button
		available = {
			NOT = {
				OR = {
					has_country_flag = ISR_bill_in_progress
					has_country_flag = ISR_small_knesset
				}
			}
		}
		complete_effect = {
			log = "[GetDateText]: [Root.GetName]: ISR_down_medicine"
			set_country_flag = ISR_bill_in_progress
			custom_effect_tooltip = ISR_knesset_start_TT
			hidden_effect = {
				country_event = {
					id = israel.knesset.0
					days = 1
				}
				country_event = {
					id = israel.knesset.3
					days = 30
				}
				country_event = {
					id = israel.knesset.4
					days = 10
				}
				random_list = {
					50 = {
						country_event = {
							id = israel.knesset.1
							days = 15
						}
					}
					50 = {
						country_event = {
							id = israel.knesset.2
							days = 15
						}
					}
				}
				random_list = {
					30 = {
						country_event = {
							id = israel.knesset.7
							days = 40
						}
					}
				}
			}
		}
		remove_effect = {
			log = "[GetDateText]: [Root.GetName]: ISR_down_medicine"
			custom_effect_tooltip = ISR_knesset_end_TT
			hidden_effect = {
				clr_country_flag = ISR_bill_in_progress
				if = {
					limit = {
						check_variable = {
							bill_support > 59
						}
					}
					decrease_healthcare_budget = yes
					country_event = israel.knesset.5
				}
				else = {
					country_event = israel.knesset.6
				}
				clear_variable = bill_support
			}
		}
	}
	ISR_open_welfare = {
		allowed = {
			original_tag = ISR
		}
		days_remove = 0
		days_re_enable = 0
		fire_only_once = no
		ai_will_do = {
			factor = 355
		}
		icon = GFX_decision_ISR_welfare_button
		remove_effect = {
			log = "[GetDateText]: [Root.GetName]: ISR_open_welfare"
			if = {
				limit = {
					NOT = {
						has_country_flag = ISR_welfare_debate
					}
				}
				set_country_flag = ISR_welfare_debate
			}
			else = {
				clr_country_flag = ISR_welfare_debate
			}
		}
	}
	ISR_up_welfare = {
		allowed = {
			original_tag = ISR
		}
		days_remove = 50
		days_re_enable = 50
		fire_only_once = no
		cost = 100
		ai_will_do = {
			factor = 355
		}
		visible = {
			has_country_flag = ISR_welfare_debate
		}
		icon = GFX_decision_ISR_welfare_button
		available = {
			NOT = {
				OR = {
					has_country_flag = ISR_bill_in_progress
					has_country_flag = ISR_small_knesset
				}
			}
		}
		complete_effect = {
			log = "[GetDateText]: [Root.GetName]: ISR_up_welfare"
			set_country_flag = ISR_bill_in_progress
			custom_effect_tooltip = ISR_knesset_start_TT
			hidden_effect = {
				country_event = {
					id = israel.knesset.0
					days = 1
				}
				country_event = {
					id = israel.knesset.3
					days = 30
				}
				country_event = {
					id = israel.knesset.4
					days = 10
				}
				random_list = {
					50 = {
						country_event = {
							id = israel.knesset.1
							days = 15
						}
					}
					50 = {
						country_event = {
							id = israel.knesset.2
							days = 15
						}
					}
				}
				random_list = {
					30 = {
						country_event = {
							id = israel.knesset.7
							days = 10
						}
					}
				}
			}
		}
		remove_effect = {
			log = "[GetDateText]: [Root.GetName]: ISR_up_welfare"
			custom_effect_tooltip = ISR_knesset_end_TT
			hidden_effect = {
				clr_country_flag = ISR_bill_in_progress
				if = {
					limit = {
						check_variable = {
							bill_support > 59
						}
					}
					increase_social_spending = yes
					country_event = israel.knesset.5
				}
				else = {
					country_event = israel.knesset.6
				}
				clear_variable = bill_support
			}
		}
	}
	ISR_down_welfare = {
		allowed = {
			original_tag = ISR
		}
		days_remove = 50
		days_re_enable = 50
		fire_only_once = no
		cost = 100
		ai_will_do = {
			factor = 355
		}
		visible = {
			has_country_flag = ISR_welfare_debate
		}
		icon = GFX_decision_ISR_welfare_button
		available = {
			NOT = {
				OR = {
					has_country_flag = ISR_bill_in_progress
					has_country_flag = ISR_small_knesset
				}
			}
		}
		complete_effect = {
			log = "[GetDateText]: [Root.GetName]: ISR_down_welfare"
			set_country_flag = ISR_bill_in_progress
			custom_effect_tooltip = ISR_knesset_start_TT
			hidden_effect = {
				country_event = {
					id = israel.knesset.0
					days = 1
				}
				country_event = {
					id = israel.knesset.3
					days = 30
				}
				country_event = {
					id = israel.knesset.4
					days = 10
				}
				random_list = {
					50 = {
						country_event = {
							id = israel.knesset.1
							days = 15
						}
					}
					50 = {
						country_event = {
							id = israel.knesset.2
							days = 15
						}
					}
				}
				random_list = {
					30 = {
						country_event = {
							id = israel.knesset.7
							days = 10
						}
					}
				}
			}
		}
		remove_effect = {
			log = "[GetDateText]: [Root.GetName]: ISR_down_welfare"
			custom_effect_tooltip = ISR_knesset_end_TT
			hidden_effect = {
				clr_country_flag = ISR_bill_in_progress
				if = {
					limit = {
						check_variable = {
							bill_support > 59
						}
					}
					decrease_social_spending = yes
					country_event = israel.knesset.5
				}
				else = {
					country_event = israel.knesset.6
				}
				clear_variable = bill_support
			}
		}
	}
	ISR_isr_liberman_coalition_ticker_mission = {
		available = {
			always = no
		}
		activation = {
			neutrality_neutral_oligarch_are_in_coalition = yes
			NOT = {
				check_variable = {
					liberam_completed = 2
					compare = greater_than_or_equals
				}
			}
			NOT = {
				has_completed_focus = ISR_national_secular_government
			}
		}
		days_mission_timeout = 1000
		is_good = no
		icon = GFX_decision_ISR_israel_lib_button
		cancel_trigger = {
			OR = {
				hidden_trigger = {
					NOT = {
						neutrality_neutral_oligarch_are_in_coalition = yes
					}
				}
				check_variable = {
					liberam_completed = 2
					compare = greater_than_or_equals
				}
			}
		}
		visible = {
			neutrality_neutral_oligarch_are_in_coalition = yes
			NOT = {
				has_completed_focus = ISR_national_secular_government
			}
		}
		cancel_if_not_visible = no
		cancel_effect = {
			if = {
				limit = {
					check_variable = {
						liberam_completed = 2
						compare = greater_than_or_equals
					}
				}
				custom_effect_tooltip = ISR_coalition_saved_tt
				country_event = israel.coalition.0
				add_timed_idea = {
				idea = ISR_liberamn_done
				days = 600
				}
			}
		}
		timeout_effect = {
			custom_effect_tooltip = ISR_coalition_destroyed_tt
			clear_variable = liberam_completed
			country_event = israel.coalition.1
			add_to_variable = {
				var = government_collapse
				value = 1
			}
			if = {
				limit = { 
					check_variable = {
						var = government_collapse
						value = 1
						compare = greater_than_or_equals
					}
				}
				country_event = israel.coalition.13
			}
		}
	}
	ISR_isr_givir_coalition_ticker_mission = {
		# The player has 3 years to complete a minimum of 2 policies before the government collapses
		available = {
			always = no
		}
		activation = {
			nationalist_fascist_are_in_power = yes
			NOT = {
				check_variable = {
					givir_completed = 2
					compare = greater_than_or_equals
				}
			}
			NOT = {
				has_completed_focus = ISR_civilian_oversight
			}
		}
		days_mission_timeout = 1000
		is_good = no
		icon = GFX_decision_ISR_givir_button
		cancel_trigger = {
			OR = {
				hidden_trigger = {
					NOT = {
						nationalist_fascist_are_in_power = yes
					}
				}
				check_variable = {
					givir_completed = 2
					compare = greater_than_or_equals
				}
			}
		}
		visible = {
			nationalist_fascist_are_in_power = yes
			NOT = {
				has_completed_focus = ISR_civilian_oversight
			}
		}
		cancel_if_not_visible = no
		cancel_effect = {
			if = {
				limit = {
					check_variable = {
						givir_completed = 2
						compare = greater_than_or_equals
					}
				}
				custom_effect_tooltip = ISR_coalition_saved_tt
				country_event = israel.coalition.0
				add_timed_idea = {
				idea = ISR_givir_done
				days = 600
				}
			}
		}
		timeout_effect = {
			custom_effect_tooltip = ISR_coalition_destroyed_tt
			clear_variable = givir_completed
			country_event = israel.coalition.2
			add_to_variable = {
				var = government_collapse
				value = 1
			}
			if = {
				limit = { 
					check_variable = {
						var = government_collapse
						value = 1
						compare = greater_than_or_equals
					}
				}
				country_event = israel.coalition.13
			}
		}
	}
	ISR_isr_likud_coalition_ticker_mission = {
		available = {
			always = no
		}
		activation = {
			western_conservatism_are_in_coalition = yes
			NOT = {
				check_variable = {
					likud_completed = 2
					compare = greater_than_or_equals
				}
			}
			NOT = {
				OR = {
					has_completed_focus = ISR_cut_child_benefits
					has_completed_focus = ISR_cut_social_spending
				}
			}
		}
		days_mission_timeout = 1000
		is_good = no
		icon = GFX_decision_ISR_likud_button
		cancel_trigger = {
			OR = {
				hidden_trigger = {
					NOT = {
						western_conservatism_are_in_coalition = yes
					}
				}
				check_variable = {
					likud_completed = 2
					compare = greater_than_or_equals
				}
			}
		}
		visible = {
			western_conservatism_are_in_coalition = yes
			NOT = {
				OR = {
					has_completed_focus = ISR_cut_child_benefits
					has_completed_focus = ISR_cut_social_spending
				}
			}
		}
		cancel_if_not_visible = no
		cancel_effect = {
			if = {
				limit = {
					check_variable = {
						likud_completed = 2
						compare = greater_than_or_equals
					}
				}
				custom_effect_tooltip = ISR_coalition_saved_tt
				country_event = israel.coalition.0
				add_timed_idea = {
				idea = ISR_likud_done
				days = 600
				}
			}
		}
		timeout_effect = {
			custom_effect_tooltip = ISR_coalition_destroyed_tt
			clear_variable = likud_completed
			country_event = israel.coalition.3
			add_to_variable = {
				var = government_collapse
				value = 1
			}
			if = {
				limit = { 
					check_variable = {
						var = government_collapse
						value = 1
						compare = greater_than_or_equals
					}
				}
				country_event = israel.coalition.13
			}
		}
	}
	ISR_isr_shas_coalition_ticker_mission = {
		available = {
			always = no
		}
		activation = {
			emerging_reactionaries_are_in_coalition = yes
			NOT = {
				check_variable = {
					shas_completed = 2
					compare = greater_than_or_equals
				}
			}
			NOT = {
				has_completed_focus = ISR_food_checks
			}
		}
		days_mission_timeout = 1000
		is_good = no
		icon = GFX_decision_ISR_shas_button
		cancel_trigger = {
			OR = {
				hidden_trigger = {
					NOT = {
						emerging_reactionaries_are_in_coalition = yes
					}
				}
				check_variable = {
					 shas_completed = 2
					compare = greater_than_or_equals
				}
			}
		}
		visible = {
			emerging_reactionaries_are_in_coalition = yes
			NOT = {
				has_completed_focus = ISR_food_checks
			}
		}
		cancel_if_not_visible = no
		cancel_effect = {
			if = {
				limit = {
					check_variable = {
						shas_completed = 2
						compare = greater_than_or_equals
					}
				}
				custom_effect_tooltip = ISR_coalition_saved_tt
				country_event = israel.coalition.0
				add_timed_idea = {
				idea = ISR_shas_done
				days = 600
				}
			}
		}
		timeout_effect = {
			custom_effect_tooltip = ISR_coalition_destroyed_tt
			clear_variable = shas_completed
			country_event = israel.coalition.4
			add_to_variable = {
				var = government_collapse
				value = 1
			}
			if = {
				limit = { 
					check_variable = {
						var = government_collapse
						value = 1
						compare = greater_than_or_equals
					}
				}
				country_event = israel.coalition.13
			}
		}
	}
	ISR_isr_jud_coalition_ticker_mission = {
		available = {
			always = no
		}
		activation = {
			neutrality_neutral_autocracy_are_in_coalition = yes
			NOT = {
				check_variable = {
					jud_completed = 2
					compare = greater_than_or_equals
				}
			}
			NOT = {
				has_completed_focus = ISR_anti_lgbt_propaganda
				has_completed_focus = ISR_new_conscription_law
			}
		}
		days_mission_timeout = 1000
		is_good = no
		icon = GFX_decision_IST_torah_button
		cancel_trigger = {
			OR = {
				hidden_trigger = {
					NOT = {
						neutrality_neutral_autocracy_are_in_coalition = yes
					}
				}
				check_variable = {
					jud_completed = 2
					compare = greater_than_or_equals
				}
			}
		}
		visible = {
			neutrality_neutral_autocracy_are_in_coalition = yes
			NOT = {
				has_completed_focus = ISR_anti_lgbt_propaganda
				has_completed_focus = ISR_new_conscription_law
			}
		}
		cancel_if_not_visible = no
		cancel_effect = {
			if = {
				limit = {
					check_variable = {
						jud_completed = 2
						compare = greater_than_or_equals
					}
				}
				custom_effect_tooltip = ISR_coalition_saved_tt
				country_event = israel.coalition.0
				add_timed_idea = {
				idea = ISR_jud_done
				days = 600
				}
			}
		}
		timeout_effect = {
			custom_effect_tooltip = ISR_coalition_destroyed_tt
			clear_variable = jud_completed
			country_event = israel.coalition.5
			add_to_variable = {
				var = government_collapse
				value = 1
			}
			if = {
				limit = { 
					check_variable = {
						var = government_collapse
						value = 1
						compare = greater_than_or_equals
					}
				}
				country_event = israel.coalition.13
			}
		}
	}
	ISR_isr_nz_coalition_ticker_mission = {
		available = {
			always = no
		}
		activation = {
			nationalist_right_wing_populists_are_in_coalition = yes
			NOT = {
				check_variable = {
					nz_completed = 2
					compare = greater_than_or_equals
				}
			}
			NOT = {
				has_completed_focus = ISR_civilian_oversight
			}
		}
		days_mission_timeout = 1000
		is_good = no
		icon = GFX_decision_ISR_nz_button
		cancel_trigger = {
			OR = {
				hidden_trigger = {
					NOT = {
						nationalist_right_wing_populists_are_in_coalition = yes
					}
				}
				check_variable = {
					nz_completed = 2
					compare = greater_than_or_equals
				}
			}
		}
		visible = {
			nationalist_right_wing_populists_are_in_coalition = yes
			NOT = {
				has_completed_focus = ISR_civilian_oversight
			}
		}
		cancel_if_not_visible = no
		cancel_effect = {
			if = {
				limit = {
					check_variable = {
						nz_completed = 2
						compare = greater_than_or_equals
					}
				}
				custom_effect_tooltip = ISR_coalition_saved_tt
				country_event = israel.coalition.0
				add_timed_idea = {
				idea = ISR_nz_done
				days = 600
				}
			}
		}
		timeout_effect = {
			custom_effect_tooltip = ISR_coalition_destroyed_tt
			clear_variable = nz_completed
			country_event = israel.coalition.6
			add_to_variable = {
				var = government_collapse
				value = 1
			}
			if = {
				limit = { 
					check_variable = {
						var = government_collapse
						value = 1
						compare = greater_than_or_equals
					}
				}
				country_event = israel.coalition.13
			}
		}
	}
	ISR_isr_jewish_home_coalition_ticker_mission = {
		available = {
			always = no
		}
		activation = {
			western_autocrats_are_in_coalition = yes
			NOT = {
				check_variable = {
					jewish_completed = 2
					compare = greater_than_or_equals
				}
			}
			NOT = {
				has_completed_focus = ISR_associations_law
			}
		}
		days_mission_timeout = 1000
		is_good = no
		icon = GFX_decision_ISR_jewish_button
		cancel_trigger = {
			OR = {
				hidden_trigger = {
					NOT = {
						western_autocrats_are_in_coalition = yes
					}
				}
				check_variable = {
					jewish_completed = 2
					compare = greater_than_or_equals
				}
			}
		}
		visible = {
			western_autocrats_are_in_coalition = yes
			NOT = {
				has_completed_focus = ISR_associations_law
			}
		}
		cancel_if_not_visible = no
		cancel_effect = {
			if = {
				limit = {
					check_variable = {
						jewish_completed = 2
						compare = greater_than_or_equals
					}
				}
				custom_effect_tooltip = ISR_coalition_saved_tt
				country_event = israel.coalition.0
				add_timed_idea = {
				idea = ISR_jewish_done
				days = 600
				}
			}
		}
		timeout_effect = {
			custom_effect_tooltip = ISR_coalition_destroyed_tt
			clear_variable = jewish_completed
			country_event = israel.coalition.7
			add_to_variable = {
				var = government_collapse
				value = 1
			}
			if = {
				limit = { 
					check_variable = {
						var = government_collapse
						value = 1
						compare = greater_than_or_equals
					}
				}
				country_event = israel.coalition.13
			}
		}
	}
	ISR_isr_labour_coalition_ticker_mission = {
		available = {
			always = no
		}
		activation = {
			western_social_democrats_are_in_coalition = yes
			NOT = {
				check_variable = {
					labour_completed = 2
					compare = greater_than_or_equals
				}
			}
			NOT = {
				has_completed_focus = ISR_public_transport
				has_completed_focus = ISR_raise_tax_on_wealthy
				has_completed_focus = ISR_regulate_finance
			}
		}
		days_mission_timeout = 1000
		is_good = no
		fire_only_once = yes
		icon = GFX_decision_ISR_avoda_button
		cancel_trigger = {
			OR = {
				hidden_trigger = {
					NOT = {
						western_social_democrats_are_in_coalition = yes
					}
				}
				check_variable = {
					labour_completed = 2
					compare = greater_than_or_equals
				}
			}
		}
		visible = {
			western_social_democrats_are_in_coalition = yes
			NOT = {
				has_completed_focus = ISR_public_transport
				has_completed_focus = ISR_raise_tax_on_wealthy
				has_completed_focus = ISR_regulate_finance
			}
		}
		cancel_if_not_visible = no
		cancel_effect = {
			if = {
				limit = {
					check_variable = {
						labour_completed = 2
						compare = greater_than_or_equals
					}
				}
				custom_effect_tooltip = ISR_coalition_saved_tt
				country_event = israel.coalition.0
				add_timed_idea = {
				idea = ISR_labour_done
				days = 600
				}
			}
		}
		timeout_effect = {
			custom_effect_tooltip = ISR_coalition_destroyed_tt
			clear_variable = labour_completed
			country_event = israel.coalition.8
			add_to_variable = {
				var = government_collapse
				value = 1
			}
			if = {
				limit = { 
					check_variable = {
						var = government_collapse
						value = 1
						compare = greater_than_or_equals
					}
				}
				country_event = israel.coalition.13
			}
		}
	}
	ISR_isr_meretz_coalition_ticker_mission = {
		available = {
			always = no
		}
		activation = {
			neutrality_neutral_social_are_in_coalition = yes
			NOT = {
				check_variable = {
					meretz_completed = 2
					compare = greater_than_or_equals
				}
			}
			NOT = {
				has_completed_focus = ISR_western_world
			}
		}
		days_mission_timeout = 1000
		is_good = no
		fire_only_once = yes
		icon = GFX_decision_ISR_meretz_button
		cancel_trigger = {
			OR = {
				hidden_trigger = {
					NOT = {
						neutrality_neutral_social_are_in_coalition = yes
					}
				}
				check_variable = {
					meretz_completed = 2
					compare = greater_than_or_equals
				}
			}
		}
		visible = {
			neutrality_neutral_social_are_in_coalition = yes
			NOT = {
				has_completed_focus = ISR_western_world
			}
		}
		cancel_if_not_visible = no
		cancel_effect = {
			if = {
				limit = {
					check_variable = {
						meretz_completed = 2
						compare = greater_than_or_equals
					}
				}
				custom_effect_tooltip = ISR_coalition_saved_tt
				country_event = israel.coalition.0
				add_timed_idea = {
				idea = ISR_meretz_done
				days = 600
				}
			}
		}
		timeout_effect = {
			custom_effect_tooltip = ISR_coalition_destroyed_tt
			clear_variable = meretz_completed
			country_event = israel.coalition.9
			add_to_variable = {
				var = government_collapse
				value = 1
			}
			if = {
				limit = { 
					check_variable = {
						var = government_collapse
						value = 1
						compare = greater_than_or_equals
					}
				}
				country_event = israel.coalition.13
			}
		}
	}
	ISR_isr_arab_coalition_ticker_mission = {
		available = {
			always = no
		}
		activation = {
			neutrality_neutral_muslim_brotherhood_are_in_coalition = yes
			NOT = {
				check_variable = {
					arab_completed = 2
					compare = greater_than_or_equals
				}
			}
			NOT = {
				has_completed_focus = ISR_recognize_illegal_outposts
				has_completed_focus = ISR_conversion_therapies
				has_completed_focus = ISR_legalize_polygamy
			}
		}
		days_mission_timeout = 1000
		is_good = no
		fire_only_once = yes
		icon = GFX_decision_ISR_raam_button
		cancel_trigger = {
			OR = {
				hidden_trigger = {
					NOT = {
						neutrality_neutral_muslim_brotherhood_are_in_coalition = yes
					}
				}
				check_variable = {
					arab_completed = 2
					compare = greater_than_or_equals
				}
			}
		}
		visible = {
			neutrality_neutral_muslim_brotherhood_are_in_coalition = yes
			NOT = {
				has_completed_focus = ISR_recognize_illegal_outposts
				has_completed_focus = ISR_conversion_therapies
				has_completed_focus = ISR_legalize_polygamy
			}
		}
		cancel_if_not_visible = no
		cancel_effect = {
			if = {
				limit = {
					check_variable = {
						arab_completed = 2
						compare = greater_than_or_equals
					}
				}
				custom_effect_tooltip = ISR_coalition_saved_tt
				country_event = israel.coalition.0
				add_timed_idea = {
				idea = ISR_arab_done
				days = 600
				}
			}
		}
		timeout_effect = {
			custom_effect_tooltip = ISR_coalition_destroyed_tt
			clear_variable = arab_completed
			country_event = israel.coalition.10
			add_to_variable = {
				var = government_collapse
				value = 1
			}
			if = {
				limit = { 
					check_variable = {
						var = government_collapse
						value = 1
						compare = greater_than_or_equals
					}
				}
				country_event = israel.coalition.13
			}
		}
	}
}

diamonds_isr_category = {
	diam_cancel_deal = {
		icon = GFX_decision_crisis
		days_remove = 30
		fire_only_once = no
		cost = 100
		ai_will_do = {
			factor = 1
		}
		visible = {
			OR = {
				has_idea = namibia_israel_diamonds
				has_idea = angola_israel_diamonds
				has_idea = russia_israel_diamonds
				has_idea = botswana_israel_diamonds
				has_idea = canada_israel_diamonds
			}
		}
		available = {
			OR = {
				has_idea = namibia_israel_diamonds
				has_idea = angola_israel_diamonds
				has_country_flag = dealed_with_isr
			}
			ROOT = {
				has_opinion = {
					target = ISR
					value < -24
				}
			}
			ISR = {
				influence_less_10 = yes
			}
			custom_trigger_tooltip = {
				tooltip = gdp_kaz_500_tt
				check_variable = {
					gdp_total > 499
				}
			}
		}
		modifier = {
			foreign_influence_defense_modifier = 0.02
		}
		remove_effect = {
			log = "[GetDateText]: [Root.GetName]: diam_cancel_deal"
			if = {
				limit = {
					OR = {
						original_tag = AGL
						original_tag = UNI
					}
				}
				remove_ideas = angola_israel_diamonds
				ISR = {
					remove_resource_rights = 301
					country_event = israel_economy.205
				}
			}
			if = {
				limit = {
					original_tag = NAM
				}
				remove_ideas = namibia_israel_diamonds
				ISR = {
					remove_resource_rights = 283
					country_event = israel_economy.205
				}
			}
			if = {
				limit = {
					original_tag = SOV
				}
				remove_ideas = russia_israel_diamonds
				ISR = {
					remove_resource_rights = 647
					country_event = israel_economy.205
				}
			}
			if = {
				limit = {
					original_tag = BOT
				}
				remove_ideas = botswana_israel_diamonds
				ISR = {
					remove_resource_rights = 288
					country_event = israel_economy.205
				}
			}
			if = {
				limit = {
					original_tag = CAN
				}
				remove_ideas = canada_israel_diamonds
				ISR = {
					remove_resource_rights = 763
					country_event = israel_economy.205
				}
			}
		}
	}
	diam_start_deal = {
		icon = GFX_decision_politics
		days_remove = 30
		fire_only_once = no
		cost = 100
		ai_will_do = {
			factor = 1
		}
		visible = {
			NOT = {
				OR = {
					has_idea = namibia_israel_diamonds
					has_idea = angola_israel_diamonds
					has_country_flag = dealed_with_isr
				}
			}
		}
		available = {
			NOT = {
				OR = {
					has_idea = namibia_israel_diamonds
					has_idea = angola_israel_diamonds
					has_country_flag = dealed_with_isr
				}
			}
			ROOT = {
				has_opinion = {
					target = ISR
					value > 9
				}
			}
		}
		modifier = {
			foreign_influence_defense_modifier = -0.02
		}
		remove_effect = {
			log = "[GetDateText]: [Root.GetName]: diam_cancel_deal"
			if = {
				limit = {
					OR = {
						original_tag = AGL
						original_tag = UNI
					}
				}
				add_ideas = angola_israel_diamonds
				ISR = {
					give_resource_rights = {
						receiver = ISR
						state = 301
						resources = {
							chromium
						}
					}
					country_event = israel_economy.206
				}
			}
			if = {
				limit = {
					original_tag = NAM
				}
				add_ideas = namibia_israel_diamonds
				ISR = {
					give_resource_rights = {
						receiver = ISR
						state = 283
						resources = {
							chromium
						}
					}
					country_event = israel_economy.206
				}
			}
			if = {
				limit = {
					original_tag = SOV
				}
				add_ideas = russia_israel_diamonds
				ISR = {
					give_resource_rights = {
						receiver = ISR
						state = 647
						resources = {
							chromium
						}
					}
					country_event = israel_economy.206
				}
			}
			if = {
				limit = {
					original_tag = BOT
				}
				add_ideas = botswana_israel_diamonds
				ISR = {
					give_resource_rights = {
						receiver = ISR
						state = 288
						resources = {
							chromium
						}
					}
					country_event = israel_economy.206
				}
			}
			if = {
				limit = {
					original_tag = CAN
				}
				add_ideas = canada_israel_diamonds
				ISR = {
					give_resource_rights = {
						receiver = ISR
						state = 763
						resources = {
							chromium
						}
					}
					country_event = israel_economy.206
				}
			}
			if = {
				limit = {
					OR = {
						original_tag = DRC
						original_tag = RCD
						original_tag = MLC
					}
				}
				add_ideas = congo_israel_diamonds
				ISR = {
					give_resource_rights = {
						receiver = ISR
						state = 304
						resources = {
							chromium
						}
					}
					country_event = israel_economy.206
				}
			}
			set_temp_variable = {
				percent_change = 3
			}
			set_temp_variable = {
				tag_index = ISR
			}
			set_temp_variable = {
				influence_target = ROOT
			}
			change_influence_percentage = yes
		}
	}
}

israel_boycott_arabside_category = {
	stop_boyc_me = {
		icon = GFX_decision_recogn_israel_button
		days_remove = 30
		fire_only_once = no
		cost = 100
		ai_will_do = {
			factor = 1
		}
		available = {
			OR = {
				has_idea = pol_isr_boycotte
				has_idea = econ_isr_boycotte
			}
			ROOT = {
				has_opinion = {
					target = ISR
					value > 15
				}
			}
		}
		modifier = {
			foreign_influence_defense_modifier = -0.02
		}
		remove_effect = {
			log = "[GetDateText]: [Root.GetName]: stop_boyc_me"
			ISR = {
				country_event = israel_economy.221
			}
			remove_ideas = pol_isr_boycotte
			remove_ideas = econ_isr_boycotte
			set_temp_variable = {
				percent_change = 3
			}
			set_temp_variable = {
				tag_index = ISR
			}
			set_temp_variable = {
				influence_target = ROOT
			}
			change_influence_percentage = yes
		}
	}
	strict_the_boyc = {
		icon = GFX_decision_israeli_guns
		days_remove = 30
		fire_only_once = no
		cost = 100
		ai_will_do = {
			factor = 1
		}
		available = {
			OR = {
				has_idea = pol_isr_boycotte
				has_idea = econ_isr_boycotte
			}
			NOT = {
				has_idea = full_isr_boycotte
			}
			ROOT = {
				has_opinion = {
					target = ISR
					value < 1
				}
			}
			ISR = {
				influence_less_10 = yes
			}
		}
		modifier = {
			foreign_influence_defense_modifier = 0.02
		}
		remove_effect = {
			log = "[GetDateText]: [Root.GetName]: strict_the_boyc"
			ISR = {
				country_event = israel_economy.222
			}
			if = {
				limit = {
					has_idea = pol_isr_boycotte
				}
				swap_ideas = {
					remove_idea = pol_isr_boycotte
					add_idea = full_isr_boycotte
				}
			}
			if = {
				limit = {
					has_idea = econ_isr_boycotte
				}
				swap_ideas = {
					remove_idea = econ_isr_boycotte
					add_idea = full_isr_boycotte
				}
			}
			set_temp_variable = {
				percent_change = -3
			}
			set_temp_variable = {
				tag_index = ISR
			}
			set_temp_variable = {
				influence_target = ROOT
			}
			change_influence_percentage = yes
		}
	}
	leave_the_boyc = {
		icon = GFX_decision_decision_generic_political_rally
		days_remove = 30
		fire_only_once = no
		cost = 200
		ai_will_do = {
			factor = 0
		}
		available = {
			OR = {
				has_idea = pol_isr_boycotte
				has_idea = econ_isr_boycotte
				has_idea = full_isr_boycotte
			}
		}
		modifier = {
			foreign_influence_defense_modifier = -0.02
		}
		remove_effect = {
			log = "[GetDateText]: [Root.GetName]: leave_the_boyc"
			ISR = {
				country_event = israel_economy.223
			}
			set_country_flag = aband_boyc
			if = {
				limit = {
					has_idea = pol_isr_boycotte
				}
				remove_ideas = pol_isr_boycotte
			}
			if = {
				limit = {
					has_idea = econ_isr_boycotte
				}
				remove_ideas = econ_isr_boycotte
			}
			if = {
				limit = {
					has_idea = full_isr_boycotte
				}
				remove_ideas = full_isr_boycotte
			}
			add_opinion_modifier = {
				target = ISR
				modifier = has_expressed_loyalty
			}
			reverse_add_opinion_modifier = {
				target = ISR
				modifier = has_expressed_loyalty
			}
			every_country = {
				limit = {
					OR = {
						has_idea = pol_isr_boycotte
						has_idea = econ_isr_boycotte
						has_idea = full_isr_boycotte
					}
				}
				add_opinion_modifier = {
					target = ROOT
					modifier = major_breach_of_trust
				}
			}
			set_temp_variable = {
				percent_change = 5
			}
			set_temp_variable = {
				tag_index = ISR
			}
			set_temp_variable = {
				influence_target = ROOT
			}
			change_influence_percentage = yes
		}
	}
}

israel_lebanon_occup_category = {
	south_lebanon_occupation_ticker_mission = {
		available = {
			always = no
		}
		activation = {
			has_idea = security_belt
		}
		days_mission_timeout = 100
		is_good = no
		fire_only_once = yes
		icon = GFX_decision_generic_political_rally
		cancel_trigger = {
			NOT = {
				has_idea = security_belt
			}
		}
		visible = {
			has_idea = security_belt
		}
		cancel_if_not_visible = yes
		cancel_effect = {
			hidden_effect = {
				if = {
					limit = {
						has_idea = security_belt2
					}
					country_event = israel_mechanic.24
				}
				if = {
					limit = {
						NOT = {
							has_idea = security_belt
							has_country_flag = didnt_withdraw
						}
					}
					country_event = israel_mechanic.25
				}
			}
		}
		timeout_effect = {
			custom_effect_tooltip = result_dep_on_pol_tt
			hidden_effect = {
				if = {
					limit = {
						has_idea = security_belt
						NOT = {
							has_idea = security_belt2
						}
					}
					country_event = israel_mechanic.26
				}
			}
		}
	}
}
