USA_american_economic_decisions_category = {
	USA_resource_steel_factories_decision = {
		visible = {
			any_owned_state = {
				has_resources_amount = {
					resource = steel
					amount > 3
				}
				NOT = {
					AND = {
						has_state_flag = USA_expanded_steel_one_flag
						has_state_flag = USA_expanded_steel_two_flag
						has_state_flag = USA_expanded_steel_three_flag
					}
				}
			}
		}

		available = {
			custom_trigger_tooltip = {
				tooltip = USA_has_wall_street_faction_TT
				has_idea = wall_street
			}
			any_owned_state = {
				has_resources_amount = {
					resource = steel
					amount > 3
				}
				custom_trigger_tooltip = {
					NOT = {
						AND = {
							has_state_flag = USA_expanded_steel_one_flag
							has_state_flag = USA_expanded_steel_two_flag
							has_state_flag = USA_expanded_steel_three_flag
						}
					}
					tooltip = USA_not_expanded_states_resources_three_times_TT
				}
			}
			congress_low_support_trigger = yes
		}

		icon = steel
		days_remove = 30
		days_re_enable = 31
		cost = 50

		modifier = {
			consumer_goods_factor = 0.05
			political_power_gain = -0.25
		}

		complete_effect = {
			log = "[GetDateText]: [Root.GetName]: Decision USA_resource_steel_factories_decision"
			set_country_flag = USA_expanding_steel_flag
		}

		remove_effect = {
			log = "[GetDateText]: [Root.GetName]: Decision remove USA_resource_steel_factories_decision"
			random_owned_controlled_state = {
				limit = {
					NOT = {
						AND = {
							has_state_flag = USA_expanded_steel_one_flag
							has_state_flag = USA_expanded_steel_two_flag
							has_state_flag = USA_expanded_steel_three_flag
						}
					}
					has_resources_amount = {
						resource = steel
						amount > 3
					}
				}
				set_state_flag = USA_expanding_states_steel_production
				prioritize = { 773 774 793 }
				USA_set_resource_flag_effect = yes
				add_resource = {
					type = steel
					amount = 4
				}
				clr_state_flag = USA_expanding_states_steel_production
			}
			USA_scaling_resource_production_cost_effect = yes
			clr_country_flag = USA_expanding_steel_flag
			set_temp_variable = { temp_opinion = 1 }
			change_wall_street_opinion = yes
		}

		ai_will_do = {
			factor = 0.25
			modifier = {
				add = 0.25
				has_government = democratic
			}
			modifier = {
				add = 0.25
				has_government = communism
			}
			modifier = {
				add = 1
				OR = {
					is_historical_focus_on = yes
					is_historical_focus_on = no
				}
			}
			modifier = {
				add = 5
				check_variable = { wall_street_opinion > 49 }
			}

		}
	}

	USA_resource_aluminimum_prospecting_decision = {
		visible = {
			any_owned_state = {
				has_resources_amount = {
					resource = aluminium
					amount > 1
				}
				NOT = {
					AND = {
						has_state_flag = USA_expanded_aluminium_one_flag
						has_state_flag = USA_expanded_aluminium_two_flag
						has_state_flag = USA_expanded_aluminium_three_flag
					}
				}
			}
		}

		available = {
			custom_trigger_tooltip = {
				tooltip = USA_has_wall_street_faction_TT
				has_idea = wall_street
			}
			any_owned_state = {
				has_resources_amount = {
					resource = aluminium
					amount > 1
				}
				custom_trigger_tooltip = {
					NOT = {
						AND = {
							has_state_flag = USA_expanded_aluminium_one_flag
							has_state_flag = USA_expanded_aluminium_two_flag
							has_state_flag = USA_expanded_aluminium_three_flag
						}
					}
					tooltip = USA_not_expanded_states_resources_three_times_TT
				}
			}
		}

		icon = aluminium
		days_remove = 30
		days_re_enable = 31
		cost = 50

		modifier = {
			consumer_goods_factor = 0.05
			political_power_gain = -0.25
		}

		complete_effect = {
			log = "[GetDateText]: [Root.GetName]: Decision USA_resource_aluminimum_prospecting_decision"
			set_country_flag = USA_expanding_aluminium_flag
		}

		remove_effect = {
			log = "[GetDateText]: [Root.GetName]: Decision remove USA_resource_aluminimum_prospecting_decision"
			random_owned_controlled_state = {
				limit = {
					NOT = {
						AND = {
							has_state_flag = USA_expanded_aluminium_one_flag
							has_state_flag = USA_expanded_aluminium_two_flag
							has_state_flag = USA_expanded_aluminium_three_flag
						}
					}
					has_resources_amount = {
						resource = aluminium
						amount > 1
					}
				}
				set_state_flag = USA_expanding_states_aluminium_production
				USA_set_resource_flag_effect = yes
				add_resource = {
					type = aluminium
					amount = 3
				}
				clr_state_flag = USA_expanding_states_aluminium_production
			}
			USA_scaling_resource_production_cost_effect = yes
			clr_country_flag = USA_expanding_aluminium_flag
			set_temp_variable = { temp_opinion = 1 }
			change_wall_street_opinion = yes
		}

		ai_will_do = {
			factor = 1
			modifier = {
				add = 2
				has_government = democratic
			}
			modifier = {
				add = 1
				has_government = communism
			}
			modifier = {
				add = 1
				OR = {
					is_historical_focus_on = yes
					is_historical_focus_on = no
				}
			}
			modifier = {
				add = 2
				check_variable = { wall_street_opinion > 49 }
			}
		}
	}

	USA_resource_techmetals_prospecting_decision = {
		visible = {
			any_owned_state = {
				has_resources_amount = {
					resource = tungsten
					amount > 1
				}
				NOT = {
					AND = {
						has_state_flag = USA_expanded_tungsten_one_flag
						has_state_flag = USA_expanded_tungsten_two_flag
						has_state_flag = USA_expanded_tungsten_three_flag
					}
				}
			}
		}

		available = {
			custom_trigger_tooltip = {
				tooltip = USA_has_wall_street_faction_TT
				has_idea = wall_street
			}
			any_owned_state = {
				has_resources_amount = {
					resource = tungsten
					amount > 1
				}
				custom_trigger_tooltip = {
					NOT = {
						AND = {
							has_state_flag = USA_expanded_tungsten_one_flag
							has_state_flag = USA_expanded_tungsten_two_flag
							has_state_flag = USA_expanded_tungsten_three_flag
						}
					}
					tooltip = USA_not_expanded_states_resources_three_times_TT
				}
			}
		}
		icon = tungsten
		days_remove = 30
		days_re_enable = 31
		cost = 50
		modifier = {
			consumer_goods_factor = 0.05
			political_power_gain = -0.25
		}

		complete_effect = {
			log = "[GetDateText]: [Root.GetName]: Decision USA_resource_techmetals_prospecting_decision"
			set_country_flag = USA_expanding_states_tungsten_production
		}

		remove_effect = {
			log = "[GetDateText]: [Root.GetName]: Decision remove USA_resource_techmetals_prospecting_decision"
			random_owned_controlled_state = {
				limit = {
					NOT = {
						AND = {
							has_state_flag = USA_expanded_tungsten_one_flag
							has_state_flag = USA_expanded_tungsten_two_flag
							has_state_flag = USA_expanded_tungsten_three_flag
						}
					}
					has_resources_amount = {
						resource = tungsten
						amount > 1
					}
				}
				set_state_flag = USA_expanding_states_tungsten_production
				USA_set_resource_flag_effect = yes
				add_resource = {
					type = tungsten
					amount = 4
				}
				clr_state_flag = USA_expanding_states_tungsten_production
			}
			USA_scaling_resource_production_cost_effect = yes
			clr_country_flag = USA_expanding_states_tungsten_production
			set_temp_variable = { temp_opinion = 1 }
			change_wall_street_opinion = yes
		}

		ai_will_do = {
			factor = 1
			modifier = {
				add = 2
				has_government = democratic
			}
			modifier = {
				add = 1
				has_government = communism
			}
			modifier = {
				add = 1
				OR = {
					is_historical_focus_on = yes
					is_historical_focus_on = no
				}
			}
			modifier = {
				add = 2
				check_variable = { wall_street_opinion > 49 }
			}
		}
	}

	USA_regulate_wall_street_decision = {
		visible = {
			has_idea = wall_street
		}
		available = {
			custom_trigger_tooltip = {
				tooltip = USA_has_wall_street_faction_TT
				has_idea = wall_street
			}
			NOT = { has_decision = USA_deregulate_wall_street_decision }
			custom_trigger_tooltip = {
				check_variable = { USA_economic_regulation_var < 90 }
				tooltip = USA_regulate_wall_street_decision_tt
			}
		}

		icon = decision_generic_construction
		days_remove = 30
		days_re_enable = 61
		cost = 200

		remove_effect = {
			log = "[GetDateText]: [This.GetName]: Decision remove USA_regulate_wall_street_decision"
			set_temp_variable = { temp_opinion = -6 }
			change_wall_street_opinion = yes
			set_temp_variable = { modify_economic_regulation = 4 }
			USA_modify_economic_regulation = yes
		}

		ai_will_do = {
			factor = 1
			modifier = {
				add = -0.50
				OR = {
					is_in_array = { ruling_party = 1 }
					is_in_array = { ruling_party = 16 }
					is_in_array = { ruling_party = 20 }
					is_in_array = { ruling_party = 21 }
					is_in_array = { ruling_party = 22 }
				}
			}
		}
	}

	USA_deregulate_wall_street_decision = {
		visible = {
			has_idea = wall_street
		}
		available = {
			custom_trigger_tooltip = {
				tooltip = USA_has_wall_street_faction_TT
				has_idea = wall_street
			}
			NOT = { has_decision = USA_regulate_wall_street_decision }
			custom_trigger_tooltip = {
				check_variable = { USA_economic_regulation_var > 10 }
				tooltip = USA_deregulate_wall_street_decision_tt
			}
		}

		icon = political_actions
		days_remove = 30
		days_re_enable = 61
		cost = 200

		remove_effect = {
			log = "[GetDateText]: [This.GetName]: Decision remove USA_deregulate_wall_street_decision"
			set_temp_variable = { temp_opinion = 3 }
			change_wall_street_opinion = yes
			set_temp_variable = { modify_economic_regulation = -5 }
			USA_modify_economic_regulation = yes
		}

		ai_will_do = {
			factor = 1
			modifier = {
				add = 4
				OR = {
					is_in_array = { ruling_party = 1 }
					is_in_array = { ruling_party = 16 }
					is_in_array = { ruling_party = 20 }
					is_in_array = { ruling_party = 21 }
					is_in_array = { ruling_party = 22 }
				}
			}
		}
	}

	USA_bring_microsoft_to_court_decision = {
		visible = {
			original_tag = USA
			has_country_flag = USA_allowed_microsoft_merger
		}
		available = {
			has_country_flag = USA_allowed_microsoft_merger
			custom_trigger_tooltip = {
				check_variable = { USA_economic_regulation_var > 40 }
				tooltip = USA_greater_than_40_regulation_tt
			}
		}
		icon = decision
		days_remove = 60 #Time to Build a Case
		fire_only_once = yes
		cost = 100

		remove_effect = {
			log = "[GetDateText]: [This.GetName]: Decision Remove USA_bring_microsoft_to_court_decision"
			country_event = { id = usa.32 days = 1 }
		}

		ai_will_do = {
			factor = 1
			modifier = {
				has_country_flag = USA_allowed_microsoft_merger
				factor = 100
			}
		}
	}

	USA_finish_keystone_and_dakota_pipelines = {
		icon = oil
		available = {
			has_completed_focus = USA_focus_lone_mining_company
			has_completed_focus = USA_focus_rio_grande_shipyard
			has_completed_focus = USA_focus_hydroponics_act
			has_completed_focus = USA_focus_kansas_city_arms_manufacturer
		}
		fire_only_once = yes
		cost = 100
		complete_effect = {
			log = "[GetDateText]: [Root.GetName]: Decision USA_finish_keystone_and_dakota_pipelines"
			add_stability = -0.07
			set_temp_variable = { temp_change = 0.03 }
			USA_change_economy_political_power_change = yes
			set_temp_variable = { temp_change = 0.08 }
			USA_change_economy_factory_output_change = yes
			USA_change_economy_dockyard_output_change = yes
			set_temp_variable = { party_index = 1 }
			set_temp_variable = { party_popularity_increase = 0.05 }
			add_relative_party_popularity = yes

			set_country_flag = Keystone_Pipeline_Finished
		}
		days_remove = 365
		ai_will_do = { factor = 1 }
	}

	USA_america_first_energy_plan = {
		icon = generic_civil_support
		available = { has_country_flag = Keystone_Pipeline_Finished }
		fire_only_once = yes
		cost = 200
		days_remove = 91

		remove_effect = {
			log = "[GetDateText]: [Root.GetName]: Decision remove USA_america_first_energy_plan"
			set_temp_variable = { temp_change = 0.03 }
			USA_change_economy_political_power_change = yes
			set_temp_variable = { temp_change = -0.02 }
			USA_change_federal_budget_market_resources_change = yes
			set_temp_variable = { temp_change = -0.05 }
			USA_change_federal_budget_export_money_return_change = yes
			set_temp_variable = { treasury_change = -100 }
			modify_treasury_effect = yes
			787 = { add_resource = { type = oil amount = 3 } }
			786 = { add_resource = { type = oil amount = 4 } }
			785 = { add_resource = { type = oil amount = 5 } }
			784 = { add_resource = { type = oil amount = 6 } }
			799 = { add_resource = { type = oil amount = 8 } }
			800 = { add_resource = { type = oil amount = 14 } }
			set_country_flag = afep
			set_temp_variable = { party_index = 20 }
			set_temp_variable = { party_popularity_increase = 0.05 }
			add_relative_party_popularity = yes
		}

		ai_will_do = { factor = 1 }
	}

	USA_open_public_lands_to_fracking = {
		icon = decision
		available = {
			has_country_flag = afep
			custom_trigger_tooltip = {
				check_variable = { USA_economic_regulation_var < 30 }
				tooltip = USA_less_than_30_regulation_tt
			}
		}
		fire_only_once = yes
		cost = 250
		days_remove = 61

		remove_effect = {
			log = "[GetDateText]: [Root.GetName]: Decision remove USA_open_public_lands_to_fracking"
			add_stability = -0.08
			set_temp_variable = { treasury_change = -50 }
			modify_treasury_effect = yes
			set_temp_variable = { temp_change = -0.07 }
			USA_change_domestic_political_power_change = yes

			791 = { add_resource = { type = oil amount = 2 } }
			790 = { add_resource = { type = oil amount = 2 } }
			789 = { add_resource = { type = oil amount = 2 } }
			788 = { add_resource = { type = oil amount = 2 } }
			787 = { add_resource = { type = oil amount = 2 } }
			786 = { add_resource = { type = oil amount = 2 } }
			785 = { add_resource = { type = oil amount = 2 } }
			784 = { add_resource = { type = oil amount = 2 } }
			199 = { add_resource = { type = oil amount = 2 } }
			800 = { add_resource = { type = oil amount = 2 } }
			set_temp_variable = { party_index = 20 }
			set_temp_variable = { party_popularity_increase = 0.03 }
			add_relative_party_popularity = yes
		}
		ai_will_do = { factor = 1 }
	}
}

USA_congress_md = {
	USA_small_lobby_effort = {
		icon = generic_political_discourse
		available = {
			custom_trigger_tooltip = {
				OR = {
					check_variable = { senators_support < senators_total }
					check_variable = { representatives_support < representatives_total }
				}
				tooltip = USA_not_total_support_tt
			}
			NOT = {
				has_decision = USA_medium_lobby_effort
			}
			OR = {
				political_power_daily > 2.0
				has_political_power > 100
			}
		}
		visible = {
			NOT = {
				OR = {
					has_completed_focus = USA_the_tides_of_the_peoples_will
					has_country_flag = collapsed_nation
				}
			}
		}
		custom_cost_trigger = {
			always = yes
		}
		custom_cost_text = [USA_lobbying_cost]
		cost = 0
		ai_will_do = {
			factor = 10
			modifier = {
				congress_medium_support_trigger = yes
				factor = 0.5
			}
			modifier = {
				congress_low_support_trigger = yes
				factor = 0.5
			}
			modifier = {
				congress_high_support_trigger = yes
				factor = 0
			}
		}
		modifier = {
			political_power_factor = -0.05
		}
		days_remove = 61
		days_re_enable = 61
		remove_effect = {
			log = "[GetDateText]: [Root.GetName]: Decision remove USA_small_lobby_effort"
			USA_congress_small_support = yes
			USA_scaling_lobbying_effort_cost_effect = yes
		}
	}
	USA_medium_lobby_effort = {
		icon = generic_political_discourse
		available = {
			custom_trigger_tooltip = {
				OR = {
					check_variable = { senators_support < senators_total }
					check_variable = { representatives_support < representatives_total }
				}
				tooltip = USA_not_total_support_tt
			}
			NOT = { has_decision = USA_small_lobby_effort }
			OR = {
				political_power_daily > 3.0
				has_political_power > 100
			}
		}
		visible = {
			NOT = {
				OR = {
					has_completed_focus = USA_the_tides_of_the_peoples_will
					has_country_flag = collapsed_nation
				}
			}
		}
		custom_cost_trigger = {
			always = yes
		}
		custom_cost_text = [USA_lobbying_cost]
		cost = 0
		ai_will_do = {
			factor = 10
			modifier = {
				congress_medium_support_trigger = yes
				factor = 0.5
			}
			modifier = {
				congress_low_support_trigger = yes
				factor = 0.5
			}
			modifier = {
				congress_high_support_trigger = yes
				factor = 0
			}
		}
		days_remove = 61
		days_re_enable = 61
		modifier = {
			political_power_factor = -0.15
		}
		remove_effect = {
			log = "[GetDateText]: [Root.GetName]: Decision remove USA_medium_lobby_effort"
			USA_congress_medium_support = yes
			USA_scaling_lobbying_effort_cost_effect = yes
		}
	}
	USA_special_measures = {
		icon = ger_mefo_bills
		available = {
			custom_trigger_tooltip = {
				OR = {
					check_variable = { senators_support < senators_total }
					check_variable = { representatives_support < representatives_total }
				}
				tooltip = USA_not_total_support_tt
			}
		}
		visible = {
			NOT = {
				OR = {
					has_completed_focus = USA_the_tides_of_the_peoples_will
					has_country_flag = collapsed_nation
				}
			}
		}
		cost = 150
		days_remove = 61
		days_re_enable = 61
		remove_effect = {
			log = "[GetDateText]: [Root.GetName]: Decision remove USA_special_measures"
			USA_congress_small_support = yes
			USA_scaling_lobbying_effort_cost_effect = yes
		}
	}
	USA_political_pandering = {
		icon = ger_mefo_bills
		available = {
			custom_trigger_tooltip = {
				OR = {
					check_variable = { senators_support < senators_total }
					check_variable = { representatives_support < representatives_total }
				}
				tooltip = USA_not_total_support_tt
			}
		}
		visible = {
			NOT = {
				OR = {
					has_completed_focus = USA_the_tides_of_the_peoples_will
					has_country_flag = collapsed_nation
				}
			}
		}
		cost = 200
		days_remove = 61
		days_re_enable = 61
		remove_effect = {
			log = "[GetDateText]: [Root.GetName]: Decision remove USA_special_measures"
			USA_congress_medium_support = yes
			USA_scaling_lobbying_effort_cost_effect = yes
		}
	}
	USA_use_huac = {
		icon = oppression
		available = {
			custom_trigger_tooltip = {
				OR = {
					check_variable = { senators_support < senators_total }
					check_variable = { representatives_support < representatives_total }
				}
				tooltip = USA_not_total_support_tt
			}
			has_elections = yes
			has_stability > 0.3
		}
		visible = {
			NOT = {
				OR = {
					has_completed_focus = USA_the_tides_of_the_peoples_will
					has_country_flag = collapsed_nation
				}
			}
		}
		cost = 100

		days_remove = 61
		days_re_enable = 91
		complete_effect = {
			log = "[GetDateText]: [Root.GetName]: Decision USA_use_huac"
			USA_congress_small_support = yes
			add_stability = -0.03
			add_war_support = -0.06
		}
	}
	USA_beat_up_opposition = {
		icon = oppression
		available = {
			OR = {
				has_stability < 0.20
				has_government = communism
				has_government = nationalist
			}
		}
		visible = {
			NOT = {
				OR = {
					has_completed_focus = USA_the_tides_of_the_peoples_will
					has_country_flag = collapsed_nation
				}
			}
		}
		cost = 100
		ai_will_do = {
			factor = 0.25
			modifier = {
				congress_low_support_trigger = yes
				factor = 0
			}
		}
		days_remove = 61
		days_re_enable = 91
		complete_effect = {
			log = "[GetDateText]: [Root.GetName]: Decision USA_beat_up_opposition"
			add_stability = -0.05
			USA_congress_small_support = yes
			if = {
				limit = { has_government = nationalist }
				set_temp_variable = { party_index = 20 }
				set_temp_variable = { party_popularity_increase = 0.03 }
				set_temp_variable = { temp_outlook_increase = 0.03 }
				add_relative_party_popularity = yes
			}
			if = {
				limit = { has_government = communism }
				set_temp_variable = { party_index = 4 }
				set_temp_variable = { party_popularity_increase = 0.03 }
				set_temp_variable = { temp_outlook_increase = 0.03 }
				add_relative_party_popularity = yes
			}
		}
	}
	USA_pay_farm_subsidies = {
		icon = ger_mefo_bills
		available = {
			custom_trigger_tooltip = {
				OR = {
					check_variable = { senators_support < senators_total }
					check_variable = { representatives_support < representatives_total }
				}
				tooltip = USA_not_total_support_tt
			}
		}
		visible = {
			NOT = {
				OR = {
					has_completed_focus = USA_the_tides_of_the_peoples_will
					has_country_flag = collapsed_nation
				}
			}
		}
		custom_cost_trigger = {
			always = yes
		}
		custom_cost_text = [USA_farm_subsidies_cost]
		cost = 0
		ai_will_do = {
			factor = 0.25
			modifier = {
				congress_low_support_trigger = yes
				factor = 0
			}
		}
		days_remove = 90
		days_re_enable = 365
		modifier = { consumer_goods_factor = 0.05 }
		remove_effect = {
			log = "[GetDateText]: [Root.GetName]: Decision remove USA_pay_farm_subsidies"
			USA_congress_small_support = yes
			USA_scaling_resource_production_cost_effect = yes
		}
	}
	USA_give_tax_break = {
		icon = ger_mefo_bills
		available = {
			custom_trigger_tooltip = {
				OR = {
					check_variable = { senators_support < senators_total }
					check_variable = { representatives_support < representatives_total }
				}
				tooltip = USA_not_total_support_tt
			}
			custom_trigger_tooltip = {
				check_variable = { var = population_tax_rate value = 3 compare = greater_than_or_equals }
				tooltip = per_tax_rate_at_least_3_tt
			}
			custom_trigger_tooltip = {
				check_variable = { var = population_tax_rate value = 50 compare = less_than_or_equals }
				tooltip = per_tax_rate_less_than_or_equals_50
			}
		}
		visible = {
			NOT = {
				OR = {
					has_completed_focus = USA_the_tides_of_the_peoples_will
					has_country_flag = collapsed_nation
				}
			}
		}
		cost = 0
		ai_will_do = {
			factor = 0.25
			modifier = {
				congress_low_support_trigger = yes
				factor = 0
			}
		}
		days_remove = 365
		modifier = { consumer_goods_factor = -0.05 }
		complete_effect = {
			log = "[GetDateText]: [Root.GetName]: Decision USA_give_tax_break"

			set_temp_variable = { pop_change = -3 }
			modify_population_tax_rate_effect = yes
			disable_personal_tax_rate_change = yes
		}
		remove_effect = {
			log = "[GetDateText]: [Root.GetName]: Decision remove USA_give_tax_break"

			set_temp_variable = { pop_change = 3 }
			modify_population_tax_rate_effect = yes
			enable_personal_tax_rate_change = yes
		}
	}
	USA_amend_the_budget = {
		icon = ger_mefo_bills
		available = {
			congress_medium_support_trigger = yes
		}
		visible = {
			NOT = {
				OR = {
					has_completed_focus = USA_the_tides_of_the_peoples_will
					has_country_flag = collapsed_nation
				}
			}
		}
		cost = 25
		days_remove = 90
		days_re_enable = 275
		ai_will_do = {
			factor = 0.25
			modifier = {
				congress_low_support_trigger = yes
				factor = 0
			}
		}
		modifier = { consumer_goods_factor = -0.05 }
		remove_effect = {
			log = "[GetDateText]: [Root.GetName]: Decision remove USA_amend_the_budget"
			USA_congress_medium_opposition = yes
		}
	}
	USA_eac_trade = {
		icon = ger_mefo_bills
		available = {
			congress_medium_support_trigger = yes
		}
		visible = { has_global_flag = eac_growth_pact_won }
		cost = 25
		fire_only_once = yes
		ai_will_do = {
			factor = 1
			modifier = {
				congress_low_support_trigger = yes
				factor = 0
			}
		}
		complete_effect = {
			log = "[GetDateText]: [Root.GetName]: Decision remove USA_eac_trade"
			custom_effect_tooltip = EAC_trade_agreement_tt

			hidden_effect = {
				every_country = {
					limit = {
						has_idea = idea_eac_member_state
					}
					add_opinion_modifier = { target = ROOT modifier = mutual_trade_agreement }
					add_opinion_modifier = { target = ROOT modifier = mutual_trade_opinion }
					reverse_add_opinion_modifier = { target = ROOT modifier = mutual_trade_opinion }
					reverse_add_opinion_modifier = { target = ROOT modifier = mutual_trade_agreement }
					set_country_flag = trade_agreement@ROOT
					country_event = eac.18
					country_event = { id = eac.23 days = 1 }
				}
				country_event = { id = eac.23 days = 1 }
			}
		}
	}
	USA_research_grants = {
		icon = decision_generic_research
		available = { congress_medium_support_trigger = yes }
		visible = {
			NOT = {
				OR = {
					has_completed_focus = USA_the_tides_of_the_peoples_will
					has_country_flag = collapsed_nation
				}
			}
		}
		cost = 100
		days_remove = 90
		days_re_enable = 275
		ai_will_do = {
			factor = 0.25
			modifier = {
				congress_low_support_trigger = yes
				factor = 0
			}
		}
		modifier = { research_speed_factor = 0.10 }
		remove_effect = {
			log = "[GetDateText]: [Root.GetName]: Decision remove USA_research_grants"
			USA_congress_medium_opposition = yes
		}
	}
	USA_statehood_for_puerto_rico = {
		icon = infiltrate_state
		available = {
			815 = { NOT = { is_core_of = USA } }
			political_power_daily > 2.50
			congress_high_support_trigger = yes
		}
		visible = {
			815 = { #Puerto Rico
				is_fully_controlled_by = USA
			}
		}
		highlight_states = {
			highlight_states_trigger = {
				state = 815
			}
		}

		fire_only_once = yes
		days_remove = 240
		cost = 150
		modifier = {
			political_power_factor = -0.10
		}
		remove_effect = {
			log = "[GetDateText]: [Root.GetName]: Decision remove USA_statehood_for_puerto_rico"
			USA_congress_add_state = yes
			815 = { add_core_of = USA }
			add_to_variable = {
				var = USA_state_number
				value = 1
			}
			set_country_flag = flag_update_required
			USA_congress_medium_opposition = yes
		}
	}
	USA_statehood_for_guam = {
		icon = infiltrate_state
		available = {
			818 = { NOT = { is_core_of = USA } }
			political_power_daily > 2.50
			congress_high_support_trigger = yes
		}
		visible = {
			818 = { #Puerto Rico
				is_fully_controlled_by = USA
			}
		}
		highlight_states = {
			highlight_states_trigger = {
				state = 818
			}
		}

		fire_only_once = yes
		days_remove = 240
		cost = 150
		modifier = {
			political_power_factor = -0.10
		}
		remove_effect = {
			log = "[GetDateText]: [Root.GetName]: Decision remove USA_statehood_for_puerto_rico"
			818 = { add_core_of = USA }
			add_to_variable = {
				var = USA_state_number
				value = 1
			}
			set_country_flag = flag_update_required
			USA_congress_add_state = yes
			USA_congress_medium_opposition = yes
		}
	}
	USA_invest_in_state_factory = {
		icon = generic_construction
		available = {
			custom_trigger_tooltip = {
				tooltip = USA_congress_invest_in_state_factory_tt
				any_owned_state = {
					has_state_flag = USA_congress_build_factory
					check_variable = { factory_goal = industrial_complex_level }
				}
			}
		}
		highlight_states = {
			highlight_states_trigger = {
				has_state_flag = USA_congress_build_factory
			}
		}

		days_mission_timeout = 360
		is_good = no
		activation = {
			any_owned_state = {
				has_state_flag = USA_congress_build_factory
			}
		}
		timeout_effect = {
			log = "[GetDateText]: [Root.GetName]: Decision timeout USA_invest_in_state_factory"
			random_owned_state = {
				limit = {
					has_state_flag = USA_congress_build_factory
				}
				clr_state_flag = USA_congress_build_factory
				clear_variable = factory_goal
			}

			USA_congress_small_opposition = yes
			clr_country_flag = USA_congress_investment
		}
		complete_effect = {
			log = "[GetDateText]: [Root.GetName]: Decision USA_invest_in_state_factory"
			random_owned_state = {
				limit = {
					has_state_flag = USA_congress_build_factory
				}
				clr_state_flag = USA_congress_build_factory
				clear_variable = factory_goal
			}
			ROOT = {
				USA_congress_medium_support = yes
				clr_country_flag = USA_congress_investment
			}

		}
	}
	USA_invest_in_state_arms_factory = {
		icon = generic_construction
		available = {
			custom_trigger_tooltip = {
				tooltip = USA_congress_invest_in_state_arms_factory_tt
				any_owned_state = {
					has_state_flag = USA_congress_build_arms_factory
					check_variable = { arms_factory_goal = arms_factory_level }
				}
			}
		}
		highlight_states = {
			highlight_states_trigger = {
				has_state_flag = USA_congress_build_arms_factory
			}
		}

		days_mission_timeout = 360
		is_good = no
		activation = {
			any_owned_state = {
				has_state_flag = USA_congress_build_arms_factory
			}
		}
		timeout_effect = {
			random_owned_state = {
				limit = {
					has_state_flag = USA_congress_build_arms_factory
				}
				clr_state_flag = USA_congress_build_arms_factory
				clear_variable = arms_factory_goal
			}
			USA_congress_small_opposition = yes
			clr_country_flag = USA_congress_investment
		}
		complete_effect = {
			random_owned_state = {
				limit = {
					has_state_flag = USA_congress_build_arms_factory
				}
				clr_state_flag = USA_congress_build_arms_factory
				clear_variable = arms_factory_goal
			}
			ROOT = {
				USA_congress_medium_support = yes
				clr_country_flag = USA_congress_investment
			}
		}
	}
	USA_invest_in_state_dockyard = {
		icon = generic_construction
		available = {
			custom_trigger_tooltip = {
				tooltip = USA_congress_invest_in_dockyard_tooltip
				any_owned_state = {
					has_state_flag = USA_congress_build_dockyard
					check_variable = { dockyard_goal = building_level@dockyard }
				}
			}
		}
		highlight_states = {
			highlight_states_trigger = {
				has_state_flag = USA_congress_build_dockyard
			}
		}
		days_mission_timeout = 360
		is_good = no
		activation = {
			any_owned_state = {
				has_state_flag = USA_congress_build_dockyard
			}
		}
		timeout_effect = {
			random_owned_state = {
				limit = {
					has_state_flag = USA_congress_build_dockyard
				}
				clr_state_flag = USA_congress_build_dockyard
				clear_variable = dockyard_goal
			}
			USA_congress_small_opposition = yes
			clr_country_flag = USA_congress_investment
		}
		complete_effect = {
			random_owned_state = {
				limit = {
					has_state_flag = USA_congress_build_dockyard
				}
				clr_state_flag = USA_congress_build_dockyard
				clear_variable = dockyard_goal
			}
			ROOT = {
				USA_congress_medium_support = yes
				clr_country_flag = USA_congress_investment
			}
		}
	}
	USA_invest_in_state_infrastructure = {
		icon = generic_construction
		available = {
			custom_trigger_tooltip = {
				tooltip = USA_congress_invest_in_state_infrastructure_tt
				any_owned_state = {
					has_state_flag = USA_congress_build_infrastructure
					check_variable = { infrastructure_goal = infrastructure_level }
				}
			}
		}
		highlight_states = {
			highlight_states_trigger = {
				has_state_flag = USA_congress_build_infrastructure
			}
		}

		days_mission_timeout = 360
		is_good = no
		activation = {
			any_owned_state = {
				has_state_flag = USA_congress_build_infrastructure
			}
		}
		timeout_effect = {
			random_owned_state = {
				limit = {
					has_state_flag = USA_congress_build_infrastructure
				}
				clr_state_flag = USA_congress_build_infrastructure
				clear_variable = infrastructure_goal
			}

			USA_congress_small_opposition = yes
			clr_country_flag = USA_congress_investment
		}
		complete_effect = {
			random_owned_state = {
				limit = {
					has_state_flag = USA_congress_build_infrastructure
				}
				clr_state_flag = USA_congress_build_infrastructure
				clear_variable = infrastructure_goal
			}
			ROOT = {
				USA_congress_medium_support = yes
				clr_country_flag = USA_congress_investment
			}

		}
	}
	USA_communist_state_renaming = {
		icon = decision
		available = {
			custom_trigger_tooltip = {
				is_in_array = { ruling_party = 4 }
				tooltip = has_communist_state_government_TT
			}
		}
		visible = {
			has_government = communism
		}
		complete_effect = {
			log = "[GetDateText]: [This.GetName]: Decision USA_communist_state_renaming"
			country_event = { id = usa.63 days = 1 }
		}
		ai_will_do = {
			factor = 0
			modifier = {
				has_government = communism
				add = 1
			}
		}
	}
}

USA_asteroid_mining_decision = {
	USA_asteroid_mining_mission = {
		icon = GFX_decision_asteroid_mining
		available = {
			always = no
		}
		activation = {
			has_country_flag = asteroid_mining
		}
		is_good = yes
		days_mission_timeout = 365
		timeout_effect = {
			log = "[GetDateText]: [Root.GetName]: Decision timeout USA_asteroid_mining_mission"
			country_event = donald_trump.12
		}
		fire_only_once = no
		days_remove = 0
	}
	USA_pull_small_asteroid_into_orbit = {
		icon = GFX_decision_asteroid_mining
		visible = {
			has_country_flag = asteroid_mining
		}
		days_re_enable = 30
		cost = 50
		fixed_random_seed = no
		complete_effect = {
			log = "[GetDateText]: [Root.GetName]: Decision USA_pull_small_asteroid_into_orbit"
			set_temp_variable = { treasury_change = -20 }
			modify_treasury_effect = yes
		}
		days_remove = 120
		remove_effect = {
			log = "[GetDateText]: [Root.GetName]: Decision remove USA_pull_small_asteroid_into_orbit"
			hidden_effect = {
				random_list = {
					25 = {
						add_to_variable = { global.asteroid_mineral_count = 4 }
					}
					25 = {
						add_to_variable = { global.asteroid_mineral_count = 6 }
					}
					25 = {
						add_to_variable = { global.asteroid_mineral_count = 8 }
					}
					25 = {
						add_to_variable = { global.asteroid_mineral_count = 10 }
					}
				}
			}
			custom_effect_tooltip = asteroid_mining_small_asteroid_tt
		}
		ai_will_do = {
			factor = 1
		}
	}
	USA_pull_moderate_asteroid_into_orbit = {
		icon = GFX_decision_asteroid_mining
		visible = {
			has_country_flag = asteroid_mining
		}
		days_re_enable = 30
		cost = 100
		fixed_random_seed = no
		days_remove = 210
		complete_effect = {
			log = "[GetDateText]: [Root.GetName]: Decision USA_pull_moderate_asteroid_into_orbit"
			set_temp_variable = { treasury_change = -50 }
			modify_treasury_effect = yes
		}
		remove_effect = {
			log = "[GetDateText]: [Root.GetName]: Decision remove USA_pull_moderate_asteroid_into_orbit"
			hidden_effect = {
				random_list = {
					25 = {
						add_to_variable = { global.asteroid_mineral_count = 10 }
					}
					25 = {
						add_to_variable = { global.asteroid_mineral_count = 13 }
					}
					25 = {
						add_to_variable = { global.asteroid_mineral_count = 16 }
					}
					25 = {
						add_to_variable = { global.asteroid_mineral_count = 20 }
					}
				}
			}
			custom_effect_tooltip = asteroid_mining_moderate_asteroid_tt
		}
		ai_will_do = {
			factor = 1
		}
	}
	USA_pull_large_asteroid_into_orbit = {
		icon = GFX_decision_asteroid_mining
		visible = {
			has_country_flag = asteroid_mining
		}
		days_re_enable = 365
		cost = 150
		fixed_random_seed = no
		complete_effect = {
			log = "[GetDateText]: [Root.GetName]: Decision USA_pull_large_asteroid_into_orbit"
			set_temp_variable = { treasury_change = -100 }
			modify_treasury_effect = yes
		}
		days_remove = 360
		remove_effect = {
			log = "[GetDateText]: [Root.GetName]: Decision remove USA_pull_large_asteroid_into_orbit"
			hidden_effect = {
				random_list = {
					25 = {
						add_to_variable = { global.asteroid_mineral_count = 20 }
					}
					25 = {
						add_to_variable = { global.asteroid_mineral_count = 30 }
					}
					25 = {
						add_to_variable = { global.asteroid_mineral_count = 40 }
					}
					25 = {
						add_to_variable = { global.asteroid_mineral_count = 50 }
					}
				}
			}
			custom_effect_tooltip = asteroid_mining_large_asteroid_tt
		}
		ai_will_do = {
			factor = 1
		}
	}
	USA_expand_our_operations = {
		icon = GFX_decision_asteroid_mining
		visible = {
			has_country_flag = asteroid_mining
		}
		cost = 25
		complete_effect = {
			log = "[GetDateText]: [Root.GetName]: Decision USA_expand_our_operations"
			set_temp_variable = { treasury_change = -30 }
			modify_treasury_effect = yes
		}
		days_remove = 30
		fixed_random_seed = no
		remove_effect = {
			log = "[GetDateText]: [Root.GetName]: Decision remove USA_expand_our_operations"
			capital_scope = {
				random_list = {
					25 = {
						add_resource = {
							type = tungsten
							amount = 1
						}
					}
					75 = {

					}
				}
				random_list = {
					50 = {
						add_resource = {
							type = steel
							amount = 1
						}
					}
					50 = {

					}
				}
				random_list = {
					25 = {
						add_resource = {
							type = aluminium
							amount = 1
						}
					}
					75 = {

					}
				}
			}
			add_to_variable = { asteroid_mining_rate = 1 }
			add_to_variable = { global.asteroid_mining_rate = 1 }
			custom_effect_tooltip = asteroid_mining_expand_operations_tt
		}
		ai_will_do = {
			factor = 1
		}
	}
	USA_sell_mining_equipment = {
		icon = GFX_decision_asteroid_mining
		visible = {
			has_country_flag = asteroid_mining
		}
		available = {
			check_variable = { asteroid_mining_rate > 0 }
		}
		cost = 10
		complete_effect = {
			log = "[GetDateText]: [Root.GetName]: Decision USA_sell_mining_equipment"
			set_temp_variable = { treasury_change = 1 }
			modify_treasury_effect = yes
		}
		fixed_random_seed = no
		days_remove = 5
		remove_effect = {
			log = "[GetDateText]: [Root.GetName]: Decision remove USA_sell_mining_equipment"
			capital_scope = {
				if = {
					limit = {
						has_resources_amount = {
							resource = tungsten
							amount > 0
						}
					}
					random_list = {
						50 = {
							add_resource = {
								type = tungsten
								amount = -1
							}
						}
						50 = { }
					}
				}
				if = {
					limit = {
						has_resources_amount = {
							resource = steel
							amount > 0
						}
					}
					random_list = {
						75 = {
							add_resource = {
								type = steel
								amount = -1
							}
						}
						25 = { }
					}
				}
				if = {
					limit = {
						has_resources_amount = {
							resource = aluminium
							amount > 0
						}
					}
					random_list = {
						50 = {
							add_resource = {
								type = aluminium
								amount = -1
							}
						}
						50 = { }
					}
				}
			}
			subtract_from_variable = { asteroid_mining_rate = 1 }
			subtract_from_variable = { global.asteroid_mining_rate = 1 }
			custom_effect_tooltip = asteroid_mining_sell_equipment_tt
		}
		ai_will_do = {
			factor = 1
		}
	}
	USA_start_asteroid_mining = {
		icon = GFX_decision_asteroid_mining
		visible = {
			has_global_flag = asteroid_mining
			NOT = { has_country_flag = asteroid_mining }
		}
		cost = 50
		complete_effect = {
			log = "[GetDateText]: [Root.GetName]: Decision USA_start_asteroid_mining"
			set_temp_variable = { treasury_change = -300 }
			modify_treasury_effect = yes
		}
		days_remove = 60
		remove_effect = {
			log = "[GetDateText]: [Root.GetName]: Decision remove USA_start_asteroid_mining"
			add_to_variable = { asteroid_mining_rate = 1 }
			add_to_variable = { global.asteroid_mining_rate = 1 }
			set_country_flag = asteroid_mining
			custom_effect_tooltip = asteroid_mining_start_tt
		}
		ai_will_do = {
			factor = 1
		}
	}
}

##Political and Economic Reforms
USA_political_and_economic_reforms = {
	USA_anti_trust_department = {
		icon = GFX_decision_eng_trade_unions_support
		available = {
			has_country_flag = anti_trust_awareness1
			congress_high_support_trigger = yes
			custom_trigger_tooltip = {
				check_variable = { USA_economic_regulation_var > 20 }
				tooltip = USA_greater_than_20_regulation_tt
			}
		}
		visible = { always = yes }
		fire_only_once = yes
		cost = 300
		days_remove = 91
		remove_effect = {
			log = "[GetDateText]: [Root.GetName]: Decision USA_anti_trust_department"
			add_stability = 0.04
			add_war_support = 0.04
			USA_congress_large_opposition = yes
			set_temp_variable = { temp_change = 0.10 }
			USA_change_federal_budget_bureaucracy_cost_change = yes
			set_temp_variable = { temp_change = 0.05 }
			USA_change_economy_political_power_change = yes
			USA_change_domestic_monthly_pop_change = yes
			set_temp_variable = { temp_change = -0.07 }
			USA_change_economy_drift_defense_change = yes
			set_temp_variable = { temp_change = 0.01 }
			USA_change_tax_code_corporate_tax_collection_efficiency_change = yes
			USA_change_tax_code_office_park_tax_collection_efficiency_change = yes

			set_temp_variable = { party_index = 0 }
			set_temp_variable = { party_popularity_increase = 0.05 }
			set_temp_variable = { temp_outlook_increase = 0.02 }
			add_relative_party_popularity = yes

			set_temp_variable = { party_index = 3 }
			set_temp_variable = { party_popularity_increase = 0.05 }
			add_relative_party_popularity = yes

			set_temp_variable = { party_index = 5 }
			set_temp_variable = { party_popularity_increase = 0.05 }
			add_relative_party_popularity = yes

			set_temp_variable = { party_index = 6 }
			set_temp_variable = { party_popularity_increase = 0.05 }
			add_relative_party_popularity = yes

			set_temp_variable = { party_index = 13 }
			set_temp_variable = { party_popularity_increase = 0.05 }
			add_relative_party_popularity = yes

			set_temp_variable = { party_index = 16 }
			set_temp_variable = { party_popularity_increase = 0.05 }
			add_relative_party_popularity = yes

			set_temp_variable = { party_index = 20 }
			set_temp_variable = { party_popularity_increase = 0.05 }
			add_relative_party_popularity = yes

			set_temp_variable = { party_index = 22 }
			set_temp_variable = { party_popularity_increase = 0.05 }
			add_relative_party_popularity = yes

			hidden_effect = {
				set_country_flag = econ_reforms1
			}
		}

		ai_will_do = {
			factor = 30
			modifier = {
				has_global_flag = USA_REFORMED_REPUBLIC_PATH
				factor = 1000
			}
		}
	}

	USA_union_act = {
		icon = GFX_decision_eng_trade_unions_support
		available = {
			has_country_flag = anti_trust_awareness2
			has_country_flag = econ_reforms1
			congress_high_support_trigger = yes
			custom_trigger_tooltip = {
				check_variable = { USA_economic_regulation_var > 40 }
				tooltip = USA_greater_than_40_regulation_tt
			}
		}
		visible = { always = yes }
		fire_only_once = yes
		cost = 300
		days_remove = 91
		remove_effect = {
			log = "[GetDateText]: [Root.GetName]: Decision USA_anti_trust_department"
			add_stability = 0.05
			add_war_support = 0.05
			USA_congress_large_opposition = yes
			set_temp_variable = { temp_change = 0.10 }
			USA_change_federal_budget_bureaucracy_cost_change = yes
			set_temp_variable = { temp_change = 0.06 }
			USA_change_economy_political_power_change = yes
			USA_change_domestic_monthly_pop_change = yes
			set_temp_variable = { temp_change = -0.08 }
			USA_change_economy_drift_defense_change = yes
			set_temp_variable = { temp_change = 0.03 }
			USA_change_tax_code_corporate_tax_collection_efficiency_change = yes
			USA_change_tax_code_office_park_tax_collection_efficiency_change = yes

			set_temp_variable = { party_index = 0 }
			set_temp_variable = { party_popularity_increase = 0.05 }
			set_temp_variable = { temp_outlook_increase = 0.02 }
			add_relative_party_popularity = yes

			set_temp_variable = { party_index = 3 }
			set_temp_variable = { party_popularity_increase = 0.05 }
			add_relative_party_popularity = yes

			set_temp_variable = { party_index = 5 }
			set_temp_variable = { party_popularity_increase = 0.05 }
			add_relative_party_popularity = yes

			set_temp_variable = { party_index = 6 }
			set_temp_variable = { party_popularity_increase = 0.05 }
			add_relative_party_popularity = yes

			set_temp_variable = { party_index = 13 }
			set_temp_variable = { party_popularity_increase = 0.05 }
			add_relative_party_popularity = yes

			set_temp_variable = { party_index = 16 }
			set_temp_variable = { party_popularity_increase = 0.05 }
			add_relative_party_popularity = yes

			set_temp_variable = { party_index = 20 }
			set_temp_variable = { party_popularity_increase = 0.05 }
			add_relative_party_popularity = yes

			set_temp_variable = { party_index = 22 }
			set_temp_variable = { party_popularity_increase = 0.05 }
			add_relative_party_popularity = yes

			hidden_effect = {
				set_country_flag = econ_reforms2
			}
		}

		ai_will_do = {
			factor = 30
			modifier = {
				has_global_flag = USA_REFORMED_REPUBLIC_PATH
				factor = 1000
			}
		}
	}

	USA_automation_act = {
		icon = GFX_decision_eng_trade_unions_support
		available = {
			has_country_flag = anti_trust_awareness3
			has_country_flag = econ_reforms2
			congress_high_support_trigger = yes
			custom_trigger_tooltip = {
				check_variable = { USA_economic_regulation_var > 60 }
				tooltip = USA_greater_than_60_regulation_tt
			}
		}
		visible = { always = yes }
		fire_only_once = yes
		cost = 300
		days_remove = 91
		remove_effect = {
			log = "[GetDateText]: [Root.GetName]: Decision USA_anti_trust_department"
			add_stability = 0.07
			add_war_support = 0.07
			USA_congress_large_opposition = yes
			set_temp_variable = { temp_change = 0.10 }
			USA_change_federal_budget_bureaucracy_cost_change = yes
			set_temp_variable = { temp_change = 0.08 }
			USA_change_economy_political_power_change = yes
			USA_change_domestic_monthly_pop_change = yes
			set_temp_variable = { temp_change = -0.09 }
			USA_change_economy_drift_defense_change = yes
			set_temp_variable = { temp_change = 0.05 }
			USA_change_tax_code_corporate_tax_collection_efficiency_change = yes
			USA_change_tax_code_office_park_tax_collection_efficiency_change = yes

			set_temp_variable = { party_index = 0 }
			set_temp_variable = { party_popularity_increase = 0.05 }
			set_temp_variable = { temp_outlook_increase = 0.02 }
			add_relative_party_popularity = yes

			set_temp_variable = { party_index = 3 }
			set_temp_variable = { party_popularity_increase = 0.05 }
			add_relative_party_popularity = yes

			set_temp_variable = { party_index = 5 }
			set_temp_variable = { party_popularity_increase = 0.05 }
			add_relative_party_popularity = yes

			set_temp_variable = { party_index = 6 }
			set_temp_variable = { party_popularity_increase = 0.05 }
			add_relative_party_popularity = yes

			set_temp_variable = { party_index = 13 }
			set_temp_variable = { party_popularity_increase = 0.05 }
			add_relative_party_popularity = yes

			set_temp_variable = { party_index = 16 }
			set_temp_variable = { party_popularity_increase = 0.05 }
			add_relative_party_popularity = yes

			set_temp_variable = { party_index = 20 }
			set_temp_variable = { party_popularity_increase = 0.05 }
			add_relative_party_popularity = yes

			set_temp_variable = { party_index = 22 }
			set_temp_variable = { party_popularity_increase = 0.05 }
			add_relative_party_popularity = yes

			hidden_effect = {
				set_country_flag = econ_reforms3
			}
		}

		ai_will_do = {
			factor = 30
			modifier = {
				has_global_flag = USA_REFORMED_REPUBLIC_PATH
				factor = 1000
			}
		}
	}

	USA_safe_banking_act = {
		icon = GFX_decision_eng_trade_unions_support
		available = {
			has_country_flag = anti_trust_awareness4
			has_country_flag = econ_reforms3
			congress_high_support_trigger = yes
			custom_trigger_tooltip = {
				check_variable = { USA_economic_regulation_var > 80 }
				tooltip = USA_greater_than_80_regulation_tt
			}
		}
		visible = { always = yes }
		fire_only_once = yes
		cost = 300
		days_remove = 91
		remove_effect = {
			log = "[GetDateText]: [Root.GetName]: Decision USA_anti_trust_department"
			add_stability = 0.10
			add_war_support = 0.10
			USA_congress_large_opposition = yes
			set_temp_variable = { temp_change = 0.10 }
			USA_change_federal_budget_bureaucracy_cost_change = yes
			USA_change_economy_political_power_change = yes
			USA_change_domestic_monthly_pop_change = yes
			set_temp_variable = { temp_change = -0.10 }
			USA_change_economy_drift_defense_change = yes
			set_temp_variable = { temp_change = 0.07 }
			USA_change_tax_code_corporate_tax_collection_efficiency_change = yes
			USA_change_tax_code_office_park_tax_collection_efficiency_change = yes

			set_temp_variable = { party_index = 0 }
			set_temp_variable = { party_popularity_increase = 0.05 }
			set_temp_variable = { temp_outlook_increase = 0.02 }
			add_relative_party_popularity = yes

			set_temp_variable = { party_index = 3 }
			set_temp_variable = { party_popularity_increase = 0.05 }
			add_relative_party_popularity = yes

			set_temp_variable = { party_index = 5 }
			set_temp_variable = { party_popularity_increase = 0.05 }
			add_relative_party_popularity = yes

			set_temp_variable = { party_index = 6 }
			set_temp_variable = { party_popularity_increase = 0.05 }
			add_relative_party_popularity = yes

			set_temp_variable = { party_index = 13 }
			set_temp_variable = { party_popularity_increase = 0.05 }
			add_relative_party_popularity = yes

			set_temp_variable = { party_index = 16 }
			set_temp_variable = { party_popularity_increase = 0.05 }
			add_relative_party_popularity = yes

			set_temp_variable = { party_index = 20 }
			set_temp_variable = { party_popularity_increase = 0.05 }
			add_relative_party_popularity = yes

			set_temp_variable = { party_index = 22 }
			set_temp_variable = { party_popularity_increase = 0.05 }
			add_relative_party_popularity = yes

			hidden_effect = {
				set_country_flag = econ_reforms4
			}
		}

		ai_will_do = {
			factor = 30
			modifier = {
				has_global_flag = USA_REFORMED_REPUBLIC_PATH
				factor = 1000
			}
		}
	}

	USA_political_diversity_act = {
		icon = GFX_decision_eng_trade_unions_support
		available = {
			has_country_flag = public_ignored1
			congress_high_support_trigger = yes
		}
		visible = { always = yes }
		fire_only_once = yes
		cost = 300
		days_remove = 91
		remove_effect = {
			log = "[GetDateText]: [Root.GetName]: Decision USA_political_diversity_act"
			add_stability = 0.06
			add_war_support = 0.06
			USA_congress_large_opposition = yes
			set_temp_variable = { temp_change = 0.10 }
			USA_change_federal_budget_bureaucracy_cost_change = yes
			set_temp_variable = { temp_change = 0.05 }
			USA_change_domestic_political_power_change = yes
			USA_change_domestic_monthly_pop_change = yes
			set_temp_variable = { temp_change = -0.06 }
			USA_change_domestic_drift_defense_change = yes
			set_temp_variable = { temp_change = 0.02 }
			USA_change_tax_code_corporate_tax_collection_efficiency_change = yes
			USA_change_tax_code_office_park_tax_collection_efficiency_change = yes
			set_temp_variable = { temp_change = -0.02 }
			USA_change_domestic_democratic_drift_change = yes

			set_temp_variable = { party_index = 0 }
			set_temp_variable = { party_popularity_increase = 0.05 }
			set_temp_variable = { temp_outlook_increase = 0.02 }
			add_relative_party_popularity = yes

			set_temp_variable = { party_index = 3 }
			set_temp_variable = { party_popularity_increase = 0.05 }
			add_relative_party_popularity = yes

			set_temp_variable = { party_index = 5 }
			set_temp_variable = { party_popularity_increase = 0.05 }
			add_relative_party_popularity = yes

			set_temp_variable = { party_index = 6 }
			set_temp_variable = { party_popularity_increase = 0.05 }
			add_relative_party_popularity = yes

			set_temp_variable = { party_index = 13 }
			set_temp_variable = { party_popularity_increase = 0.05 }
			add_relative_party_popularity = yes

			set_temp_variable = { party_index = 16 }
			set_temp_variable = { party_popularity_increase = 0.05 }
			add_relative_party_popularity = yes

			set_temp_variable = { party_index = 20 }
			set_temp_variable = { party_popularity_increase = 0.05 }
			add_relative_party_popularity = yes

			set_temp_variable = { party_index = 22 }
			set_temp_variable = { party_popularity_increase = 0.05 }
			add_relative_party_popularity = yes

			hidden_effect = {
				set_country_flag = voting_reforms1
				USA_congress_large_opposition = yes
			}
		}

		ai_will_do = {
			factor = 30
			modifier = {
				has_global_flag = USA_REFORMED_REPUBLIC_PATH
				factor = 1000
			}
		}
	}

	USA_political_Fairness_act = {
		icon = GFX_decision_eng_trade_unions_support
		available = {
			has_country_flag = public_ignored3
			has_country_flag = voting_reforms1
			congress_high_support_trigger = yes
		}
		visible = { always = yes }
		fire_only_once = yes
		cost = 300
		days_remove = 91
		remove_effect = {
			log = "[GetDateText]: [Root.GetName]: Decision USA_anti_trust_department"
			add_stability = 0.09
			add_war_support = 0.09
			USA_congress_large_opposition = yes
			set_temp_variable = { temp_change = 0.10 }
			USA_change_federal_budget_bureaucracy_cost_change = yes
			set_temp_variable = { temp_change = 0.08 }
			USA_change_domestic_political_power_change = yes
			USA_change_domestic_monthly_pop_change = yes
			set_temp_variable = { temp_change = -0.09 }
			USA_change_domestic_drift_defense_change = yes
			set_temp_variable = { temp_change = 0.06 }
			USA_change_tax_code_corporate_tax_collection_efficiency_change = yes
			USA_change_tax_code_office_park_tax_collection_efficiency_change = yes
			set_temp_variable = { temp_change = -0.05 }
			USA_change_domestic_democratic_drift_change = yes

			set_temp_variable = { party_index = 0 }
			set_temp_variable = { party_popularity_increase = 0.05 }
			set_temp_variable = { temp_outlook_increase = 0.02 }
			add_relative_party_popularity = yes

			set_temp_variable = { party_index = 3 }
			set_temp_variable = { party_popularity_increase = 0.05 }
			add_relative_party_popularity = yes

			set_temp_variable = { party_index = 5 }
			set_temp_variable = { party_popularity_increase = 0.05 }
			add_relative_party_popularity = yes

			set_temp_variable = { party_index = 6 }
			set_temp_variable = { party_popularity_increase = 0.05 }
			add_relative_party_popularity = yes

			set_temp_variable = { party_index = 13 }
			set_temp_variable = { party_popularity_increase = 0.05 }
			add_relative_party_popularity = yes

			set_temp_variable = { party_index = 16 }
			set_temp_variable = { party_popularity_increase = 0.05 }
			add_relative_party_popularity = yes

			set_temp_variable = { party_index = 20 }
			set_temp_variable = { party_popularity_increase = 0.05 }
			add_relative_party_popularity = yes

			set_temp_variable = { party_index = 22 }
			set_temp_variable = { party_popularity_increase = 0.05 }
			add_relative_party_popularity = yes

			hidden_effect = {
				set_country_flag = voting_reforms2
				USA_congress_large_opposition = yes
			}
		}

		ai_will_do = {
			factor = 30
			modifier = {
				has_global_flag = USA_REFORMED_REPUBLIC_PATH
				factor = 1000
			}
		}
	}

	USA_federal_elections_act = {
		icon = GFX_decision_eng_trade_unions_support
		available = {
			has_country_flag = public_ignored5
			has_country_flag = voting_reforms1
			has_country_flag = voting_reforms2
			congress_high_support_trigger = yes
		}
		visible = { always = yes }
		fire_only_once = yes
		cost = 300
		days_remove = 91
		remove_effect = {
			log = "[GetDateText]: [Root.GetName]: Decision USA_anti_trust_department"
			add_stability = 0.13
			add_war_support = 0.13
			USA_congress_large_opposition = yes
			set_temp_variable = { temp_change = 0.10 }
			USA_change_federal_budget_bureaucracy_cost_change = yes
			set_temp_variable = { temp_change = 0.13 }
			USA_change_domestic_political_power_change = yes
			USA_change_domestic_monthly_pop_change = yes
			set_temp_variable = { temp_change = -0.15 }
			USA_change_domestic_drift_defense_change = yes
			set_temp_variable = { temp_change = 0.10 }
			USA_change_tax_code_corporate_tax_collection_efficiency_change = yes
			USA_change_tax_code_office_park_tax_collection_efficiency_change = yes
			set_temp_variable = { temp_change = -0.08 }
			USA_change_domestic_democratic_drift_change = yes

			set_temp_variable = { party_index = 0 }
			set_temp_variable = { party_popularity_increase = 0.05 }
			set_temp_variable = { temp_outlook_increase = 0.02 }
			add_relative_party_popularity = yes

			set_temp_variable = { party_index = 3 }
			set_temp_variable = { party_popularity_increase = 0.05 }
			add_relative_party_popularity = yes

			set_temp_variable = { party_index = 5 }
			set_temp_variable = { party_popularity_increase = 0.05 }
			add_relative_party_popularity = yes

			set_temp_variable = { party_index = 6 }
			set_temp_variable = { party_popularity_increase = 0.05 }
			add_relative_party_popularity = yes

			set_temp_variable = { party_index = 13 }
			set_temp_variable = { party_popularity_increase = 0.05 }
			add_relative_party_popularity = yes

			set_temp_variable = { party_index = 16 }
			set_temp_variable = { party_popularity_increase = 0.05 }
			add_relative_party_popularity = yes

			set_temp_variable = { party_index = 20 }
			set_temp_variable = { party_popularity_increase = 0.05 }
			add_relative_party_popularity = yes

			set_temp_variable = { party_index = 22 }
			set_temp_variable = { party_popularity_increase = 0.05 }
			add_relative_party_popularity = yes

			hidden_effect = {
				set_country_flag = voting_reforms3
				USA_congress_large_opposition = yes
			}
		}

		ai_will_do = {
			factor = 30
			modifier = {
				has_global_flag = USA_REFORMED_REPUBLIC_PATH
				factor = 1000
			}
		}
	}
}
USA_blockade_america_category = {
	USA_limit_on_CUB = {
		days_remove = 150
		fire_only_once = yes
		cost = 120
		allowed = { original_tag = USA }
		ai_will_do = { factor = 255 }

		remove_effect = {
			log = "[GetDateText]: [Root.GetName]: USA_limit_on_CUB"
			CUB = {
			set_temp_variable = { treasury_change = -5 }
			modify_treasury_effect = yes
			add_stability = -0.03
			}
			set_temp_variable = { percent_change = 3 }
			set_temp_variable = { tag_index = USA }
			set_temp_variable = { influence_target = CUB }
			change_influence_percentage = yes
			set_temp_variable = { treasury_change = 5 }
			modify_treasury_effect = yes
		}
	}
	USA_limit_travel_CUB = {
		days_remove = 150
		fire_only_once = yes
		cost = 120
		allowed = { original_tag = USA }
		ai_will_do = { factor = 255 }

		remove_effect = {
			log = "[GetDateText]: [Root.GetName]: USA_limit_travel_CUB"
			CUB = {
				set_temp_variable = { treasury_change = -5 }
				modify_treasury_effect = yes
				add_stability = -0.03
			}
			set_temp_variable = { percent_change = 4 }
			set_temp_variable = { tag_index = USA }
			set_temp_variable = { influence_target = CUB }
			change_influence_percentage = yes
		}
	}
	USA_support_cuban_opposition_travel_CUB = {
		days_remove = 150
		fire_only_once = no
		cost = 120
		allowed = { original_tag = USA }
		ai_will_do = { factor = 355 }

		remove_effect = {
			log = "[GetDateText]: [Root.GetName]: USA_support_cuban_opposition_travel_CUB"
			CUB = {
				add_popularity = {
					ideology = democratic
					popularity = 0.05
				}
				add_stability = -0.03
			}
			set_temp_variable = { percent_change = 4 }
			set_temp_variable = { tag_index = USA }
			set_temp_variable = { influence_target = CUB }
			change_influence_percentage = yes
			set_temp_variable = { treasury_change = -5 }
			modify_treasury_effect = yes
		}
	}
	USA_try_to_influence_on_canada = {
		days_remove = 150
		fire_only_once = no
		cost = 120
		allowed = { original_tag = USA }
		ai_will_do = { factor = 355 }

		remove_effect = {
			log = "[GetDateText]: [Root.GetName]: USA_try_to_influence_on_canada"
			set_temp_variable = { treasury_change = -2 }
			modify_treasury_effect = yes
			set_temp_variable = { percent_change = 5 }
			set_temp_variable = { tag_index = CAN }
			set_temp_variable = { influence_target = USA }
			change_influence_percentage = yes
			set_temp_variable = { treasury_change = -2 }
			modify_treasury_effect = yes
			set_temp_variable = { percent_change = -2 }
			set_temp_variable = { tag_index = CUB }
			set_temp_variable = { influence_target = CAN }
			change_influence_percentage = yes
		}
	}
	USA_new_sanctions_on_cuba = {
		days_remove = 450
		fire_only_once = no
		cost = 200
		allowed = { original_tag = USA }
		ai_will_do = { factor = 355 }

		remove_effect = {
			log = "[GetDateText]: [Root.GetName]: USA_new_sanctions_on_cuba"
			CUB = {
				decrease_economic_growth = yes
			}
			set_temp_variable = { percent_change = 7 }
			set_temp_variable = { tag_index = USA }
			set_temp_variable = { influence_target = CUB }
			change_influence_percentage = yes
		}
	}
	USA_demand_canada = {
		days_remove = 150
		fire_only_once = no
		cost = 110
		allowed = { original_tag = USA }
		ai_will_do = { factor = 355 }
		available = {
			CAN = { influence_higher_60 = yes }
		}
		visible = {
			CAN = { influence_higher_60 = yes }
		}
		remove_effect = {
			log = "[GetDateText]: [Root.GetName]: USA_demand_canada"
			CAN = { country_event = { id = cuba.4 days = 1 } }
		}
	}
	USA_try_to_influence_on_haiti = {
		days_remove = 150
		fire_only_once = no
		cost = 110
		allowed = { original_tag = USA }
		ai_will_do = { factor = 355 }

		remove_effect = {
			log = "[GetDateText]: [Root.GetName]: USA_try_to_influence_on_haiti"
			set_temp_variable = { treasury_change = -2 }
			modify_treasury_effect = yes
			set_temp_variable = { percent_change = 5 }
			set_temp_variable = { tag_index = HAI }
			set_temp_variable = { influence_target = USA }
			change_influence_percentage = yes
			set_temp_variable = { percent_change = -4 }
			set_temp_variable = { tag_index = CUB }
			set_temp_variable = { influence_target = HAI }
			change_influence_percentage = yes
		}
	}
	USA_demand_haiti = {
		days_remove = 150
		fire_only_once = no
		cost = 100
		allowed = { original_tag = USA }
		ai_will_do = { factor = 355 }
		available = {
			HAI = { influence_higher_60 = yes }
		}
		visible = {
			HAI = { influence_higher_60 = yes }
		}
		remove_effect = {
			log = "[GetDateText]: [Root.GetName]: USA_demand_canada"
			set_temp_variable = { treasury_change = 5 }
			modify_treasury_effect = yes
			set_temp_variable = { percent_change = 3 }
			set_temp_variable = { tag_index = CUB }
			set_temp_variable = { influence_target = CAN }
			change_influence_percentage = yes
			set_temp_variable = { percent_change = -6 }
			set_temp_variable = { tag_index = USA }
			set_temp_variable = { influence_target = CAN }
			change_influence_percentage = yes
			HAI = { country_event = { id = cuba.4 days = 1 } }
		}
	}
	USA_weak_cuba = {
		days_remove = 150
		fire_only_once = no
		cost = 100
		allowed = { original_tag = USA }
		ai_will_do = { factor = 355 }
		available = {
			HAI = { influence_higher_60 = yes }
		}
		visible = {
			HAI = { influence_higher_60 = yes }
		}
		remove_effect = {
			log = "[GetDateText]: [Root.GetName]: USA_weak_cuba"
			set_temp_variable = { treasury_change = 5 }
			modify_treasury_effect = yes
			set_temp_variable = { percent_change = 3 }
			set_temp_variable = { tag_index = CUB }
			set_temp_variable = { influence_target = CAN }
			change_influence_percentage = yes
			set_temp_variable = { percent_change = -6 }
			set_temp_variable = { tag_index = USA }
			set_temp_variable = { influence_target = CAN }
			change_influence_percentage = yes
		}
	}
	USA_cuba_non_terrorist = {
		days_remove = 150
		fire_only_once = no
		cost = 90
		allowed = { original_tag = USA }
		ai_will_do = { factor = 355 }
		available = {
			HAI = { influence_higher_60 = yes }
		}
		visible = {
			HAI = { influence_higher_60 = yes }
		}
		remove_effect = {
			log = "[GetDateText]: [Root.GetName]: USA_cuba_non_terrorist"
			set_temp_variable = { treasury_change = 5 }
			modify_treasury_effect = yes
			set_temp_variable = { percent_change = 3 }
			set_temp_variable = { tag_index = CUB }
			set_temp_variable = { influence_target = CAN }
			change_influence_percentage = yes
			set_temp_variable = { percent_change = -6 }
			set_temp_variable = { tag_index = USA }
			set_temp_variable = { influence_target = CAN }
			change_influence_percentage = yes
		}
	}
	USA_open_borders = {
		days_remove = 150
		fire_only_once = yes
		cost = 50
		allowed = { original_tag = USA }
		ai_will_do = { factor = 355 }

		remove_effect = {
			log = "[GetDateText]: [Root.GetName]: USA_open_borders"
			set_temp_variable = { percent_change = 3 }
			set_temp_variable = { tag_index = USA }
			set_temp_variable = { influence_target = CUB }
			change_influence_percentage = yes
			USA = {
				add_opinion_modifier = {
					target = CUB
					modifier = medium_increase
				}
			}
			CUB = {
				add_opinion_modifier = {
					target = USA
					modifier = medium_increase
				}
			}
		}
	}
	USA_end_blockade = {
		days_remove = 150
		fire_only_once = yes
		cost = 100
		allowed = { original_tag = USA }
		ai_will_do = { factor = 355 }

		remove_effect = {
			log = "[GetDateText]: [Root.GetName]: USA_open_borders"
			CUB = {
				remove_ideas = CUB_idea_blockade1
				add_opinion_modifier = {
					target = USA
					modifier = large_increase
				}
			}
			USA = {
				add_opinion_modifier = {
					target = CUB
					modifier = large_increase
				}
				clr_country_flag = blockade_cuba_yes
			}
		}
	}

	USA_start_revolution = {
		days_remove = 150
		fire_only_once = no
		cost = 180
		allowed = { original_tag = USA }
		ai_will_do = { factor = 355 }

		remove_effect = {
			log = "[GetDateText]: [Root.GetName]: USA_start_revolution"
			set_temp_variable = { treasury_change = -5 }
			modify_treasury_effect = yes
			CUB = {
				start_civil_war = {
					ideology = democratic
					keep_political_leader = yes
					keep_political_party_members = yes
					size = 0.35
				}
			}
			USA = {
				clr_country_flag = blockade_cuba_yes
			}
		}
	}

	USA_try_to_influence_on_dominicana = {
		days_remove = 150
		fire_only_once = no
		cost = 150
		allowed = { original_tag = USA }
		ai_will_do = { factor = 355 }

		remove_effect = {
			log = "[GetDateText]: [Root.GetName]: USA_try_to_influence_on_dominicana"
			set_temp_variable = { percent_change = 5 }
			set_temp_variable = { tag_index = DOM }
			set_temp_variable = { influence_target = USA }
			change_influence_percentage = yes
			set_temp_variable = { percent_change = -6 }
			set_temp_variable = { tag_index = CUB }
			set_temp_variable = { influence_target = DOM }
			change_influence_percentage = yes
		}
	}
	USA_demand_dominicana = {
		days_remove = 150
		fire_only_once = no
		cost = 100
		allowed = { original_tag = USA }
		ai_will_do = { factor = 355 }
		available = {
			DOM = { influence_higher_60 = yes }
		}
		visible = {
			DOM = { influence_higher_60 = yes }
		}
		remove_effect = {
			log = "[GetDateText]: [Root.GetName]: USA_demand_dominicana"
			set_temp_variable = { treasury_change = 5 }
			modify_treasury_effect = yes
			set_temp_variable = { percent_change = 3 }
			set_temp_variable = { tag_index = CUB }
			set_temp_variable = { influence_target = CAN }
			change_influence_percentage = yes
			set_temp_variable = { percent_change = -6 }
			set_temp_variable = { tag_index = USA }
			set_temp_variable = { influence_target = CAN }
			change_influence_percentage = yes
			DOM = { country_event = { id = cuba.4 days = 1 } }
		}
	}
}
#USA_gun_regulations_mechanic_category = {
#	# End of the Crisis
#	USA_the_end_of_the_crisis_mission = {
#		icon = GFX_decision_eng_trade_unions_support
#		available = { has_country_flag = usa_era_of_gun_violence }
#		visible = { has_country_flag = usa_era_of_gun_violence }
#		fire_only_once = yes
#		days_mission_timeout = USA_days_from_last_gun_violence_event
#
#		timeout_effect = {
#			log = "[GetDateText]: [THIS.GetName]: Decision USA_the_end_of_the_crisis_mission"
#			set_country_flag = USA_gun_violence_is_thwarted
#			country_event = { id = usa.3020 days = 25 random_hours = 24 }
#		}
#	}
	# Pro-Democratic
#	USA_enact_red_flag_laws_federally = {
#		icon = GFX_decision_eng_trade_unions_support
#		available = { congress_medium_support_trigger = yes }
#		visible = { has_completed_focus = USA_focus_pro_gun_control_legislations }
#		cost = 250
#		days_remove = 180
#
#		remove_effect = {
#			log = "[GetDateText]: [Root.GetName]: Decision USA_enact_red_flag_laws_federally"
#			set_country_flag = USA_enact_red_flag_laws
#			set_temp_variable = { temp_change = 0.20 }
#			USA_change_federal_budget_bureaucracy_cost_change = yes
#
#			# Deters Mass Shooting
#			set_temp_variable = { temp_change = -0.15 }
#			USA_change_frequency_percentage_gun_mechanic = yes
#
#			set_temp_variable = { party_index = 2 }
#			set_temp_variable = { party_popularity_increase = 0.02 }
#			add_relative_party_popularity = yes
#			USA_congress_small_opposition = yes
#		}
#
#		ai_will_do = {
#			factor = 1
#			modifier = {
#				factor = 0
#				is_historical_focus_on = yes
#			}
#		}
#
#	}
#
#	USA_enact_universal_background_checks_federally = {
#		icon = GFX_decision_eng_trade_unions_support
#		available = { congress_medium_support_trigger = yes }
#		visible = { has_completed_focus = USA_focus_pro_gun_control_legislations }
#		cost = 250
#		days_remove = 180
#
#		remove_effect = {
# 			log = "[GetDateText]: [Root.GetName]: Decision USA_enact_universal_background_checks_federally"
#			set_country_flag = USA_universal_background_checks
#			set_temp_variable = { temp_change = 0.15 }
#			USA_change_federal_budget_bureaucracy_cost_change = yes
#
#			# Deters Mass Shooting
#			set_temp_variable = { temp_change = -0.15 }
#			USA_change_frequency_percentage_gun_mechanic = yes
#
#			set_temp_variable = { party_index = 2 }
#			set_temp_variable = { party_popularity_increase = 0.02 }
#			add_relative_party_popularity = yes
#			USA_congress_small_opposition = yes
#		}
#
#		ai_will_do = {
#			factor = 1
#			modifier = {
#				factor = 0
#				is_historical_focus_on = yes
#			}
#		}
#	}
#
#	USA_limitations_on_the_firearms_sold_federally = {
#		icon = GFX_decision_eng_trade_unions_support
#		available = { congress_medium_support_trigger = yes }
#		visible = {
#			OR = {
#				has_completed_focus = USA_focus_pro_gun_control_legislations
#				has_completed_focus = USA_focus_continued_compromising
#			}
#		}
#		cost = 250
#		days_remove = 180
#
#		remove_effect = {
#			log = "[GetDateText]: [Root.GetName]: Decision USA_limitations_on_the_firearms_sold_federally"
#			set_country_flag = USA_limitation_on_guns_sold
#			set_temp_variable = { temp_change = 0.15 }
#			USA_change_federal_budget_bureaucracy_cost_change = yes
#			set_temp_variable = { temp_change = 0.10 }
#			USA_change_federal_budget_police_cost_change = yes
#
#			# Deters Mass Shooting
#			set_temp_variable = { temp_change = -0.15 }
#			USA_change_casualty_percentage_gun_mechanic = yes
#
#			set_temp_variable = { party_index = 2 }
#			set_temp_variable = { party_popularity_increase = 0.02 }
#			add_relative_party_popularity = yes
#			if = { limit = { is_in_array = { ruling_party = 1 } }
#				set_temp_variable = { party_index = 1 }
#				set_temp_variable = { party_popularity_increase = -0.02 }
#				add_relative_party_popularity = yes
#			}
#			USA_congress_small_opposition = yes
#		}
#
#		ai_will_do = {
#			factor = 1
#			modifier = {
#				factor = 0
#				is_historical_focus_on = yes
#			}
#		}
#
#	}
#
#	USA_require_licensing_for_firearms_federally = {
#		icon = GFX_decision_eng_trade_unions_support
#		available = { congress_medium_support_trigger = yes }
#		visible = { has_completed_focus = USA_focus_pro_gun_control_legislations }
#		cost = 250
#		days_remove = 180
#
#		remove_effect = {
#			log = "[GetDateText]: [Root.GetName]: Decision USA_require_licensing_for_firearms_federally"
#			set_temp_variable = { temp_change = 0.15 }
#			USA_change_federal_budget_bureaucracy_cost_change = yes
#			set_temp_variable = { temp_change = 0.02 }
#			USA_change_tax_code_tax_collection_efficiency_change = yes
#			# Deters Mass Shooting
#			set_temp_variable = { temp_change = -0.10 }
#			USA_change_frequency_percentage_gun_mechanic = yes
#
#			set_temp_variable = { party_index = 2 }
#			set_temp_variable = { party_popularity_increase = 0.02 }
#			add_relative_party_popularity = yes
#			USA_congress_small_opposition = yes
#		}
#
#		ai_will_do = {
#			factor = 1
#			modifier = {
#				factor = 0
#				is_historical_focus_on = yes
#			}
#		}
#
#	}
#
#
#	# Compromising Section
#	USA_government_buyback_program_federally = {
#		icon = GFX_decision_eng_trade_unions_support
#
#		available = {
#			congress_medium_support_trigger = yes
#		}
#		visible = {
#			if = { limit = { NOT = { has_country_flag = USA_limitation_on_guns_sold } }
#				NOT = { has_country_flag = USA_buyback_program_one }
#			}
#			else = {
#				NOT = {
#					has_country_flag = USA_buyback_program_one
#					has_country_flag = USA_buyback_program_two
#				}
#			}
#		}
#		cost = 250
#		days_remove = 180
#		days_re_enable = 90
#
#		remove_effect = {
#			log = "[GetDateText]: [Root.GetName]: Decision USA_government_buyback_program_federally"
#			if = { limit = { NOT = { has_country_flag = USA_limitation_on_guns_sold } }
#				set_country_flag = USA_buyback_program_one
#			}
#			else = {
#				if = { limit = { NOT = { has_country_flag = USA_buyback_program_one } }
#				set_country_flag = USA_buyback_program_one
#				}
#				else = { set_country_flag = USA_buyback_program_two }
#			}
#
#			# Deters Mass Shooting
#			set_temp_variable = { temp_change = -0.075 }
#			USA_change_frequency_percentage_gun_mechanic = yes
#			USA_change_casualty_percentage_gun_mechanic = yes
#
#			set_temp_variable = { party_index = 16 }
#			set_temp_variable = { party_popularity_increase = -0.02 }
#			add_relative_party_popularity = yes
#			set_temp_variable = { treasury_change = gdp_total_display }
#			multiply_temp_variable = { treasury_change = -0.03 }
#			modify_treasury_effect = yes
#
#			USA_congress_small_opposition = yes
#		}
#		ai_will_do = { factor = 1 }
#	}
#
#	USA_limited_person_in_crisis_laws_federally = {
#		icon = GFX_decision_eng_trade_unions_support
#		available = { congress_medium_support_trigger = yes }
#		visible = { has_completed_focus = USA_focus_continued_compromising }
#		cost = 250
#		days_remove = 180
#		remove_effect = {
#			log = "[GetDateText]: [Root.GetName]: Decision USA_limited_person_in_crisis_laws_federally"
#			set_country_flag = USA_enact_red_flag_laws
#			set_temp_variable = { temp_change = 0.10 }
#			USA_change_federal_budget_bureaucracy_cost_change = yes
#
#			# Deters Mass Shooting
#			set_temp_variable = { temp_change = -0.05 }
#			USA_change_frequency_percentage_gun_mechanic = yes
#
#			set_temp_variable = { party_index = 2 }
#			set_temp_variable = { party_popularity_increase = 0.02 }
#			add_relative_party_popularity = yes
#			set_temp_variable = { party_index = 1 }
#			set_temp_variable = { party_popularity_increase = 0.02 }
#			add_relative_party_popularity = yes
#			USA_congress_small_opposition = yes
#		}
#		ai_will_do = { factor = 1 }
#	}
#
#	USA_limited_background_checks_federally = {
#		icon = GFX_decision_eng_trade_unions_support
#		available = { congress_medium_support_trigger = yes }
#		visible = { has_completed_focus = USA_focus_continued_compromising }
#		cost = 250
#		days_remove = 180
#		remove_effect = {
#			log = "[GetDateText]: [Root.GetName]: Decision USA_limited_background_checks_federally"
#			set_country_flag = USA_universal_background_checks
#			set_temp_variable = { temp_change = 0.05 }
#			USA_change_federal_budget_bureaucracy_cost_change = yes
#
#			# Deters Mass Shooting
#			set_temp_variable = { temp_change = -0.05 }
#			USA_change_frequency_percentage_gun_mechanic = yes
#
#			set_temp_variable = { party_index = 2 }
#			set_temp_variable = { party_popularity_increase = 0.02 }
#			add_relative_party_popularity = yes
#			set_temp_variable = { party_index = 1 }
#			set_temp_variable = { party_popularity_increase = 0.02 }
#			add_relative_party_popularity = yes
#			USA_congress_small_opposition = yes
#		}
#		ai_will_do = { factor = 1 }
#	}
#	USA_expanded_mental_healthcare = {
#		icon = GFX_decision_eng_trade_unions_support
#		available = { congress_medium_support_trigger = yes }
#		visible = { has_country_flag = usa_era_of_gun_violence }
#		cost = 500
#		days_remove = 210
#
#		remove_effect = {
#			log = "[GetDateText]: [Root.GetName]: Decision USA_expanded_mental_healthcare"
#			set_country_flag = USA_expanded_mental_healthcare
#			set_temp_variable = { temp_change = -0.05 }
#			USA_change_frequency_percentage_gun_mechanic = yes
#			set_temp_variable = { temp_change = 0.15 }
#			USA_change_federal_budget_healthcare_cost_change = yes
#			set_temp_variable = { party_index = 2 }
#			set_temp_variable = { party_popularity_increase = 0.02 }
#			add_relative_party_popularity = yes
#			set_temp_variable = { party_index = 3 }
#			set_temp_variable = { party_popularity_increase = 0.02 }
#			add_relative_party_popularity = yes
#		}
#		ai_will_do = { factor = 1 }
#	}
#
#
#	# Pro-Republican
#	USA_arm_the_teachers_with_pistols_federally = {
#		icon = GFX_decision_eng_trade_unions_support
#		available = { congress_medium_support_trigger = yes }
#		visible = { has_completed_focus = USA_focus_rolling_back_redundant_legislations }
#		cost = 250
#		days_remove = 180
#
#		remove_effect = {
#			log = "[GetDateText]: [Root.GetName]: Decision USA_arm_the_teachers_with_pistols_federally"
#			set_country_flag = USA_armed_professionals
#			set_temp_variable = { temp_change = 0.10 }
#			USA_change_federal_budget_education_cost_change = yes
#			set_temp_variable = { temp_change = 0.05 }
#			USA_change_federal_budget_bureaucracy_cost_change = yes
#
#			USA_change_casualty_percentage_gun_mechanic = yes
#			# Deters Mass Shooting
#			set_temp_variable = { temp_change = -0.10 }
#			USA_change_frequency_percentage_gun_mechanic = yes
#
#			set_temp_variable = { party_index = 1 }
#			set_temp_variable = { party_popularity_increase = 0.02 }
#			add_relative_party_popularity = yes
#			USA_congress_small_opposition = yes
#		}
#		ai_will_do = { factor = 1 }
#	}
#
#	USA_more_police_in_schools_federally = {
#		icon = GFX_decision_eng_trade_unions_support
#		available = { congress_medium_support_trigger = yes }
#		visible = { has_completed_focus = USA_focus_rolling_back_redundant_legislations }
#		cost = 250
#		days_remove = 180
#
#		remove_effect = {
#			log = "[GetDateText]: [Root.GetName]: Decision USA_more_police_in_schools_federally"
#			set_country_flag = USA_polices_in_school
#			set_temp_variable = { temp_change = 0.10 }
#			USA_change_federal_budget_police_cost_change = yes
#			set_temp_variable = { temp_change = 0.05 }
#			USA_change_federal_budget_bureaucracy_cost_change = yes
#			USA_change_casualty_percentage_gun_mechanic = yes
#			# Deters Mass Shooting
#			set_temp_variable = { temp_change = -0.10 }
#			USA_change_frequency_percentage_gun_mechanic = yes
#
#			set_temp_variable = { party_index = 1 }
#			set_temp_variable = { party_popularity_increase = 0.02 }
#			add_relative_party_popularity = yes
#			USA_congress_small_opposition = yes
#		}
#		ai_will_do = { factor = 1 }
#	}
#
#	USA_school_based_militias_federally = {
#		icon = GFX_decision_eng_trade_unions_support
#		available = { congress_medium_support_trigger = yes }
#		visible = { has_completed_focus = USA_focus_rolling_back_redundant_legislations }
#		cost = 250
#		days_remove = 180
#
#		remove_effect = {
#			log = "[GetDateText]: [Root.GetName]: Decision USA_school_based_militias_federally"
#			set_temp_variable = { temp_change = 0.10 }
#			USA_change_federal_budget_police_cost_change = yes
#			set_temp_variable = { temp_change = 0.05 }
#			USA_change_federal_budget_bureaucracy_cost_change = yes
#			set_temp_variable = { temp_change = 0.10 }
#			USA_change_casualty_percentage_gun_mechanic = yes
#			# Deters Mass Shooting
#			set_temp_variable = { temp_change = -0.10 }
#			USA_change_frequency_percentage_gun_mechanic = yes
#
#			set_temp_variable = { party_index = 1 }
#			set_temp_variable = { party_popularity_increase = 0.03 }
#			add_relative_party_popularity = yes
#			USA_congress_small_opposition = yes
#		}
#
#		ai_will_do = {
#			factor = 1
#		}
#	}
#
#	# Either Side
#	USA_repeal_the_brady_law = {
#		icon = GFX_decision_eng_trade_unions_support
#		available = { congress_medium_support_trigger = yes }
#		cost = 250
#		days_remove = 180
#
#		remove_effect = {
#			log = "[GetDateText]: [Root.GetName]: Decision USA_repeal_the_brady_law"
#			set_country_flag = USA_repeal_the_brady_law
#			set_temp_variable = { temp_change = -0.05 }
#			USA_change_federal_budget_police_cost_change = yes
#			USA_change_federal_budget_bureaucracy_cost_change = yes
#			set_temp_variable = { temp_change = 0.10 }
#			USA_change_frequency_percentage_gun_mechanic = yes
#			set_temp_variable = { party_index = 16 }
#			set_temp_variable = { party_popularity_increase = 0.02 }
#			add_relative_party_popularity = yes
#			set_temp_variable = { party_index = 1 }
#			set_temp_variable = { party_popularity_increase = 0.01 }
#			add_relative_party_popularity = yes
#			USA_congress_small_opposition = yes
#		}
#
#		ai_will_do = {
#			factor = 1
#			modifier = {
#				factor = 0
#				is_historical_focus_on = yes
#			}
#		}
#	}
#
#	USA_remove_full_automatic_reagan_ban = {
#		icon = GFX_decision_eng_trade_unions_support
#		available = { congress_medium_support_trigger = yes }
#		cost = 250
#		days_remove = 180
#
#		remove_effect = {
#			log = "[GetDateText]: [Root.GetName]: Decision USA_remove_full_automatic_reagan_ban"
#			set_country_flag = USA_repealed_full_automatic_reagan_ban
#
#			set_temp_variable = { temp_change = -0.05 }
#			USA_change_federal_budget_police_cost_change = yes
#			USA_change_federal_budget_bureaucracy_cost_change = yes
#			set_temp_variable = { temp_change = 0.05 }
#			USA_change_casualty_percentage_gun_mechanic = yes
#			set_temp_variable = { party_index = 16 }
#			set_temp_variable = { party_popularity_increase = 0.02 }
#			add_relative_party_popularity = yes
#			set_temp_variable = { party_index = 1 }
#			set_temp_variable = { party_popularity_increase = 0.01 }
#			add_relative_party_popularity = yes
#			USA_congress_small_opposition = yes
#		}
#
#		ai_will_do = {
#			factor = 1
#			modifier = {
#				factor = 0
#				is_historical_focus_on = yes
#			}
#		}
#	}
#}