##Denmark unique AI for combat units
DEN_default_naval_breakdown = {
	allowed = { original_tag = DEN }
	enable = { original_tag = DEN }
	abort_when_not_enabled = yes

	ai_strategy = { type = role_ratio id = naval_corvettes value = 20 }
	ai_strategy = { type = role_ratio id = naval_frigate value = 22 }
	ai_strategy = { type = role_ratio id = naval_destroyer value = 20 }
	ai_strategy = { type = role_ratio id = naval_stealth_destroyer value = 0 }
	ai_strategy = { type = role_ratio id = naval_attack_submarine value = 24 }
	ai_strategy = { type = role_ratio id = naval_missile_submarine value = 2 }
	ai_strategy = { type = role_ratio id = naval_helicopter_operator value = 10 }
	ai_strategy = { type = role_ratio id = naval_carrier value = 2 }
	ai_strategy = { type = role_ratio id = naval_cruiser value = 0 }
}

DEN_like_scandinavians_nations = {
	allowed = { original_tag = DEN }
	enable = {
		original_tag = DEN
		NOT = { has_government = nationalist }
	}
	abort_when_not_enabled = yes

	ai_strategy = { type = befriend id = "NOR" value = 50 }
	ai_strategy = { type = befriend id = "ICE" value = 50 }
	ai_strategy = { type = befriend id = "SWE" value = 50 }
	ai_strategy = { type = befriend id = "FIN" value = 50 }
	ai_strategy = { type = protect id = "NOR" value = 50 }
	ai_strategy = { type = protect id = "ICE" value = 50 }
	ai_strategy = { type = protect id = "SWE" value = 50 }
	ai_strategy = { type = protect id = "FIN" value = 50 }
	ai_strategy = { type = support id = "NOR" value = 50 }
	ai_strategy = { type = support id = "ICE" value = 50 }
	ai_strategy = { type = support id = "SWE" value = 50 }
	ai_strategy = { type = support id = "FIN" value = 50 }
}

DEN_do_not_conquer_norway = {
	allowed = { original_tag = DEN }
	enable = {
		original_tag = DEN
		has_wargoal_against = NOR
		NOR = {
			OR = {
				has_idea = EU_member
				has_idea = NATO_member
				strength_ratio = {
					tag = DEN
					ratio > 0.8
				}
			}
		}
	}
	abort_when_not_enabled = yes

	ai_strategy = { type = declare_war id = "NOR" value = -2000 }
}

DEN_do_not_conquer_sweden = {
	allowed = { original_tag = DEN }
	enable = {
		original_tag = DEN
		has_wargoal_against = SWE
		SWE = {
			OR = {
				has_idea = EU_member
				has_idea = NATO_member
				strength_ratio = {
					tag = DEN
					ratio > 0.8
				}
			}
		}
	}
	abort_when_not_enabled = yes

	ai_strategy = { type = declare_war id = "SWE" value = -2000 }
}