add_namespace = karabakh

# Peace talks
country_event = {
	id = karabakh.1

	title = karabakh.1.t
	desc = karabakh.1.d
	picture = GFX_armaze_negot

	is_triggered_only = yes

	option = {
		log = "[GetDateText]: [This.GetName]: karabakh.1.a executed"
		name = karabakh.1.a
		add_political_power = -10

		ai_chance = {
			factor = 10
		}
	}
	option = {
		log = "[GetDateText]: [This.GetName]: karabakh.1.b executed"
		name = karabakh.1.b
		country_event = karabakh.2

		ai_chance = {
			factor = 10
		}
	}
	option = {
		log = "[GetDateText]: [This.GetName]: karabakh.1.c executed"
		name = karabakh.1.c
		AZE = { country_event = karabakh.2 }

		ai_chance = {
			factor = 10
		}
	}
}

# Fate of NKR
country_event = {
	id = karabakh.2

	title = karabakh.2.t
	desc = karabakh.2.d
	picture = GFX_armaze_negot

	is_triggered_only = yes

	option = {
		log = "[GetDateText]: [This.GetName]: karabakh.2.a executed"
		name = karabakh.2.a
		if = {
			limit = { tag = AZE }

			ARM = { country_event = karabakh.3 }
		}
		else = {
			AZE = { country_event = karabakh.3 }
		}

		ai_chance = {
			factor = 10

			modifier = {
				factor = 0
				tag = AZE
			}
		}
	}
	option = {
		log = "[GetDateText]: [This.GetName]: karabakh.2.b executed"
		name = karabakh.2.b
		if = {
			limit = { tag = AZE }

			ARM = { country_event = karabakh.4 }
		}
		else = {
			AZE = { country_event = karabakh.4 }
		}

		ai_chance = {
			factor = 10

			modifier = {
				factor = 0
				tag = ARM
			}
		}
	}
	option = {
		log = "[GetDateText]: [This.GetName]: karabakh.2.c executed"
		name = karabakh.2.c
		if = {
			limit = { tag = AZE }

			ARM = { country_event = karabakh.5 }
		}
		else = {
			AZE = { country_event = karabakh.5 }
		}

		ai_chance = {
			factor = 10

			modifier = {
				add = 30
				tag = AZE
				has_completed_focus = AZE_The_final_solution
			}
		}
	}
}

# NKR remains ARM
country_event = {
	id = karabakh.3

	title = karabakh.3.t
	desc = karabakh.3.d
	picture = GFX_armaze_negot

	is_triggered_only = yes

	option = {
		log = "[GetDateText]: [This.GetName]: karabakh.3.a executed"
		name = karabakh.3.a

		ARM = {
			add_war_support = 0.05
			add_stability = 0.1
			set_party_index_to_ruling_party = yes
			set_temp_variable = { party_popularity_increase = 0.10 }
			set_temp_variable = { temp_outlook_increase = 0.10 }
			add_relative_party_popularity = yes
			add_timed_idea = {
				idea = NKR_repatriations_idea
				days = 720
			}

			set_temp_variable = { treasury_change = -15 }
			modify_treasury_effect = yes
			set_country_flag = karabakh_regulated_flag
		}

		AZE = {
			add_war_support = -0.05
			add_stability = -0.1
			set_party_index_to_ruling_party = yes
			set_temp_variable = { party_popularity_increase = -0.10 }
			set_temp_variable = { temp_outlook_increase = -0.10 }
			add_relative_party_popularity = yes
			set_temp_variable = { treasury_change = 15 }
			modify_treasury_effect = yes
			two_random_industrial_complex = yes
			set_country_flag = karabakh_regulated_flag
			remove_ideas = {
				AZE_karabakh_revanchism
				AZE_karabakh_defeat
			}
		}

		if = {
			limit = { NKR = { is_subject_of = AZE } }

			# trasfer puppet
			AZE = { end_puppet = NKR }
			ARM = { puppet = NKR }
		}

		ai_chance = {
			factor = 10

			modifier = {
				factor = 0
				tag = AZE
			}
		}
	}
	option = {
		log = "[GetDateText]: [This.GetName]: karabakh.3.b executed"
		name = karabakh.3.b
		add_political_power = -50

		ai_chance = {
			factor = 1
		}
	}
}

# NKR becomes AZE
country_event = {
	id = karabakh.4

	title = karabakh.4.t
	desc = karabakh.4.d
	picture = GFX_armaze_negot

	is_triggered_only = yes

	option = {
		log = "[GetDateText]: [This.GetName]: karabakh.4.a executed"
		name = karabakh.4.a

		AZE = {
			add_war_support = 0.05
			add_stability = 0.1
			set_party_index_to_ruling_party = yes
			set_temp_variable = { party_popularity_increase = 0.10 }
			set_temp_variable = { temp_outlook_increase = 0.10 }
			add_relative_party_popularity = yes
			add_timed_idea = {
				idea = NKR_repatriations_idea
				days = 720
			}

			set_temp_variable = { treasury_change = -15 }
			modify_treasury_effect = yes
			set_country_flag = karabakh_regulated_flag
			remove_ideas = {
				AZE_karabakh_revanchism
				AZE_karabakh_defeat
			}
		}

		ARM = {
			add_war_support = -0.05
			add_stability = -0.1
			set_party_index_to_ruling_party = yes
			set_temp_variable = { party_popularity_increase = -0.10 }
			set_temp_variable = { temp_outlook_increase = -0.10 }
			add_relative_party_popularity = yes
			set_temp_variable = { treasury_change = 15 }
			modify_treasury_effect = yes
			two_random_industrial_complex = yes
			set_country_flag = karabakh_regulated_flag
		}

		if = {
			limit = { NKR = { is_subject_of = ARM } }

			# trasfer puppet
			ARM = { end_puppet = NKR }
			AZE = { puppet = NKR }
		}

		ai_chance = {
			factor = 10

			modifier = {
				factor = 0
				tag = ARM
			}
		}
	}
	option = {
		log = "[GetDateText]: [This.GetName]: karabakh.4.b executed"
		name = karabakh.4.b
		add_political_power = -50

		ai_chance = {
			factor = 1
		}
	}
}

country_event = {
	id = karabakh.5

	title = karabakh.5.t
	desc = karabakh.5.d
	picture = GFX_armaze_negot

	is_triggered_only = yes

	option = {
		log = "[GetDateText]: [This.GetName]: karabakh.5.a executed"
		name = karabakh.5.a

		if = {
			limit = { NKR = { is_subject_of = ARM } }

			ARM = {
				add_stability = -0.05
				set_party_index_to_ruling_party = yes
				set_temp_variable = { party_popularity_increase = -0.05 }
				set_temp_variable = { temp_outlook_increase = -0.05 }
				add_relative_party_popularity = yes

				set_country_flag = karabakh_regulated_flag
				end_puppet = NKR
			}

			AZE = {
				set_country_flag = karabakh_regulated_flag
				remove_ideas = {
					AZE_karabakh_revanchism
					AZE_karabakh_defeat
				}
			}
		}
		else_if = {
			limit = { NKR = { is_subject_of = AZE } }

			AZE = {
				add_stability = -0.05
				set_party_index_to_ruling_party = yes
				set_temp_variable = { party_popularity_increase = -0.05 }
				set_temp_variable = { temp_outlook_increase = -0.05 }
				add_relative_party_popularity = yes

				set_country_flag = karabakh_regulated_flag
				end_puppet = NKR
				remove_ideas = {
					AZE_karabakh_revanchism
					AZE_karabakh_defeat
				}
			}

			ARM = { set_country_flag = karabakh_regulated_flag }
		}

		NKR = {
			country_event = { id = karabakh.6 days = 1825 random_days = 10 }
		}

		ai_chance = {
			factor = 10
		}
	}
	option = {
		log = "[GetDateText]: [This.GetName]: karabakh.5.b executed"
		name = karabakh.5.b
		add_political_power = -50

		ai_chance = {
			factor = 10
		}
	}
}

# NKR referendum
country_event = {
	id = karabakh.6

	title = karabakh.6.t
	desc = karabakh.6.d
	picture = GFX_armaze_negot

	is_triggered_only = yes

	option = {
		log = "[GetDateText]: [This.GetName]: karabakh.6.a executed"
		name = karabakh.6.a
		trigger = {
			country_exists = ARM
			NOT = { ARM = { is_subject = yes } }
		}

		# NKR joins ARM
		ARM = {
			puppet = NKR
			add_stability = 0.05
			add_war_support = 0.05
			add_political_power = 200
		}

		ai_chance = {
			factor = 10
		}
	}
	option = {
		log = "[GetDateText]: [This.GetName]: karabakh.6.b executed"
		name = karabakh.6.b
		# NKR joins AZE
		AZE = {
			puppet = NKR
			add_stability = 0.05
			add_war_support = 0.05
			add_political_power = 200
		}

		ai_chance = {
			factor = 5
		}
	}
	option = {
		log = "[GetDateText]: [This.GetName]: karabakh.6.c executed"
		name = karabakh.6.c
		# NKR remains independent
		NKR = {
			add_stability = 0.05
			add_war_support = 0.05
			add_political_power = 200
		}

		ai_chance = {
			factor = 20
		}
	}
}

# War declared
country_event = {
	id = karabakh.7

	title = karabakh.7.t
	desc = karabakh.7.d
	picture = GFX_war_declared

	is_triggered_only = yes

	option = {
		log = "[GetDateText]: [This.GetName]: karabakh.7.a executed"
		name = karabakh.7.a
	}
}

# minor raid failure
country_event = {
	id = karabakh.11

	title = karabakh.11.t
	desc = karabakh.11.d
	picture = GFX_wounded_azerbaijani

	is_triggered_only = yes

	option = {
		log = "[GetDateText]: [This.GetName]: karabakh.11.a executed"
		name = karabakh.11.a
		army_experience = 5
		add_manpower = -10
		set_temp_variable = { arg1 = global.CONST_karabakh_readiness_change_low }
		multiply_temp_variable = { arg1 = -1 }
		custom_effect_tooltip = AZE_decrease_readiness_tt
		karabakh_change_readiness = yes
		add_equipment_to_stockpile = {
			type = Inf_equipment
			amount = -20
		}
	}
}

# minor raid success
country_event = {
	id = karabakh.12

	title = karabakh.12.t
	desc = karabakh.12.d
	picture = GFX_azerbaijan_fight

	is_triggered_only = yes

	option = {
		log = "[GetDateText]: [This.GetName]: karabakh.12.a executed"
		name = karabakh.12.a
		army_experience = 10
		set_temp_variable = { arg1 = global.CONST_karabakh_readiness_change_low }
		custom_effect_tooltip = AZE_increase_readiness_tt
		karabakh_change_readiness = yes
	}
}

# major raid success
country_event = {
	id = karabakh.13

	title = karabakh.13.t
	desc = karabakh.13.d
	picture = GFX_win_armenian

	is_triggered_only = yes

	option = {
		log = "[GetDateText]: [This.GetName]: karabakh.13.a executed"
		name = karabakh.13.a
		army_experience = 10
		set_temp_variable = { arg1 = global.CONST_karabakh_readiness_change_medium }
		custom_effect_tooltip = AZE_increase_readiness_tt
		karabakh_change_readiness = yes
	}
}

# minor raid vs raid loss
country_event = {
	id = karabakh.14

	title = karabakh.14.t
	desc = karabakh.14.d
	picture = GFX_wounded_armenian

	is_triggered_only = yes

	option = {
		log = "[GetDateText]: [This.GetName]: karabakh.14.a executed"
		name = karabakh.14.a
		army_experience = 5
		add_manpower = -50
		set_temp_variable = { arg1 = global.CONST_karabakh_readiness_change_low }
		multiply_temp_variable = { arg1 = -1 }
		custom_effect_tooltip = AZE_decrease_readiness_tt
		karabakh_change_readiness = yes

		set_temp_variable = { arg1 = global.CONST_karabakh_tension_change_low }
		custom_effect_tooltip = AZE_increase_tension_tt
		karabakh_change_tension = yes

		add_equipment_to_stockpile = {
			type = Inf_equipment
			amount = -20
		}
		add_equipment_to_stockpile = {
			type = cnc_equipment
			amount = -5
		}
	}
}

# raid vs raid stalemate
country_event = {
	id = karabakh.15

	title = karabakh.15.t
	desc = karabakh.15.d
	picture = GFX_armenian_fight

	is_triggered_only = yes

	option = {
		log = "[GetDateText]: [This.GetName]: karabakh.15.a executed"
		name = karabakh.15.a
		army_experience = 10
		add_manpower = -75

		# will be added twice?
		set_temp_variable = { arg1 = global.CONST_karabakh_tension_change_low }
		custom_effect_tooltip = AZE_increase_tension_tt
		karabakh_change_tension = yes

		add_equipment_to_stockpile = {
			type = Inf_equipment
			amount = -25
		}
		add_equipment_to_stockpile = {
			type = cnc_equipment
			amount = -7
		}
	}
}

# raid vs raid win
country_event = {
	id = karabakh.16

	title = karabakh.16.t
	desc = karabakh.16.d
	picture = GFX_chad_armenian

	is_triggered_only = yes

	option = {
		log = "[GetDateText]: [This.GetName]: karabakh.16.a executed"
		name = karabakh.16.a
		army_experience = 10
		add_manpower = -20

		set_temp_variable = { arg1 = global.CONST_karabakh_readiness_change_low }
		custom_effect_tooltip = AZE_increase_readiness_tt
		karabakh_change_readiness = yes

		add_equipment_to_stockpile = {
			type = Inf_equipment
			amount = 10
		}
		add_equipment_to_stockpile = {
			type = cnc_equipment
			amount = 3
		}
	}
}

# major loss against artillery
country_event = {
	id = karabakh.17

	title = karabakh.17.t
	desc = karabakh.17.d
	picture = GFX_wounded_azerbaijani

	is_triggered_only = yes

	option = {
		log = "[GetDateText]: [This.GetName]: karabakh.17.a executed"
		name = karabakh.17.a
		army_experience = 5
		add_manpower = -100

		set_temp_variable = { arg1 = global.CONST_karabakh_tension_change_low }
		custom_effect_tooltip = AZE_increase_tension_tt
		karabakh_change_tension = yes

		set_temp_variable = { arg1 = global.CONST_karabakh_readiness_change_medium }
		multiply_temp_variable = { arg1 = -1 }
		custom_effect_tooltip = AZE_decrease_readiness_tt
		karabakh_change_readiness = yes

		add_equipment_to_stockpile = {
			type = Inf_equipment
			amount = -45
		}
		add_equipment_to_stockpile = {
			type = cnc_equipment
			amount = -2
		}
	}
}

# minor loss against artillery
country_event = {
	id = karabakh.18

	title = karabakh.18.t
	desc = karabakh.18.d
	picture = GFX_wounded_armenian

	is_triggered_only = yes

	option = {
		log = "[GetDateText]: [This.GetName]: karabakh.15.a executed"
		name = karabakh.18.a
		army_experience = 5
		add_manpower = -60

		set_temp_variable = { arg1 = global.CONST_karabakh_tension_change_low }
		custom_effect_tooltip = AZE_increase_tension_tt
		karabakh_change_tension = yes

		set_temp_variable = { arg1 = global.CONST_karabakh_readiness_change_low }
		multiply_temp_variable = { arg1 = -1 }
		custom_effect_tooltip = AZE_decrease_readiness_tt
		karabakh_change_readiness = yes

		add_equipment_to_stockpile = {
			type = Inf_equipment
			amount = -20
		}
		add_equipment_to_stockpile = {
			type = cnc_equipment
			amount = -2
		}
	}
}

# dodged artillery
country_event = {
	id = karabakh.19

	title = karabakh.19.t
	desc = karabakh.19.d
	picture = GFX_hills_armenian

	is_triggered_only = yes

	option = {
		log = "[GetDateText]: [This.GetName]: karabakh.19.a executed"
		name = karabakh.19.a
		army_experience = 5

		add_equipment_to_stockpile = {
			type = Inf_equipment
			amount = -10
		}
	}
}

# major win against recon
country_event = {
	id = karabakh.20

	title = karabakh.20.t
	desc = karabakh.20.d
	picture = GFX_azerbaijan_fight

	is_triggered_only = yes

	option = {
		log = "[GetDateText]: [This.GetName]: karabakh.20.a executed"
		name = karabakh.20.a
		army_experience = 15
		add_manpower = -10

		set_temp_variable = { arg1 = global.CONST_karabakh_tension_change_low }
		custom_effect_tooltip = AZE_increase_tension_tt
		karabakh_change_tension = yes

		set_temp_variable = { arg1 = global.CONST_karabakh_readiness_change_medium }
		custom_effect_tooltip = AZE_increase_readiness_tt
		karabakh_change_readiness = yes

		add_equipment_to_stockpile = {
			type = Inf_equipment
			amount = 20
		}
		add_equipment_to_stockpile = {
			type = cnc_equipment
			amount = 5
		}
	}
}

# minor win against recon
country_event = {
	id = karabakh.21

	title = karabakh.21.t
	desc = karabakh.21.d
	picture = GFX_azerbaijani_patrol

	is_triggered_only = yes

	option = {
		log = "[GetDateText]: [This.GetName]: karabakh.21.a executed"
		name = karabakh.21.a
		army_experience = 10
		add_manpower = -20

		set_temp_variable = { arg1 = global.CONST_karabakh_tension_change_low }
		custom_effect_tooltip = AZE_increase_tension_tt
		karabakh_change_tension = yes

		set_temp_variable = { arg1 = global.CONST_karabakh_readiness_change_low }
		custom_effect_tooltip = AZE_increase_readiness_tt
		karabakh_change_readiness = yes

		add_equipment_to_stockpile = {
			type = Inf_equipment
			amount = 10
		}
		add_equipment_to_stockpile = {
			type = cnc_equipment
			amount = 3
		}
	}
}

# recon dodged
country_event = {
	id = karabakh.22

	title = karabakh.22.t
	desc = karabakh.22.d
	picture = GFX_hills_armenian

	is_triggered_only = yes

	option = {
		log = "[GetDateText]: [This.GetName]: karabakh.22.a executed"
		name = karabakh.22.a
		army_experience = 5

		add_equipment_to_stockpile = {
			type = Inf_equipment
			amount = 5
		}
		add_equipment_to_stockpile = {
			type = cnc_equipment
			amount = 1
		}
	}
}

# minor arty failure
country_event = {
	id = karabakh.31

	title = karabakh.31.t
	desc = karabakh.31.d
	picture = GFX_soldiers_artillery

	is_triggered_only = yes

	option = {
		log = "[GetDateText]: [This.GetName]: karabakh.31.a executed"
		name = karabakh.31.a
		army_experience = 5
		set_temp_variable = { arg1 = global.CONST_karabakh_readiness_change_low }
		multiply_temp_variable = { arg1 = -1 }
		custom_effect_tooltip = AZE_decrease_readiness_tt
		karabakh_change_readiness = yes
		add_equipment_to_stockpile = {
			type = artillery_equipment
			amount = -2
		}
	}
}

# minor arty success
country_event = {
	id = karabakh.32

	title = karabakh.32.t
	desc = karabakh.32.d
	picture = GFX_armenian_artillery

	is_triggered_only = yes

	option = {
		log = "[GetDateText]: [This.GetName]: karabakh.32.a executed"
		name = karabakh.32.a
		army_experience = 10
		set_temp_variable = { arg1 = global.CONST_karabakh_readiness_change_low }
		custom_effect_tooltip = AZE_increase_readiness_tt
		karabakh_change_readiness = yes
	}
}

# major arty success
country_event = {
	id = karabakh.33

	title = karabakh.33.t
	desc = karabakh.33.d
	picture = GFX_azerbaijani_artillery

	is_triggered_only = yes

	option = {
		log = "[GetDateText]: [This.GetName]: karabakh.13.a executed"
		name = karabakh.33.a
		army_experience = 10
		set_temp_variable = { arg1 = global.CONST_karabakh_readiness_change_medium }
		custom_effect_tooltip = AZE_increase_readiness_tt
		karabakh_change_readiness = yes
	}
}

# minor arty vs arty loss
country_event = {
	id = karabakh.37

	title = karabakh.37.t
	desc = karabakh.37.d
	picture = GFX_armenian_artillery

	is_triggered_only = yes

	option = {
		log = "[GetDateText]: [This.GetName]: karabakh.37.a executed"
		name = karabakh.37.a
		army_experience = 5
		add_manpower = -15
		set_temp_variable = { arg1 = global.CONST_karabakh_readiness_change_low }
		multiply_temp_variable = { arg1 = -1 }
		custom_effect_tooltip = AZE_decrease_readiness_tt
		karabakh_change_readiness = yes

		set_temp_variable = { arg1 = global.CONST_karabakh_tension_change_low }
		custom_effect_tooltip = AZE_increase_tension_tt
		karabakh_change_tension = yes

		add_equipment_to_stockpile = {
			type = artillery_equipment
			amount = -4
		}
		add_equipment_to_stockpile = {
			type = cnc_equipment
			amount = -2
		}
	}
}

# arty vs arty stalemate
country_event = {
	id = karabakh.38

	title = karabakh.38.t
	desc = karabakh.38.d
	picture = GFX_armenian_artillery

	is_triggered_only = yes

	option = {
		log = "[GetDateText]: [This.GetName]: karabakh.38.a executed"
		name = karabakh.38.a
		army_experience = 10
		add_manpower = -20

		# will be added twice?
		set_temp_variable = { arg1 = global.CONST_karabakh_tension_change_low }
		custom_effect_tooltip = AZE_increase_tension_tt
		karabakh_change_tension = yes

		add_equipment_to_stockpile = {
			type = Inf_equipment
			amount = -6
		}
		add_equipment_to_stockpile = {
			type = cnc_equipment
			amount = -3
		}
	}
}

# arty vs arty win
country_event = {
	id = karabakh.39

	title = karabakh.39.t
	desc = karabakh.39.d
	picture = GFX_azerbaijani_artillery

	is_triggered_only = yes

	option = {
		log = "[GetDateText]: [This.GetName]: karabakh.39.a executed"
		name = karabakh.39.a
		army_experience = 10
		add_manpower = -5

		set_temp_variable = { arg1 = global.CONST_karabakh_readiness_change_low }
		custom_effect_tooltip = AZE_increase_readiness_tt
		karabakh_change_readiness = yes

		add_equipment_to_stockpile = {
			type = artillery_equipment
			amount = 2
		}
		add_equipment_to_stockpile = {
			type = cnc_equipment
			amount = 1
		}
	}
}

# major win against raid
country_event = {
	id = karabakh.34

	title = karabakh.34.t
	desc = karabakh.34.d
	picture = GFX_azerbaijani_artillery

	is_triggered_only = yes

	option = {
		log = "[GetDateText]: [This.GetName]: karabakh.17.a executed"
		name = karabakh.34.a
		army_experience = 15
		add_manpower = -5

		set_temp_variable = { arg1 = global.CONST_karabakh_readiness_change_medium }
		custom_effect_tooltip = AZE_increase_readiness_tt
		karabakh_change_readiness = yes

		add_equipment_to_stockpile = {
			type = Inf_equipment
			amount = 20
		}
		add_equipment_to_stockpile = {
			type = cnc_equipment
			amount = 5
		}
	}
}

# minor win against raid
country_event = {
	id = karabakh.35

	title = karabakh.35.t
	desc = karabakh.35.d
	picture = GFX_soldiers_artillery

	is_triggered_only = yes

	option = {
		log = "[GetDateText]: [This.GetName]: karabakh.35.a executed"
		name = karabakh.35.a
		army_experience = 5
		add_manpower = -10

		set_temp_variable = { arg1 = global.CONST_karabakh_readiness_change_low }
		custom_effect_tooltip = AZE_increase_readiness_tt
		karabakh_change_readiness = yes

		add_equipment_to_stockpile = {
			type = Inf_equipment
			amount = 10
		}
		add_equipment_to_stockpile = {
			type = cnc_equipment
			amount = 1
		}
	}
}

# raid dodged artillery
country_event = {
	id = karabakh.36

	title = karabakh.36.t
	desc = karabakh.36.d
	picture = GFX_hills_armenian

	is_triggered_only = yes

	option = {
		log = "[GetDateText]: [This.GetName]: karabakh.36.a executed"
		name = karabakh.36.a
		army_experience = 5

		add_equipment_to_stockpile = {
			type = Inf_equipment
			amount = 10
		}
	}
}

# major loss against recon
country_event = {
	id = karabakh.40

	title = karabakh.40.t
	desc = karabakh.40.d
	picture = GFX_destroyed_artillery

	is_triggered_only = yes

	option = {
		log = "[GetDateText]: [This.GetName]: karabakh.40.a executed"
		name = karabakh.40.a
		army_experience = 5
		add_manpower = -20

		set_temp_variable = { arg1 = global.CONST_karabakh_tension_change_low }
		custom_effect_tooltip = AZE_increase_tension_tt
		karabakh_change_tension = yes

		set_temp_variable = { arg1 = global.CONST_karabakh_readiness_change_medium }
		multiply_temp_variable = { arg1 = -1 }
		custom_effect_tooltip = AZE_decrease_readiness_tt
		karabakh_change_readiness = yes

		add_equipment_to_stockpile = {
			type = artillery_equipment
			amount = -6
		}
		add_equipment_to_stockpile = {
			type = cnc_equipment
			amount = -3
		}
	}
}

# minor loss against recon
country_event = {
	id = karabakh.41

	title = karabakh.41.t
	desc = karabakh.41.d
	picture = GFX_destroyed_artillery

	is_triggered_only = yes

	option = {
		log = "[GetDateText]: [This.GetName]: karabakh.41.a executed"
		name = karabakh.41.a
		army_experience = 5
		add_manpower = -25

		set_temp_variable = { arg1 = global.CONST_karabakh_tension_change_low }
		custom_effect_tooltip = AZE_increase_tension_tt
		karabakh_change_tension = yes

		set_temp_variable = { arg1 = global.CONST_karabakh_readiness_change_low }
		multiply_temp_variable = { arg1 = -1 }
		custom_effect_tooltip = AZE_decrease_readiness_tt
		karabakh_change_readiness = yes

		add_equipment_to_stockpile = {
			type = artillery_equipment
			amount = -5
		}
		add_equipment_to_stockpile = {
			type = cnc_equipment
			amount = -2
		}
	}
}

# dodged recon
country_event = {
	id = karabakh.42

	title = karabakh.42.t
	desc = karabakh.42.d
	picture = GFX_soldiers_artillery

	is_triggered_only = yes

	option = {
		log = "[GetDateText]: [This.GetName]: karabakh.42.a executed"
		name = karabakh.42.a
		army_experience = 5

		add_equipment_to_stockpile = {
			type = artillery_equipment
			amount = -2
		}
	}
}

# minor recon failure
country_event = {
	id = karabakh.51

	title = karabakh.51.t
	desc = karabakh.51.d
	picture = GFX_armenian_soldiers

	is_triggered_only = yes

	option = {
		log = "[GetDateText]: [This.GetName]: karabakh.51.a executed"
		name = karabakh.51.a
		army_experience = 5
		add_manpower = -3
		set_temp_variable = { arg1 = global.CONST_karabakh_readiness_change_low }
		multiply_temp_variable = { arg1 = -1 }
		custom_effect_tooltip = AZE_decrease_readiness_tt
		karabakh_change_readiness = yes
		add_equipment_to_stockpile = {
			type = Inf_equipment
			amount = -5
		}
		add_equipment_to_stockpile = {
			type = cnc_equipment
			amount = -1
		}
	}
}

# minor recon success
country_event = {
	id = karabakh.52

	title = karabakh.52.t
	desc = karabakh.52.d
	picture = GFX_chad_azerbaijaninotreallyfckthem

	is_triggered_only = yes

	option = {
		log = "[GetDateText]: [This.GetName]: karabakh.52.a executed"
		name = karabakh.52.a
		army_experience = 10
		set_temp_variable = { arg1 = global.CONST_karabakh_readiness_change_low }
		custom_effect_tooltip = AZE_increase_readiness_tt
		karabakh_change_readiness = yes
	}
}

# major recon success
country_event = {
	id = karabakh.53

	title = karabakh.53.t
	desc = karabakh.53.d
	picture = GFX_win_armenian

	is_triggered_only = yes

	option = {
		log = "[GetDateText]: [This.GetName]: karabakh.53.a executed"
		name = karabakh.13.a
		army_experience = 10
		set_temp_variable = { arg1 = global.CONST_karabakh_readiness_change_medium }
		custom_effect_tooltip = AZE_increase_readiness_tt
		karabakh_change_readiness = yes
	}
}

# major loss against raid
country_event = {
	id = karabakh.54

	title = karabakh.54.t
	desc = karabakh.54.d
	picture = GFX_hills_azerbaijani

	is_triggered_only = yes

	option = {
		log = "[GetDateText]: [This.GetName]: karabakh.54.a executed"
		name = karabakh.54.a
		army_experience = 5
		add_manpower = -50

		set_temp_variable = { arg1 = global.CONST_karabakh_readiness_change_medium }
		multiply_temp_variable = { arg1 = -1 }
		custom_effect_tooltip = AZE_decrease_readiness_tt
		karabakh_change_readiness = yes

		add_equipment_to_stockpile = {
			type = Inf_equipment
			amount = -20
		}
		add_equipment_to_stockpile = {
			type = cnc_equipment
			amount = -5
		}
	}
}

# minor loss against raid
country_event = {
	id = karabakh.55

	title = karabakh.55.t
	desc = karabakh.55.d
	picture = GFX_wounded_armenian

	is_triggered_only = yes

	option = {
		log = "[GetDateText]: [This.GetName]: karabakh.55.a executed"
		name = karabakh.55.a
		army_experience = 5
		add_manpower = -25

		set_temp_variable = { arg1 = global.CONST_karabakh_readiness_change_low }
		multiply_temp_variable = { arg1 = -1 }
		custom_effect_tooltip = AZE_decrease_readiness_tt
		karabakh_change_readiness = yes

		add_equipment_to_stockpile = {
			type = Inf_equipment
			amount = -10
		}
		add_equipment_to_stockpile = {
			type = cnc_equipment
			amount = -3
		}
	}
}

# dodged raid
country_event = {
	id = karabakh.56

	title = karabakh.56.t
	desc = karabakh.56.d
	picture = GFX_hills_armenian

	is_triggered_only = yes

	option = {
		log = "[GetDateText]: [This.GetName]: karabakh.56.a executed"
		name = karabakh.56.a
		army_experience = 5

		add_equipment_to_stockpile = {
			type = Inf_equipment
			amount = -5
		}
		add_equipment_to_stockpile = {
			type = cnc_equipment
			amount = -1
		}
	}
}

# major win against arty
country_event = {
	id = karabakh.57

	title = karabakh.57.t
	desc = karabakh.57.d
	picture = GFX_win_azerbaijani

	is_triggered_only = yes

	option = {
		log = "[GetDateText]: [This.GetName]: karabakh.57.a executed"
		name = karabakh.57.a
		army_experience = 15
		add_manpower = -5

		set_temp_variable = { arg1 = global.CONST_karabakh_readiness_change_medium }
		custom_effect_tooltip = AZE_increase_readiness_tt
		karabakh_change_readiness = yes

		add_equipment_to_stockpile = {
			type = Inf_equipment
			amount = 20
		}
		add_equipment_to_stockpile = {
			type = cnc_equipment
			amount = 5
		}
	}
}

# minor win against arty
country_event = {
	id = karabakh.58

	title = karabakh.58.t
	desc = karabakh.58.d
	picture = GFX_azerbaijani_patrol

	is_triggered_only = yes

	option = {
		log = "[GetDateText]: [This.GetName]: karabakh.58.a executed"
		name = karabakh.58.a
		army_experience = 5
		add_manpower = -10

		set_temp_variable = { arg1 = global.CONST_karabakh_readiness_change_low }
		custom_effect_tooltip = AZE_increase_readiness_tt
		karabakh_change_readiness = yes

		add_equipment_to_stockpile = {
			type = Inf_equipment
			amount = 10
		}
		add_equipment_to_stockpile = {
			type = cnc_equipment
			amount = 1
		}
	}
}

# arty dodged recon
country_event = {
	id = karabakh.59

	title = karabakh.59.t
	desc = karabakh.59.d
	picture = GFX_armenian_patrol

	is_triggered_only = yes

	option = {
		log = "[GetDateText]: [This.GetName]: karabakh.59.a executed"
		name = karabakh.59.a
		army_experience = 5

		add_equipment_to_stockpile = {
			type = artillery_equipment
			amount = 2
		}
	}
}

# minor recon vs recon loss
country_event = {
	id = karabakh.60

	title = karabakh.60.t
	desc = karabakh.60.d
	picture = GFX_armenian_fight

	is_triggered_only = yes

	option = {
		log = "[GetDateText]: [This.GetName]: karabakh.60.a executed"
		name = karabakh.60.a
		army_experience = 5
		add_manpower = -25
		set_temp_variable = { arg1 = global.CONST_karabakh_readiness_change_low }
		multiply_temp_variable = { arg1 = -1 }
		custom_effect_tooltip = AZE_decrease_readiness_tt
		karabakh_change_readiness = yes

		set_temp_variable = { arg1 = global.CONST_karabakh_tension_change_low }
		custom_effect_tooltip = AZE_increase_tension_tt
		karabakh_change_tension = yes

		add_equipment_to_stockpile = {
			type = Inf_equipment
			amount = -10
		}
		add_equipment_to_stockpile = {
			type = cnc_equipment
			amount = -7
		}
	}
}

# recon vs recon stalemate
country_event = {
	id = karabakh.61

	title = karabakh.61.t
	desc = karabakh.61.d
	picture = GFX_armenian_soldiers

	is_triggered_only = yes

	option = {
		log = "[GetDateText]: [This.GetName]: karabakh.61.a executed"
		name = karabakh.61.a
		army_experience = 10
		add_manpower = -40

		# will be added twice?
		set_temp_variable = { arg1 = global.CONST_karabakh_tension_change_low }
		custom_effect_tooltip = AZE_increase_tension_tt
		karabakh_change_tension = yes

		add_equipment_to_stockpile = {
			type = Inf_equipment
			amount = -15
		}
		add_equipment_to_stockpile = {
			type = cnc_equipment
			amount = -10
		}
	}
}

# recon vs recon win
country_event = {
	id = karabakh.62

	title = karabakh.62.t
	desc = karabakh.62.d
	picture = GFX_azerbaijani_patrol

	is_triggered_only = yes

	option = {
		log = "[GetDateText]: [This.GetName]: karabakh.62.a executed"
		name = karabakh.62.a
		army_experience = 10
		add_manpower = -10

		set_temp_variable = { arg1 = global.CONST_karabakh_readiness_change_low }
		custom_effect_tooltip = AZE_increase_readiness_tt
		karabakh_change_readiness = yes

		add_equipment_to_stockpile = {
			type = Inf_equipment
			amount = 5
		}
		add_equipment_to_stockpile = {
			type = cnc_equipment
			amount = 5
		}
	}
}

# digin fail
country_event = {
	id = karabakh.71

	title = karabakh.71.t
	desc = karabakh.71.d
	picture = GFX_wounded_armenian

	is_triggered_only = yes

	option = {
		log = "[GetDateText]: [This.GetName]: karabakh.71.a executed"
		name = karabakh.71.a
		add_manpower = -20

		set_temp_variable = { arg1 = global.CONST_karabakh_readiness_change_low }
		multiply_temp_variable = { arg1 = -1 }
		custom_effect_tooltip = AZE_decrease_readiness_tt
		karabakh_change_readiness = yes

		add_equipment_to_stockpile = {
			type = cnc_equipment
			amount = -5
		}
	}
}

# question locals fail
country_event = {
	id = karabakh.72

	title = karabakh.72.t
	desc = karabakh.72.d
	picture = GFX_hills_armenian

	is_triggered_only = yes

	option = {
		log = "[GetDateText]: [This.GetName]: karabakh.72.a executed"
		name = karabakh.72.a
		add_manpower = -35

		set_temp_variable = { arg1 = global.CONST_karabakh_readiness_change_low }
		multiply_temp_variable = { arg1 = -1 }
		custom_effect_tooltip = AZE_decrease_readiness_tt
		karabakh_change_readiness = yes
	}
}

# air recon fail
country_event = {
	id = karabakh.73

	title = karabakh.73.t
	desc = karabakh.73.d
	picture = GFX_plane_shot

	is_triggered_only = yes

	option = {
		log = "[GetDateText]: [This.GetName]: karabakh.72.a executed"
		name = karabakh.73.a
		add_manpower = -1

		set_temp_variable = { arg1 = global.CONST_karabakh_readiness_change_low }
		multiply_temp_variable = { arg1 = -1 }
		custom_effect_tooltip = AZE_decrease_readiness_tt
		karabakh_change_readiness = yes

		add_equipment_to_stockpile = {
			type = MR_Fighter_equipment
			amount = -1
		}
	}
}

# unmaned air recon fail
country_event = {
	id = karabakh.74

	title = karabakh.74.t
	desc = karabakh.74.d
	picture = GFX_plane_shot

	is_triggered_only = yes

	option = {
		log = "[GetDateText]: [This.GetName]: karabakh.74.a executed"
		name = karabakh.74.a
		add_manpower = -1

		set_temp_variable = { arg1 = global.CONST_karabakh_readiness_change_low }
		multiply_temp_variable = { arg1 = -1 }
		custom_effect_tooltip = AZE_decrease_readiness_tt
		karabakh_change_readiness = yes

		add_equipment_to_stockpile = {
			type = Air_UAV_equipment
			amount = -1
		}
	}
}