set_leader_BHR = {

	if = { limit = { has_country_flag = set_Conservative }

		if = { limit = { check_variable = { Conservative_leader = 0 } }
			add_to_variable = { Conservative_leader = 1 }
			hidden_effect = { kill_country_leader = yes }

			create_country_leader = {
				name = "Isa Qassim"
				picture = "Isa_Qassim.dds"
				ideology = Conservative
				traits = {
					emerging_Conservative
					cleric
				}
			}

			if = { limit = { has_country_flag = do_not_retire } subtract_from_variable = { Conservative_leader = 1 } }
			if = { limit = { date < 2016.1.2 } set_temp_variable = { b = 1 } } #skip if 2017
		}

		if = { limit = { check_variable = { Conservative_leader = 1 } }
			add_to_variable = { Conservative_leader = 1 }
			hidden_effect = { kill_country_leader = yes }

			create_country_leader = {
				name = "Ali Salman"
				picture = "BHR_Ali_Salman.dds"
				ideology = Conservative
				traits = {
					emerging_Conservative
					cleric
				}
			}

			if = { limit = { has_country_flag = do_not_retire } subtract_from_variable = { Conservative_leader = 1 } }
		}
	}
	else_if = { limit = { has_country_flag = set_Vilayat_e_Faqih }

		if = { limit = { check_variable = { Vilayat_e_Faqih_leader = 0 } }
			add_to_variable = { Vilayat_e_Faqih_leader = 1 }
			hidden_effect = { kill_country_leader = yes }

			create_country_leader = {
				name = "Hasan Mushaima"
				picture = "Hasan_Mushaima.dds"
				ideology = Vilayat_e_Faqih
				traits = {
					emerging_Vilayat_e_Faqih
				}
			}

			if = { limit = { has_country_flag = do_not_retire } subtract_from_variable = { Vilayat_e_Faqih_leader = 1 } }
		}
	}
	else_if = { limit = { has_country_flag = set_Mod_Vilayat_e_Faqih }

		if = { limit = { check_variable = { Mod_Vilayat_e_Faqih_leader = 0 } }
			add_to_variable = { Mod_Vilayat_e_Faqih_leader = 1 }
			hidden_effect = { kill_country_leader = yes }

			create_country_leader = {
				name = "Mohammed al Mahfoodh"
				picture = "Mohammed_al_Mahfoodh.dds"
				ideology = Mod_Vilayat_e_Faqih
				traits = {
					emerging_Mod_Vilayat_e_Faqih
				}
			}

			if = { limit = { has_country_flag = do_not_retire } subtract_from_variable = { Mod_Vilayat_e_Faqih_leader = 1 } }
		}
	}
	else_if = { limit = { has_country_flag = set_Neutral_Autocracy }
		if = { limit = { check_variable = { Neutral_Autocracy_leader = 0 } }
			add_to_variable = { Neutral_Autocracy_leader = 1 }
			hidden_effect = { kill_country_leader = yes }

			create_country_leader = {
				name = "Salman Hamad ibn Isa Al Khalifa"
				picture = "salman_hamad_ibn_isa_al_khalifa.dds"
				ideology = Neutral_Autocracy
				traits = {
					neutrality_Neutral_Autocracy
				}
			}

			if = { limit = { has_country_flag = do_not_retire } subtract_from_variable = { Neutral_Autocracy_leader = 1 } }
			if = { limit = { date < 2016.1.2 } set_temp_variable = { b = 1 } } #skip if 2017
		}
	}
	else_if = { limit = { has_country_flag = set_Monarchist }
		if = { limit = { check_variable = { Monarchist_leader = 0 } }
			add_to_variable = { Monarchist_leader = 1 }
			hidden_effect = { kill_country_leader = yes }

			create_country_leader = {
				name = "Hamad bin Isa bin Salman Al Khalifa"
				picture = "hamad_bin_Isa_Al_Khalifa.dds"
				ideology = Monarchist
				traits = {
					nationalist_Monarchist
				}
			}

			if = { limit = { has_country_flag = do_not_retire } subtract_from_variable = { Monarchist_leader = 1 } }
			if = { limit = { date < 2016.1.2 } set_temp_variable = { b = 1 } } #skip if 2017
		}
	}
	else_if = { limit = { has_country_flag = set_Communist-State }
		if = { limit = { check_variable = { Communist-State_leader = 0 } }
			add_to_variable = { Communist-State_leader = 1 }
			hidden_effect = { kill_country_leader = yes }

			create_country_leader = {
				name = "Hassan Madan"
				picture = "hassan_madan.dds"
				ideology = Communist-State
				traits = {
					emerging_Communist-State
				}
			}

			if = { limit = { has_country_flag = do_not_retire } subtract_from_variable = { Communist-State_leader = 1 } }
			set_temp_variable = { b = 1 }
		}
	}
	else_if = { limit = { has_country_flag = set_Autocracy }
		if = { limit = { check_variable = { Autocracy_leader = 0 } }
			add_to_variable = { Autocracy_leader = 1 }
			hidden_effect = { kill_country_leader = yes }

			create_country_leader = {
				name = "Hassan Ali"
				picture = "hassan_ali.dds"
				ideology = Autocracy
				traits = {
					emerging_Autocracy
				}
			}

			if = { limit = { has_country_flag = do_not_retire } subtract_from_variable = { Autocracy_leader = 1 } }
			set_temp_variable = { b = 1 }
		}
	}
	else_if = { limit = { has_country_flag = set_Nat_Autocracy }
		if = { limit = { check_variable = { Nat_Autocracy_leader = 0 } }
			add_to_variable = { Nat_Autocracy_leader = 1 }
			hidden_effect = { kill_country_leader = yes }

			create_country_leader = {
				name = "Khalifa bin Abdullah Al-Khalifa"
				picture = "khalifa_bin_abdullah_al_khalifa.dds"
				ideology = Nat_Autocracy
				traits = {
					nationalist_Nat_Autocracy
				}
			}

			if = { limit = { has_country_flag = do_not_retire } subtract_from_variable = { Nat_Autocracy_leader = 1 } }
			set_temp_variable = { b = 1 }
		}
	}
}