set_leader_FIN = {

	if = { limit = { has_country_flag = set_conservatism }

		if = { limit = { check_variable = { conservatism_leader = 0 } }
			add_to_variable = { conservatism_leader = 1 }
			hidden_effect = { kill_country_leader = yes }

			create_country_leader = {
				name = "Esko Aho"
				picture = "FIN_Esko_Aho.dds"
				ideology = conservatism
				traits = {
					western_conservatism
				}
			}

			if = { limit = { has_country_flag = do_not_retire } subtract_from_variable = { conservatism_leader = 1 } }
			if = { limit = { date < 2016.1.2 } set_temp_variable = { b = 1 } } #skip if 2017
		}
	}
	else_if = { limit = { has_country_flag = set_liberalism }
		if = { limit = { check_variable = { liberalism_leader = 0 } }
			add_to_variable = { liberalism_leader = 1 }
			hidden_effect = { kill_country_leader = yes }

			create_country_leader = {
				name = "Sauli Niinistö"
				picture = "sauli_niinisto.dds"
				ideology = liberalism
				traits = {
					western_liberalism
				}
			}

			if = { limit = { has_country_flag = do_not_retire } subtract_from_variable = { liberalism_leader = 1 } }
			if = { limit = { date < 2016.1.2 } set_temp_variable = { b = 1 } } #skip if 2017
		}
		if = { limit = { check_variable = { liberalism_leader = 1 } NOT = { check_variable = { b = 1 } } }
			add_to_variable = { liberalism_leader = 1 }
			hidden_effect = { kill_country_leader = yes }

			create_country_leader = {
				name = "Petteri Orpo"
				picture = "petteri_orpo.dds"
				ideology = liberalism
				traits = {
					western_liberalism
				}
			}

			if = { limit = { has_country_flag = do_not_retire } subtract_from_variable = { liberalism_leader = 1 } }
			set_temp_variable = { b = 1 }
		}
	}
	else_if = { limit = { has_country_flag = set_Communist-State }
		if = { limit = { check_variable = { Communist-State_leader = 0 } }
			add_to_variable = { Communist-State_leader = 1 }
			hidden_effect = { kill_country_leader = yes }

			create_country_leader = {
				name = "Yrjö Hakanen"
				picture = "yrjo_hakanen.dds"
				ideology = Communist-State
				traits = {
					emerging_Communist-State
				}
			}

			if = { limit = { has_country_flag = do_not_retire } subtract_from_variable = { Communist-State_leader = 1 } }
			if = { limit = { date < 2016.1.2 } set_temp_variable = { b = 1 } } #skip if 2017
		}
		if = { limit = { check_variable = { Communist-State_leader = 1 } NOT = { check_variable = { b = 1 } } }
			add_to_variable = { Communist-State_leader = 1 }
			hidden_effect = { kill_country_leader = yes }

			create_country_leader = {
				name = "Juha-Pekka Väisänen"
				picture = "juha_pekka_vaisanen.dds"
				ideology = Communist-State
				traits = {
					emerging_Communist-State
				}
			}

			if = { limit = { has_country_flag = do_not_retire } subtract_from_variable = { Communist-State_leader = 1 } }
			set_temp_variable = { b = 1 }
		}
	}
	else_if = { limit = { has_country_flag = set_anarchist_communism }
		if = { limit = { check_variable = { anarchist_communism_leader = 0 } }
			add_to_variable = { anarchist_communism_leader = 1 }
			hidden_effect = { kill_country_leader = yes }

			create_country_leader = {
				name = "Suvi-Anne Siimes"
				picture = "FIN_Suvi_Anne_Siimes.dds"
				ideology = anarchist_communism
				traits = {
					emerging_anarchist_communism
				}
			}

			if = { limit = { has_country_flag = do_not_retire } subtract_from_variable = { anarchist_communism_leader = 1 } }
			if = { limit = { date < 2016.1.2 } set_temp_variable = { b = 1 } } #skip if 2017
		}
		if = { limit = { check_variable = { anarchist_communism_leader = 1 } NOT = { check_variable = { b = 1 } } }
			add_to_variable = { anarchist_communism_leader = 1 }
			hidden_effect = { kill_country_leader = yes }

			create_country_leader = {
				name = "Li Andersson"
				picture = "li_andersson.dds"
				ideology = anarchist_communism
				traits = {
					emerging_anarchist_communism
				}
			}

			if = { limit = { has_country_flag = do_not_retire } subtract_from_variable = { anarchist_communism_leader = 1 } }
			set_temp_variable = { b = 1 }
		}
	}
	else_if = { limit = { has_country_flag = set_Neutral_conservatism }
		if = { limit = { check_variable = { Neutral_conservatism_leader = 0 } }
			add_to_variable = { Neutral_conservatism_leader = 1 }
			hidden_effect = { kill_country_leader = yes }

			create_country_leader = {
				name = "Bjarne Kallis"
				picture = "bjarne_kallis.dds"
				ideology = Neutral_conservatism
				traits = {
					neutrality_Neutral_conservatism
				}
			}

			if = { limit = { has_country_flag = do_not_retire } subtract_from_variable = { Neutral_conservatism_leader = 1 } }
			if = { limit = { date < 2016.1.2 } set_temp_variable = { b = 1 } } #skip if 2017
		}
		if = { limit = { check_variable = { Neutral_conservatism_leader = 1 } NOT = { check_variable = { b = 1 } } }
			add_to_variable = { Neutral_conservatism_leader = 1 }
			hidden_effect = { kill_country_leader = yes }

			create_country_leader = {
				name = "Päivi Räsänen"
				picture = "paivi_rasanen.dds"
				ideology = Neutral_conservatism
				traits = {
					neutrality_Neutral_conservatism
				}
			}

			if = { limit = { has_country_flag = do_not_retire } subtract_from_variable = { Neutral_conservatism_leader = 1 } }
			set_temp_variable = { b = 1 }
		}
	}
	else_if = { limit = { has_country_flag = set_Neutral_Libertarian }
		if = { limit = { check_variable = { Neutral_Libertarian_leader = 0 } }
			add_to_variable = { Neutral_Libertarian_leader = 1 }
			hidden_effect = { kill_country_leader = yes }

			create_country_leader = {
				name = "Juhani Kähärä"
				picture = "juhani_kahara.dds"
				ideology = Neutral_Libertarian
				traits = {
					neutrality_Neutral_Libertarian
				}
			}

			if = { limit = { has_country_flag = do_not_retire } subtract_from_variable = { Neutral_Libertarian_leader = 1 } }
			set_temp_variable = { b = 1 }
		}
	}
	else_if = { limit = { has_country_flag = set_Neutral_Communism }
		if = { limit = { check_variable = { Neutral_Communism_leader = 0 } }
			add_to_variable = { Neutral_Communism_leader = 1 }
			hidden_effect = { kill_country_leader = yes }

			create_country_leader = {
				name = "Hannu Harju"
				picture = "hannu_harju.dds"
				ideology = Neutral_Communism
				traits = {
					neutrality_Neutral_Communism
				}
			}

			if = { limit = { has_country_flag = do_not_retire } subtract_from_variable = { Neutral_Communism_leader = 1 } }
			if = { limit = { date < 2016.1.2 } set_temp_variable = { b = 1 } } #skip if 2017
		}
		if = { limit = { check_variable = { Neutral_Communism_leader = 1 } NOT = { check_variable = { b = 1 } } }
			add_to_variable = { Neutral_Communism_leader = 1 }
			hidden_effect = { kill_country_leader = yes }

			create_country_leader = {
				name = "Mikko Vartiainen"
				picture = "mikko_vartiainen.dds"
				ideology = Neutral_Communism
				traits = {
					neutrality_Neutral_Communism
				}
			}

			if = { limit = { has_country_flag = do_not_retire } subtract_from_variable = { Neutral_Communism_leader = 1 } }
			set_temp_variable = { b = 1 }
		}
	}
	else_if = { limit = { has_country_flag = set_Neutral_green }
		if = { limit = { check_variable = { Neutral_green_leader = 0 } }
			add_to_variable = { Neutral_green_leader = 1 }
			hidden_effect = { kill_country_leader = yes }

			create_country_leader = {
				name = "Satu Hassi"
				picture = "satu_hassi.dds"
				ideology = Neutral_green
				traits = {
					neutrality_Neutral_green
				}
			}

			if = { limit = { has_country_flag = do_not_retire } subtract_from_variable = { Neutral_green_leader = 1 } }
			if = { limit = { date < 2016.1.2 } set_temp_variable = { b = 1 } } #skip if 2017
		}
		if = { limit = { check_variable = { Neutral_green_leader = 1 } NOT = { check_variable = { b = 1 } } }
			add_to_variable = { Neutral_green_leader = 1 }
			hidden_effect = { kill_country_leader = yes }

			create_country_leader = {
				name = "Ville Niinistö"
				picture = "ville_niinisto.dds"
				ideology = Neutral_green
				traits = {
					neutrality_Neutral_green
				}
			}

			if = { limit = { has_country_flag = do_not_retire } subtract_from_variable = { Neutral_green_leader = 1 } }
			set_temp_variable = { b = 1 }
		}
	}
	else_if = { limit = { has_country_flag = set_Nat_Fascism }
		if = { limit = { check_variable = { Nat_Fascism_leader = 0 } }
			add_to_variable = { Nat_Fascism_leader = 1 }
			hidden_effect = { kill_country_leader = yes }

			create_country_leader = {
				name = "Olavi Mäenpää"
				picture = "olavi_maenpaa.dds"
				ideology = Nat_Fascism
				traits = {
					nationalist_Nat_Fascism
				}
			}

			if = { limit = { has_country_flag = do_not_retire } subtract_from_variable = { Nat_Fascism_leader = 1 } }
			if = { limit = { date < 2016.1.2 } set_temp_variable = { b = 1 } } #skip if 2017
		}
		if = { limit = { check_variable = { Nat_Fascism_leader = 1 } NOT = { check_variable = { b = 1 } } }
			add_to_variable = { Nat_Fascism_leader = 1 }
			hidden_effect = { kill_country_leader = yes }

			create_country_leader = {
				name = "Lisbet Puttonen"
				picture = "lisbet_puttonen.dds"
				ideology = Nat_Fascism
				traits = {
					nationalist_Nat_Fascism
				}
			}

			if = { limit = { has_country_flag = do_not_retire } subtract_from_variable = { Nat_Fascism_leader = 1 } }
			set_temp_variable = { b = 1 }
		}
	}
	else_if = { limit = { has_country_flag = set_Nat_Populism }
		if = { limit = { check_variable = { Nat_Populism_leader = 0 } }
			add_to_variable = { Nat_Populism_leader = 1 }
			hidden_effect = { kill_country_leader = yes }

			create_country_leader = {
				name = "Timo Soini"
				picture = "timo_soini.dds"
				ideology = Nat_Populism
				traits = {
					nationalist_Nat_Populism
				}
			}

			if = { limit = { has_country_flag = do_not_retire } subtract_from_variable = { Nat_Populism_leader = 1 } }
			if = { limit = { date < 2016.1.2 } set_temp_variable = { b = 1 } } #skip if 2017
		}
		if = { limit = { check_variable = { Nat_Populism_leader = 1 } NOT = { check_variable = { b = 1 } } }
			add_to_variable = { Nat_Populism_leader = 1 }
			hidden_effect = { kill_country_leader = yes }

			create_country_leader = {
				name = "Jussi Halla-Aho"
				picture = "jussi_halla_aho.dds"
				ideology = Nat_Populism
				traits = {
					nationalist_Nat_Populism
				}
			}

			if = { limit = { has_country_flag = do_not_retire } subtract_from_variable = { Nat_Populism_leader = 1 } }
			set_temp_variable = { b = 1 }
		}
	}
	else_if = { limit = { has_country_flag = set_Monarchist }
		if = { limit = { check_variable = { Monarchist_leader = 0 } }
			add_to_variable = { Monarchist_leader = 1 }
			hidden_effect = { kill_country_leader = yes }

			create_country_leader = {
				name = "Moritz von Hessen"
				picture = "moritz_von_hessen.dds"
				ideology = Monarchist
				traits = {
					nationalist_Monarchist
				}
			}

			if = { limit = { has_country_flag = do_not_retire } subtract_from_variable = { Monarchist_leader = 1 } }
			if = { limit = { date < 2016.1.2 } set_temp_variable = { b = 1 } } #skip if 2017
		}
		if = { limit = { check_variable = { Monarchist_leader = 1 } NOT = { check_variable = { b = 1 } } }
			add_to_variable = { Monarchist_leader = 1 }
			hidden_effect = { kill_country_leader = yes }

			create_country_leader = {
				name = "Mafalda von Hessen"
				picture = "mafalda_von_hessen.dds"
				ideology = Monarchist
				traits = {
					nationalist_Monarchist
				}
			}

			if = { limit = { has_country_flag = do_not_retire } subtract_from_variable = { Monarchist_leader = 1 } }
			set_temp_variable = { b = 1 }
		}
	}
	else_if = { limit = { has_country_flag = set_socialism }
		if = { limit = { check_variable = { socialism_leader = 0 } }
			add_to_variable = { socialism_leader = 1 }
			hidden_effect = { kill_country_leader = yes }

			create_country_leader = {
				name = "Paavo Lipponen"
				picture = "Paavo_Lipponen.dds"
				ideology = socialism
				traits = {
					western_socialism
				}
			}

			if = { limit = { has_country_flag = do_not_retire } subtract_from_variable = { socialism_leader = 1 } }
			if = { limit = { date < 2016.1.2 } set_temp_variable = { b = 1 } } #skip if 2017
		}
		if = { limit = { check_variable = { socialism_leader = 1 } NOT = { check_variable = { b = 1 } } }
			add_to_variable = { socialism_leader = 1 }
			hidden_effect = { kill_country_leader = yes }

			create_country_leader = {
				name = "Antti Rinne"
				picture = "antti_rinne.dds"
				ideology = socialism
				traits = {
					western_socialism
				}
			}

			if = { limit = { has_country_flag = do_not_retire } subtract_from_variable = { socialism_leader = 1 } }
			set_temp_variable = { b = 1 }
		}
	}
	else_if = { limit = { has_country_flag = set_Conservative }
		if = { limit = { check_variable = { Conservative_leader = 0 } }
			add_to_variable = { Conservative_leader = 1 }
			hidden_effect = { kill_country_leader = yes }

			create_country_leader = {
				name = "Paavo Väyrynen"
				picture = "paavo_vayrynen.dds"
				ideology = Conservative
				traits = {
					emerging_Conservative
				}
			}

			if = { limit = { has_country_flag = do_not_retire } subtract_from_variable = { Conservative_leader = 1 } }
			set_temp_variable = { b = 1 }
		}
	}
}