set_leader_KOR = {

	if = { limit = { has_country_flag = set_conservatism }

		if = { limit = { check_variable = { conservatism_leader = 0 } }
			add_to_variable = { conservatism_leader = 1 }
			hidden_effect = { kill_country_leader = yes }

			create_country_leader = {
				name = "Lee Hoi-chang"
				picture = "Lee_Hoi-chang.dds"
				ideology = conservatism
				traits = {
					western_conservatism
					pro_american
				}
			}

			if = { limit = { has_country_flag = do_not_retire } subtract_from_variable = { conservatism_leader = 1 } }
			if = { limit = { date < 2004.1.2 } set_temp_variable = { b = 1 } } #skip if 2003
		}
		if = { limit = { check_variable = { conservatism_leader = 1 } NOT = { check_variable = { b = 1 } } }
			add_to_variable = { conservatism_leader = 1 }
			hidden_effect = { kill_country_leader = yes }

			create_country_leader = {
				name = "Lee Myung-Bak"
				desc = LEE_MYUNG_BAK_LEADER_DESC
				picture = "lee_myung_bak.dds"
				ideology = conservatism
				traits = {
					western_conservatism
					geopolitical_thinker
					pro_american
					businessman
				}
			}

			if = { limit = { has_country_flag = do_not_retire } subtract_from_variable = { conservatism_leader = 1 } }
			if = { limit = { date < 2016.1.2 } set_temp_variable = { b = 1 } } #skip if 2017
		}
		if = { limit = { check_variable = { conservatism_leader = 2 } NOT = { check_variable = { b = 1 } } }
			add_to_variable = { conservatism_leader = 1 }
			hidden_effect = { kill_country_leader = yes }

			create_country_leader = {
				name = "Park Geun-hye"
				desc = PARK_GEUN_HYE_LEADER_DESC
				picture = "Park_Geun-hye.dds"
				ideology = conservatism
				traits = {
					western_conservatism
					deceitful
				}
			}

			if = { limit = { has_country_flag = do_not_retire } subtract_from_variable = { conservatism_leader = 1 } }
			if = { limit = { date < 2016.1.2 } set_temp_variable = { b = 1 } } #skip if 2017
		}
		if = { limit = { check_variable = { conservatism_leader = 3 } NOT = { check_variable = { b = 1 } } }
			add_to_variable = { conservatism_leader = 1 }
			hidden_effect = { kill_country_leader = yes }

			create_country_leader = {
				name = "Hwang Kyo-ahn"
				picture = "KOR_Hwang_Kyo-ahn.dds"
				ideology = conservatism
				traits = {
					western_conservatism
					lawyer
				}
			}

			if = { limit = { has_country_flag = do_not_retire } subtract_from_variable = { conservatism_leader = 1 } }
			if = { limit = { date < 2016.1.2 } set_temp_variable = { b = 1 } } #skip if 2017
		}
		if = { limit = { check_variable = { conservatism_leader = 4 } NOT = { check_variable = { b = 1 } } }
			add_to_variable = { conservatism_leader = 1 }
			hidden_effect = { kill_country_leader = yes }

			create_country_leader = {
				name = "Hong Jun-pyo"
				picture = "Hong_Jun-pyo.dds"
				ideology = conservatism
				traits = {
					western_conservatism
					rash
				}
			}

			if = { limit = { has_country_flag = do_not_retire } subtract_from_variable = { conservatism_leader = 1 } }
			set_temp_variable = { b = 1 }
		}
		if = { limit = { check_variable = { conservatism_leader = 5 } NOT = { check_variable = { b = 1 } } }
			add_to_variable = { conservatism_leader = 1 }
			hidden_effect = { kill_country_leader = yes }

			create_country_leader = {
				name = "Yoon Seok-youl"
				picture = "yoon_seok_youl.dds"
				ideology = conservatism
				traits = {
					western_conservatism
					lawyer
				}
			}

			if = { limit = { has_country_flag = do_not_retire } subtract_from_variable = { conservatism_leader = 1 } }
			set_temp_variable = { b = 1 }
		}
		if = { limit = { check_variable = { conservatism_leader = 6 } NOT = { check_variable = { b = 1 } } }
			add_to_variable = { conservatism_leader = 1 }
			hidden_effect = { kill_country_leader = yes }

			create_country_leader = {
				name = "Ban Ki-moon"
				picture = "Ban_Ki-moon.dds"
				ideology = conservatism
				traits = {
					western_conservatism
				}
			}

			if = { limit = { has_country_flag = do_not_retire } subtract_from_variable = { conservatism_leader = 1 } }
			if = { limit = { date < 2016.1.2 } set_temp_variable = { b = 1 } } #skip if 2017
		}
	}
	else_if = { limit = { has_country_flag = set_anarchist_communism }
		if = { limit = { check_variable = { anarchist_communism_leader = 0 } }
			add_to_variable = { anarchist_communism_leader = 1 }
			hidden_effect = { kill_country_leader = yes }

			create_country_leader = {
				name = "Lee Jung-hee"
				picture = "Lee_Jung-hee.dds"
				ideology = anarchist_communism
				traits = {
					emerging_anarchist_communism
				}
			}

			if = { limit = { has_country_flag = do_not_retire } subtract_from_variable = { anarchist_communism_leader = 1 } }
			if = { limit = { date < 2016.1.2 } set_temp_variable = { b = 1 } } #skip if 2017
		}
		if = { limit = { check_variable = { anarchist_communism_leader = 1 } NOT = { check_variable = { b = 1 } } }
			add_to_variable = { anarchist_communism_leader = 1 }
			hidden_effect = { kill_country_leader = yes }

			create_country_leader = {
				name = "Lee Gap-yong"
				picture = "lee_gap_yong.dds"
				ideology = anarchist_communism
				traits = {
					emerging_anarchist_communism
				}
			}

			if = { limit = { has_country_flag = do_not_retire } subtract_from_variable = { anarchist_communism_leader = 1 } }
			set_temp_variable = { b = 1 }
		}
	}
	else_if = { limit = { has_country_flag = set_Neutral_conservatism }
		if = { limit = { check_variable = { Neutral_conservatism_leader = 0 } }
			add_to_variable = { Neutral_conservatism_leader = 1 }
			hidden_effect = { kill_country_leader = yes }

			create_country_leader = {
				name = "Kim Jong-pil"
				picture = "Kim_Jong-pil.dds"
				ideology = Neutral_conservatism
				traits = {
					neutrality_Neutral_conservatism
				}
			}

			if = { limit = { has_country_flag = do_not_retire } subtract_from_variable = { Neutral_conservatism_leader = 1 } }
			if = { limit = { date < 2016.1.2 } set_temp_variable = { b = 1 } } #skip if 2017
		}
		if = { limit = { check_variable = { Neutral_conservatism_leader = 1 } NOT = { check_variable = { b = 1 } } }
			add_to_variable = { Neutral_conservatism_leader = 1 }
			hidden_effect = { kill_country_leader = yes }

			create_country_leader = {
				name = "Yoo Seong-min"
				picture = "Yoo_Seong-min.dds"
				ideology = Neutral_conservatism
				traits = {
					neutrality_Neutral_conservatism
				}
			}

			if = { limit = { has_country_flag = do_not_retire } subtract_from_variable = { Neutral_conservatism_leader = 1 } }
			set_temp_variable = { b = 1 }
		}
	}
	else_if = { limit = { has_country_flag = set_Nat_Autocracy }
		if = { limit = { check_variable = { Nat_Autocracy_leader = 0 } }
			add_to_variable = { Nat_Autocracy_leader = 1 }
			hidden_effect = { kill_country_leader = yes }

			create_country_leader = {
				name = "Gen. Cho Yung-kil"
				picture = "Gen_Cho_Yung-kil.dds"
				ideology = Nat_Autocracy
				traits = {
					nationalist_Nat_Autocracy
				}
			}

			if = { limit = { has_country_flag = do_not_retire } subtract_from_variable = { Nat_Autocracy_leader = 1 } }
			if = { limit = { date < 2016.1.2 } set_temp_variable = { b = 1 } } #skip if 2017
		}
		if = { limit = { check_variable = { Nat_Autocracy_leader = 1 } NOT = { check_variable = { b = 1 } } }
			add_to_variable = { Nat_Autocracy_leader = 1 }
			hidden_effect = { kill_country_leader = yes }

			create_country_leader = {
				name = "Gen. Lee Sun-jin"
				picture = "Portrait_Lee_Sun_Jin.dds"
				ideology = Nat_Autocracy
				traits = {
					nationalist_Nat_Autocracy
				}
			}

			if = { limit = { has_country_flag = do_not_retire } subtract_from_variable = { Nat_Autocracy_leader = 1 } }
			set_temp_variable = { b = 1 }
		}
	}
	else_if = { limit = { has_country_flag = set_Monarchist }
		if = { limit = { check_variable = { Monarchist_leader = 0 } }
			add_to_variable = { Monarchist_leader = 1 }
			hidden_effect = { kill_country_leader = yes }

			create_country_leader = {
				name = "Yi Seok"
				picture = "yi_seok.dds"
				ideology = Monarchist
				traits = {
					nationalist_Monarchist
				}
			}

			if = { limit = { has_country_flag = do_not_retire } subtract_from_variable = { Monarchist_leader = 1 } }
			set_temp_variable = { b = 1 }
		}
	}
	else_if = { limit = { has_country_flag = set_neutral_Social }
		if = { limit = { check_variable = { neutral_Social_leader = 0 } }
			add_to_variable = { neutral_Social_leader = 1 }
			hidden_effect = { kill_country_leader = yes }

			create_country_leader = {
				name = "Sim Sang-jung"
				picture = "Portrait_Sim_Seung_Seop.dds"
				ideology = neutral_Social
				traits = {
					neutrality_neutral_Social
				}
			}

			if = { limit = { has_country_flag = do_not_retire } subtract_from_variable = { neutral_Social_leader = 1 } }
			set_temp_variable = { b = 1 }
		}
	}
	else_if = { limit = { has_country_flag = set_liberalism }
		if = { limit = { check_variable = { liberalism_leader = 0 } }
			add_to_variable = { liberalism_leader = 1 }
			hidden_effect = { kill_country_leader = yes }

			create_country_leader = {
				name = "Ahn Cheol-soo"
				picture = "Ahn_Cheol-soo.dds"
				ideology = liberalism
				traits = {
					western_liberalism
					businessman
				}
			}

			if = { limit = { has_country_flag = do_not_retire } subtract_from_variable = { liberalism_leader = 1 } }
			set_temp_variable = { b = 1 }
		}
		if = {
			limit = { check_variable = { liberalism_leader = 1 } NOT = { check_variable = { b = 1 } } }
			add_to_variable = { liberalism_leader = 1 }
			hidden_effect = { kill_country_leader = yes }

			create_country_leader = {
				name = "Park Jie-won"
				picture = "park_jie_won.dds"
				ideology = liberalism
				traits = {
					western_liberalism
				}
			}

			if = { limit = { has_country_flag = do_not_retire } subtract_from_variable = { liberalism_leader = 1 } }
			set_temp_variable = { b = 1 }
		}
	}
	else_if = { limit = { has_country_flag = set_Neutral_green }
		if = { limit = { check_variable = { Neutral_green_leader = 0 } }
			add_to_variable = { Neutral_green_leader = 1 }
			hidden_effect = { kill_country_leader = yes }

			create_country_leader = {
				name = "Kim Juon"
				picture = "Kim_Juon.dds"
				ideology = Neutral_green
				traits = {
					neutrality_Neutral_green
				}
			}

			if = { limit = { has_country_flag = do_not_retire } subtract_from_variable = { Neutral_green_leader = 1 } }
			set_temp_variable = { b = 1 }
		}
	}
	else_if = { limit = { has_country_flag = set_Nat_Populism }
		if = { limit = { check_variable = { Nat_Populism_leader = 0 } }
			add_to_variable = { Nat_Populism_leader = 1 }
			hidden_effect = { kill_country_leader = yes }

			create_country_leader = {
				name = "Son Yeong-gu"
				picture = "son_yeong_gu.dds"
				ideology = Nat_Populism
				traits = {
					nationalist_Nat_Populism
				}
			}

			if = { limit = { has_country_flag = do_not_retire } subtract_from_variable = { Nat_Populism_leader = 1 } }
			set_temp_variable = { b = 1 }
		}
	}
	else_if = { limit = { has_country_flag = set_socialism }
		if = { limit = { check_variable = { socialism_leader = 0 } NOT = { check_variable = { b = 1 } } }
			add_to_variable = { socialism_leader = 1 }
			hidden_effect = { kill_country_leader = yes }

			create_country_leader = {
				name = "Roh Moo-hyun"
				desc = ROH_MOO_HYUN_LEADER_DESC
				picture = "Roh_Moo-hyun.dds"
				ideology = socialism
				traits = {
					western_socialism
					lawyer
					stubborn
				}
			}

			if = { limit = { has_country_flag = do_not_retire } subtract_from_variable = { socialism_leader = 1 } }
			if = { limit = { date < 2016.1.2 } set_temp_variable = { b = 1 } } #skip if 2017
		}
		if = { limit = { check_variable = { socialism_leader = 1 } NOT = { check_variable = { b = 1 } } }
			add_to_variable = { socialism_leader = 1 }
			hidden_effect = { kill_country_leader = yes }

			create_country_leader = {
				name = "Chung Dong-young"
				picture = "Chung_Dong-young.dds"
				ideology = socialism
				traits = {
					western_socialism
				}
			}

			if = { limit = { has_country_flag = do_not_retire } subtract_from_variable = { socialism_leader = 1 } }
			if = { limit = { date < 2012.1.2 } set_temp_variable = { b = 1 } } #skip if 2017
		}
		if = { limit = { check_variable = { socialism_leader = 2 } NOT = { check_variable = { b = 1 } } }
			add_to_variable = { socialism_leader = 1 }
			hidden_effect = { kill_country_leader = yes }

			create_country_leader = {
				name = "Moon Jae-in"
				desc = MOON_JAE_IN_LEADER_DESC
				picture = "Moon_Jae-in.dds"
				ideology = socialism
				traits = {
					western_socialism
					lawyer
					likeable
				}
			}

			if = { limit = { has_country_flag = do_not_retire } subtract_from_variable = { socialism_leader = 1 } }
			set_temp_variable = { b = 1 }
		}
		if = { limit = { check_variable = { socialism_leader = 3 } NOT = { check_variable = { b = 1 } } }
			add_to_variable = { socialism_leader = 1 }
			hidden_effect = { kill_country_leader = yes }

			create_country_leader = {
				name = "Lee Nak-yon"
				picture = "lee_nak_yon.dds"
				ideology = socialism
				traits = {
					western_socialism
					tech_savy
				}
			}

			if = { limit = { has_country_flag = do_not_retire } subtract_from_variable = { socialism_leader = 1 } }
			set_temp_variable = { b = 1 }
		}
	}
}