﻿division_template = {
	name = "Motor Rifle Brigade" #Mechanized

	regiments = {
		Mech_Inf_Bat = { x = 0 y = 0 }
		Mech_Inf_Bat = { x = 0 y = 1 }
		Arm_Inf_Bat = { x = 0 y = 2 }
		armor_Bat = { x = 0 y = 3 }
		Arty_Bat = { x = 1 y = 0 }
		Arty_Bat = { x = 1 y = 1 }
		SP_Arty_Bat = { x = 2 y = 0 }
	}
	support = {
		H_Engi_Comp = { x = 0 y = 0 }
		Mech_Recce_Comp = { x = 0 y = 1 }
		SP_AA_Battery = { x = 0 y = 2 }
	}
}

division_template = {
	name = "Motor Rifle Division" #Mechanized

	regiments = {
		Mech_Inf_Bat = { x = 0 y = 0 }
		Mech_Inf_Bat = { x = 0 y = 1 }
		Mech_Inf_Bat = { x = 0 y = 2 }
		armor_Bat = { x = 0 y = 3 }

		Arm_Inf_Bat = { x = 1 y = 0 }
		Arm_Inf_Bat = { x = 1 y = 1 }
		Arm_Inf_Bat = { x = 1 y = 2 }
		armor_Bat = { x = 1 y = 3 }

		armor_Bat = { x = 2 y = 0 }
		armor_Bat = { x = 2 y = 1 }
		armor_Bat = { x = 2 y = 2 }
		Arm_Inf_Bat = { x = 2 y = 3 }

		SP_Arty_Bat = { x = 3 y = 0 }
		SP_Arty_Bat = { x = 3 y = 1 }
		SP_Arty_Bat = { x = 3 y = 2 }
		SP_Arty_Bat = { x = 3 y = 3 }
		SP_AA_Bat = { x = 3 y = 4 }
	}
	support = {
		Arm_Recce_Comp = { x = 0 y = 0 }
		H_Engi_Comp = { x = 0 y = 1 }
		combat_service_support_company = { x = 0 y = 1 }
	}
}

division_template = {
	name = "Motor Rifle Division (Mobilization)" #Mechanized

	regiments = {
		Mech_Inf_Bat = { x = 0 y = 0 }
		Mech_Inf_Bat = { x = 0 y = 1 }
		Arm_Inf_Bat = { x = 0 y = 2 }
		armor_Bat = { x = 0 y = 3 }

		Arty_Bat = { x = 1 y = 0 }

		SP_AA_Bat = { x = 2 y = 0 }
		SP_Arty_Bat = { x = 2 y = 1 }
	}
	support = {
		Mot_Recce_Comp = { x = 0 y = 0 }
		H_Engi_Comp = { x = 0 y = 1 }
	}
	priority = 0
}

division_template = {
	name = "Guards Motor Rifle Division" #Heavy Mechanized

	regiments = {
		Mech_Inf_Bat = { x = 0 y = 0 }
		Mech_Inf_Bat = { x = 0 y = 1 }
		Mech_Inf_Bat = { x = 0 y = 2 }
		armor_Bat = { x = 0 y = 3 }
		SP_Arty_Bat = { x = 0 y = 4 }

		Arm_Inf_Bat = { x = 1 y = 0 }
		Arm_Inf_Bat = { x = 1 y = 1 }
		Arm_Inf_Bat = { x = 1 y = 2 }
		armor_Bat = { x = 1 y = 3 }
		SP_Arty_Bat = { x = 1 y = 4 }

		armor_Bat = { x = 2 y = 0 }
		armor_Bat = { x = 2 y = 1 }
		armor_Bat = { x = 2 y = 2 }
		Arm_Inf_Bat = { x = 2 y = 3 }
		SP_AA_Bat = { x = 2 y = 4 }

		SP_Arty_Bat = { x = 3 y = 0 }
		SP_Arty_Bat = { x = 3 y = 1 }
		SP_Arty_Bat = { x = 3 y = 2 }
		SP_Arty_Bat = { x = 3 y = 3 }
		SP_AA_Bat = { x = 3 y = 4 }
	}
	support = {
		armor_Recce_Comp = { x = 0 y = 0 }
		H_Engi_Comp = { x = 0 y = 1 }
		combat_service_support_company = { x = 0 y = 1 }
	}
	priority = 2
}

division_template = {
	name = "Guards Motor Rifle Brigade" #Armored Inf

	regiments = {
		Mech_Inf_Bat = { x = 0 y = 0 }
		Mech_Inf_Bat = { x = 0 y = 1 }
		Arm_Inf_Bat = { x = 0 y = 2 }
		armor_Bat = { x = 0 y = 3 }
		SP_Arty_Bat = { x = 1 y = 0 }
		SP_Arty_Bat = { x = 1 y = 1 }
		SP_Arty_Bat = { x = 2 y = 0 }
	}
	support = {
		H_Engi_Comp = { x = 0 y = 0 }
		Mech_Recce_Comp = { x = 0 y = 1 }
		SP_AA_Battery = { x = 0 y = 2 }
	}
	priority = 2
}

division_template = {
	name = "Light Motor Rifle Brigade" #Arctic & Mountain

	regiments = {
		Mot_Inf_Bat = { x = 0 y = 0 }
		Mot_Inf_Bat = { x = 0 y = 1 }
		Mot_Inf_Bat = { x = 0 y = 2 }
		Mot_Inf_Bat = { x = 0 y = 3 }
		SP_Arty_Bat = { x = 1 y = 0 }
		SP_Arty_Bat = { x = 1 y = 1 }
		SP_Arty_Bat = { x = 1 y = 2 }
	}
	support = {
		L_Engi_Comp = { x = 0 y = 0 }
		Mot_Recce_Comp = { x = 0 y = 1 }
		SP_AA_Battery = { x = 0 y = 2 }
	}
}

division_template = {
	name = "Tank Brigade"

	regiments = {
		armor_Bat = { x = 0 y = 0 }
		armor_Bat = { x = 0 y = 1 }
		armor_Bat = { x = 0 y = 2 }
		Arm_Inf_Bat = { x = 1 y = 0 }
		Arm_Inf_Bat = { x = 1 y = 1 }
		SP_Arty_Bat = { x = 2 y = 0 }
		SP_Arty_Bat = { x = 2 y = 1 }
	}
	support = {
		H_Engi_Comp = { x = 0 y = 0 }
		Arm_Recce_Comp = { x = 0 y = 1 }
		SP_AA_Battery = { x = 0 y = 2 }
	}
}

division_template = {
	name = "Tank Division"

	regiments = {
		armor_Bat = { x = 0 y = 0 }
		armor_Bat = { x = 0 y = 1 }
		armor_Bat = { x = 0 y = 2 }
		Arm_Inf_Bat = { x = 0 y = 3 }

		armor_Bat = { x = 1 y = 0 }
		armor_Bat = { x = 1 y = 1 }
		armor_Bat = { x = 1 y = 2 }
		Arm_Inf_Bat = { x = 1 y = 3 }

		Arm_Inf_Bat = { x = 2 y = 0 }
		Arm_Inf_Bat = { x = 2 y = 1 }
		Arm_Inf_Bat = { x = 2 y = 2 }
		armor_Bat = { x = 2 y = 3 }
		SP_AA_Bat = { x = 2 y = 4 }

		SP_Arty_Bat = { x = 3 y = 0 }
		SP_Arty_Bat = { x = 3 y = 1 }
		SP_Arty_Bat = { x = 3 y = 2 }
		SP_Arty_Bat = { x = 3 y = 3 }
		SP_AA_Bat = { x = 3 y = 4 }
	}
	support = {
		H_Engi_Comp = { x = 0 y = 0 }
		armor_Recce_Comp = { x = 0 y = 1 }
		combat_service_support_company = { x = 0 y = 2 }
	}
	priority = 2
}

division_template = {
	name = "Spetsnaz Brigade"

	regiments = {
		Special_Forces = { x = 0 y = 0 }
		Special_Forces = { x = 0 y = 1 }
		Special_Forces = { x = 0 y = 2 }
		Special_Forces = { x = 0 y = 3 }
	}
	priority = 2
}

division_template = {
	name = "Airmobile Brigade"

	regiments = {
		Arm_Air_assault_Bat = { x = 0 y = 0 }
		Arm_Air_assault_Bat = { x = 0 y = 1 }
		Arm_Air_assault_Bat = { x = 0 y = 2 }
		Arty_Bat = { x = 1 y = 0 }
	}
	support = {
		Mot_Recce_Comp = { x = 0 y = 0 }
		L_Engi_Comp = { x = 0 y = 1 }
		SP_AA_Battery = { x = 0 y = 2 }
	}
	priority = 2
}

division_template = {
	name = "Airborne Brigade"

	regiments = {
		Arm_Air_Inf_Bat = { x = 0 y = 0 }
		Arm_Air_Inf_Bat = { x = 0 y = 1 }
		Arm_Air_Inf_Bat = { x = 0 y = 2 }
		Arty_Bat = { x = 1 y = 0 }
	}
	support = {
		Mot_Recce_Comp = { x = 0 y = 0 }
		L_Engi_Comp = { x = 0 y = 1 }
		SP_AA_Battery = { x = 0 y = 2 }
	}
	priority = 2
}

division_template = {
	name = "Air Assault Brigade"

	regiments = {
		Mech_Air_Inf_Bat = { x = 0 y = 0 }
		Mech_Air_Inf_Bat = { x = 0 y = 1 }
		Arm_Air_Inf_Bat = { x = 0 y = 2 }
		Arty_Bat = { x = 1 y = 0 }
	}
	support = {
		Mot_Recce_Comp = { x = 0 y = 0 }
		L_Engi_Comp = { x = 0 y = 1 }
		SP_AA_Battery = { x = 0 y = 2 }
	}
	priority = 2
}

division_template = {
	name = "Airborne Division"

	regiments = {
		Arm_Air_Inf_Bat = { x = 0 y = 0 }
		Arm_Air_Inf_Bat = { x = 0 y = 1 }
		Arm_Air_Inf_Bat = { x = 0 y = 2 }
		Arm_Air_Inf_Bat = { x = 1 y = 0 }
		Arm_Air_Inf_Bat = { x = 1 y = 1 }
		Arm_Air_Inf_Bat = { x = 1 y = 2 }
		Arty_Bat = { x = 2 y = 0 }
		Arty_Bat = { x = 2 y = 1 }
		Arty_Bat = { x = 2 y = 2 }
	}
	support = {
		L_Engi_Comp = { x = 0 y = 0 }
		Arm_Recce_Comp = { x = 0 y = 1 }
		SP_AA_Battery = { x = 0 y = 2 }
	}
	priority = 2
}

division_template = {
	name = "Air Assault Division"

	regiments = {
		Mech_Air_Inf_Bat = { x = 0 y = 0 }
		Mech_Air_Inf_Bat = { x = 0 y = 1 }
		Arm_Air_Inf_Bat = { x = 1 y = 0 }
		Arm_Air_Inf_Bat = { x = 1 y = 1 }
		Arm_Air_Inf_Bat = { x = 1 y = 2 }
		Arm_Air_Inf_Bat = { x = 1 y = 3 }
		Arty_Bat = { x = 2 y = 0 }
		Arty_Bat = { x = 2 y = 1 }
		Arty_Bat = { x = 2 y = 2 }
	}
	support = {
		L_Engi_Comp = { x = 0 y = 0 }
		Arm_Recce_Comp = { x = 0 y = 1 }
		SP_AA_Battery = { x = 0 y = 2 }
	}
	priority = 2
}

division_template = {
	name = "Machinegun Artillery Division"

	regiments = {
		L_Inf_Bat = { x = 0 y = 0 }
		L_Inf_Bat = { x = 0 y = 1 }
		armor_Bat = { x = 0 y = 2 }
		SP_Arty_Bat = { x = 1 y = 0 }
		SP_Arty_Bat = { x = 1 y = 1 }
		SP_Arty_Bat = { x = 1 y = 2 }
		SP_Arty_Bat = { x = 1 y = 3 }
	}
	support = {
		L_Engi_Comp = { x = 0 y = 0 }
		SP_AA_Battery = { x = 0 y = 1 }
	}
	priority = 0
}

division_template = {
	name = "Naval Infantry Regiment"

	regiments = {
		Mech_Marine_Bat = { x = 0 y = 0 }
		Mech_Marine_Bat = { x = 0 y = 1 }
	}
	support = {
		armor_Comp = { x = 0 y = 0 }
		Mech_Recce_Comp = { x = 0 y = 1 }
		SP_Arty_Battery = { x = 0 y = 2 }
		SP_AA_Battery = { x = 0 y = 3 }
	}
}

division_template = {
	name = "Naval Infantry Brigade"

	regiments = {
		Mech_Marine_Bat = { x = 0 y = 0 }
		Mech_Marine_Bat = { x = 0 y = 1 }
		Arm_Marine_Bat = { x = 0 y = 2 }
		armor_Bat = { x = 0 y = 3 }
		SP_Arty_Bat = { x = 1 y = 0 }
		SP_Arty_Bat = { x = 1 y = 1 }
		SP_Arty_Bat = { x = 1 y = 2 }
		SP_AA_Bat = { x = 1 y = 3 }
		Arm_Inf_Bat = { x = 2 y = 0 }
		Special_Forces = { x = 2 y = 1 }
	}
}

division_template = {
	name = "Artillery Brigade"

	regiments = {
		Mot_Inf_Bat = { x = 0 y = 0 }
		Mot_Inf_Bat = { x = 0 y = 1 }
		Arty_Bat = { x = 1 y = 0 }
		Arty_Bat = { x = 1 y = 1 }
		Arty_Bat = { x = 1 y = 2 }
	}
}

units = {
#Data gathered from globalsecurity.org, ref. "The Russian Ground Forces Today: A Structural Status Examination," by Colin Robinson, in the Journal of Slavic Military Studies, 2005. & http://cast.ru/eng/products/articles/the-russian-marine-corps.html#

#Kaliningrad MD
	division = {
		name = "18th Guards Motor Rifle Division"
		location = 395 #Kaliningrad
		division_template = "Motor Rifle Division"
		start_experience_factor = 0.15
		start_equipment_factor = 0.01
	}
	division = {
		name = "1st Guards 'Moscow' Motor Rifle Division"
		location = 395 #Kaliningrad
		division_template = "Guards Motor Rifle Brigade" #understrength
		start_experience_factor = 0.15
		start_equipment_factor = 0.01
	}
	division = {
		name = "336th Marine Brigade"
		location = 395 #Kaliningrad
		division_template = "Naval Infantry Brigade"
		start_experience_factor = 0.4
		start_equipment_factor = 0.01
	}
#Leningrad MD
	division = {
		name = "138th Guards Motor Rifle Brigade"
		location = 9206 #Kamenka
		division_template = "Guards Motor Rifle Brigade"
		start_experience_factor = 0.2
		start_equipment_factor = 0.01
	}
	division = {
		name = "200th Motor Rifle Brigade"
		location = 9140 #Pechenga
		division_template = "Motor Rifle Brigade"
		start_experience_factor = 0.15
		start_equipment_factor = 0.01
	}
	division = {
		name = "2nd Spetsnaz Brigade"
		location = 11202 #Pskov
		division_template = "Spetsnaz Brigade"
		start_experience_factor = 0.4
	}
	division = {
		name = "76h Guards Air Assault Division"
		location = 11202
		division_template = "Air Assault Division"
		start_experience_factor = 0.5
		start_equipment_factor = 0.01
	}

#Moscow MD
	division = {
		name = "2nd Guards 'Tamanskaya' Motor Rifle Division"
		location = 6380 #Moscow
		division_template = "Guards Motor Rifle Division"
		start_experience_factor = 0.4
		start_equipment_factor = 0.01
	}
	division = {
		name = "25th Guards Motor Rifle Brigade"
		location = 95 #Vladimirsky
		division_template = "Guards Motor Rifle Brigade"
		start_experience_factor = 0.2
		start_equipment_factor = 0.01
	}
	division = {
		name = "8th Guards Motor Rifle Brigade"
		location = 13202 #Transnistria
		division_template = "Guards Motor Rifle Brigade"
		start_experience_factor = 0.1
		start_equipment_factor = 0.7
		force_equipment_variants = {
		infantry_weapons1 = { owner = "SOV" }
		APC_1 = { owner = "SOV" }
		IFV_2 = { owner = "SOV" }
		command_control_equipment = { owner = "SOV" }
		Anti_Air_1 = { owner = "SOV" }
		Anti_tank_1 = { owner = "SOV" }
		Heavy_Anti_tank_1 = { owner = "SOV" }
		SP_arty_0 = { owner = "SOV" }
		MBT_1 = { owner = "SOV" }

		SP_Anti_Air_0 = { owner = "SOV" }
		}
	}
#	division = {
#		name = "34th Guards Artillery Division"
#		location = 9389 #Mulino
#		division_template = "Artillery Brigade"
#		start_experience_factor = 0.1
#		start_equipment_factor = 0.01
#	}
	division = {
		name = "27th Guards 'Sevastopolskaya' Motor Rifle Brigade"
		location = 6414 #Teplyi Stan
		division_template = "Guards Motor Rifle Brigade"
		start_experience_factor = 0.2
		start_equipment_factor = 0.01
	}
	division = {
		name = "4th Guards 'Kantemirovskaya' Tank Division"
		location = 6290 #Naro-Fominsk
		division_template = "Tank Division"
		start_experience_factor = 0.4
		start_equipment_factor = 0.01
	}
	division = {
		name = "10th Guards 'Ural-Lvov' Tank Division"
		location = 6591 #Boguchar
		division_template = "Tank Division"
		start_experience_factor = 0.1
		start_equipment_factor = 0.01
	}
	division = {
		name = "3rd 'Vislenskaya' Motor Rifle Division"
		location = 11375 #Novyy
		division_template = "Motor Rifle Division"
		start_experience_factor = 0.4
		start_equipment_factor = 0.01
	}
	division = {
		name = "106th Guards Airborne Division"
		location = 6262
		division_template = "Airborne Division"
		start_experience_factor = 0.6
		start_equipment_factor = 0.01
	}
	division = {
		name = "98th Guards Airborne Division"
		location = 6269
		division_template = "Airborne Division"
		start_experience_factor = 0.6
		start_equipment_factor = 0.01
	}
#North Caucasus MD
	division = {
		name = "19th Motor Rifle Brigade"
		location = 9628
		division_template = "Motor Rifle Brigade"
		start_experience_factor = 0.2
		start_equipment_factor = 0.01
	}
	division = {
		name = "42nd Motor Rifle Division"
		location = 9647 #Khankala
		division_template = "Motor Rifle Division"
		start_experience_factor = 0.15
		start_equipment_factor = 0.01
	}
	division = {
		name = "131st Motor Rifle Brigade"
		location = 3720 #Maykop
		division_template = "Motor Rifle Brigade"
		start_experience_factor = 0.15
		start_equipment_factor = 0.01
	}
	division = {
		name = "22nd Spetsnaz Brigade"
		location = 9417 #Stepnoy
		division_template = "Spetsnaz Brigade"
		start_experience_factor = 0.4
		start_equipment_factor = 0.01
	}
	division = {
		name = "10th Spetsnaz Brigade"
		location = 3734 #Molkino
		division_template = "Spetsnaz Brigade"
		start_experience_factor = 0.4
		start_equipment_factor = 0.01
	}
	#reached
	division = {
		name = "20th Motor Rifle Division"
		location = 3529 #Volgograd
		division_template = "Motor Rifle Division"
		start_experience_factor = 0.1
		start_equipment_factor = 0.01
	}
	division = {
		name = "205th Motor Rifle Brigade"
		location = 6750 #Budenovsk
		division_template = "Motor Rifle Brigade"
		start_experience_factor = 0.15
		start_equipment_factor = 0.01
	}
	division = {
		name = "136th Motor Rifle Brigade"
		location = 9645 #Buynaksk
		division_template = "Motor Rifle Brigade"
		start_experience_factor = 0.15
		start_equipment_factor = 0.01
	}
	division = {
		name = "56th Guards Airborne Brigade"
		location = 9475
		division_template = "Airborne Brigade"
		start_experience_factor = 0.5
		start_equipment_factor = 0.01
	}
	division = {
		name = "31st Guards Air Assault Brigade"
		location = 9338
		division_template = "Air Assault Brigade"
		start_experience_factor = 0.5
		start_equipment_factor = 0.01
	}
	division = {
		name = "77th Guards Marine Brigade"
		location = 3668 #Kaspiysk
		division_template = "Naval Infantry Brigade"
		start_experience_factor = 0.2
		start_equipment_factor = 0.01
	}
	division = {
		name = "810th Marine Regiment"
		location = 3468 #Sevastopol Bay
		division_template = "Naval Infantry Regiment"
		start_experience_factor = 0.3
		start_equipment_factor = 0.01
	}
#Group of Russian Forces in the Transcaucasus
	division = {
		name = "12th Military Base"
		location = 3653 #Batumi (Georgia)
		division_template = "Motor Rifle Brigade"
		start_experience_factor = 0.15
		start_equipment_factor = 0.6
		force_equipment_variants = {
		infantry_weapons1 = { owner = "SOV" }
		APC_1 = { owner = "SOV" }
		IFV_2 = { owner = "SOV" }
		command_control_equipment = { owner = "SOV" }
		Anti_Air_1 = { owner = "SOV" }
		Anti_tank_1 = { owner = "SOV" }
		Heavy_Anti_tank_1 = { owner = "SOV" }
		SP_arty_0 = { owner = "SOV" }
		MBT_1 = { owner = "SOV" }

		SP_Anti_Air_0 = { owner = "SOV" }
		}
	}
	division = {
		name = "62nd Military Base"
		location = 6669 #Akhalkalaki (Georgia)
		division_template = "Motor Rifle Brigade"
		start_experience_factor = 0.15
		start_equipment_factor = 0.6
		force_equipment_variants = {
		infantry_weapons1 = { owner = "SOV" }
		APC_1 = { owner = "SOV" }
		IFV_2 = { owner = "SOV" }
		command_control_equipment = { owner = "SOV" }
		Anti_Air_1 = { owner = "SOV" }
		Anti_tank_1 = { owner = "SOV" }
		Heavy_Anti_tank_1 = { owner = "SOV" }
		SP_arty_0 = { owner = "SOV" }
		MBT_1 = { owner = "SOV" }

		SP_Anti_Air_0 = { owner = "SOV" }
		}
	}
	division = {
		name = "73rd Motor Rifle Brigade"
		location = 12441 #Gyumri (Armenia)
		division_template = "Motor Rifle Brigade"
		start_experience_factor = 0.15
		start_equipment_factor = 0.6
		force_equipment_variants = {
		infantry_weapons1 = { owner = "SOV" }
		APC_1 = { owner = "SOV" }
		IFV_2 = { owner = "SOV" }
		command_control_equipment = { owner = "SOV" }
		Anti_Air_1 = { owner = "SOV" }
		Anti_tank_1 = { owner = "SOV" }
		Heavy_Anti_tank_1 = { owner = "SOV" }
		SP_arty_0 = { owner = "SOV" }
		MBT_1 = { owner = "SOV" }

		SP_Anti_Air_0 = { owner = "SOV" }
		}
	}
	division = {
		name = "137th Military Base"
		location = 11617 #Vaziani (Georgia)
		division_template = "Motor Rifle Brigade"
		start_experience_factor = 0.15
		start_equipment_factor = 0.6
		force_equipment_variants = {
		infantry_weapons1 = { owner = "SOV" }
		APC_1 = { owner = "SOV" }
		IFV_2 = { owner = "SOV" }
		command_control_equipment = { owner = "SOV" }
		Anti_Air_1 = { owner = "SOV" }
		Anti_tank_1 = { owner = "SOV" }
		Heavy_Anti_tank_1 = { owner = "SOV" }
		SP_arty_0 = { owner = "SOV" }
		MBT_1 = { owner = "SOV" }
		SP_Anti_Air_0 = { owner = "SOV" }
		}
	}
#Volga-Ural MD
	division = {
		name = "201st 'Gatchina' Motor Rifle Division"
		location = 1384 #Dushanbe (Tajikistan)
		division_template = "Motor Rifle Division"
		start_experience_factor = 0.15
		start_equipment_factor = 0.01
	}
	division = {
		name = "34th Motor Rifle Division"
		location = 1821 #Yekaterinburg
		division_template = "Motor Rifle Division (Mobilization)"
		start_experience_factor = 0.15
		start_equipment_factor = 0.01
	}
	division = {
		name = "27th Guards Motor Rifle Division"
		location = 3330 #Totskoye
		division_template = "Motor Rifle Division (Mobilization)"
		start_experience_factor = 0.2
		start_equipment_factor = 0.01
	}
	division = {
		name = "12th Spetsnaz Brigade"
		location = 9553 #Asbest
		division_template = "Spetsnaz Brigade"
		start_experience_factor = 0.4
		start_equipment_factor = 0.01
	}
	division = {
		name = "3rd Guards Spetsnaz Brigade"
		location = 11225 #Roshchinsky
		division_template = "Spetsnaz Brigade"
		start_experience_factor = 0.4
		start_equipment_factor = 0.01
	}
#Siberian MD
	division = {
		name = "2nd Guards 'Tatsinskaya' Tank Division"
		location = 7725 #Bezrechnaya
		division_template = "Tank Division"
		start_experience_factor = 0.2
		start_equipment_factor = 0.01
	}
	division = {
		name = "24th Spetsnaz Brigade"
		location = 4766 #Kyakhta
		division_template = "Spetsnaz Brigade"
		start_experience_factor = 0.4
		start_equipment_factor = 0.01
	}
	division = {
		name = "67th Spetsnaz Brigade"
		location = 9753 #Berdsk
		division_template = "Spetsnaz Brigade"
		start_experience_factor = 0.4
		start_equipment_factor = 0.01
	}
	division = {
		name = "5th Guards Tank Division"
		location = 4837 #Kyakhta
		division_template = "Tank Division"
		start_experience_factor = 0.2
		start_equipment_factor = 0.01
	}
#	division = {
#		name = "12th Artillery Division"
#		location = 4797 #Shelekhov
#		division_template = "Artillery Brigade"
#		start_experience_factor = 0.15
#		start_equipment_factor = 0.01
#	}
	division = {
		name = "122nd Guards Machine-Gun Artillery Division"
		location = 1794 #Aleysk
		division_template = "Machinegun Artillery Division"
		start_experience_factor = 0.1
		start_equipment_factor = 0.01
	}
	division = {
		name = "74th Guards Motor Rifle Brigade"
		location = 7757 #Yurga
		division_template = "Guards Motor Rifle Brigade"
		start_experience_factor = 0.2
		start_equipment_factor = 0.01
	}
	division = {
		name = "11th Air Assault Brigade"
		location = 7816 #Ulan-Ude
		division_template = "Air Assault Brigade"
		start_experience_factor = 0.5
		start_equipment_factor = 0.01
	}
#Far-Eastern MD
	division = {
		name = "14th Spetsnaz Brigade"
		location = 3977 #Ussuriysk
		division_template = "Spetsnaz Brigade"
		start_experience_factor = 0.4
		start_equipment_factor = 0.01
	}
	division = {
		name = "81st Guards Motor Rifle Division"
		location = 12189 #Bikin
		division_template = "Guards Motor Rifle Division"
		start_experience_factor = 0.2
		start_equipment_factor = 0.01
	}
	division = {
		name = "29th Motor Rifle Division"
		location = 810 #Kamen-Rybolov
		division_template = "Motor Rifle Division (Mobilization)"
		start_experience_factor = 0.15
		start_equipment_factor = 0.01
	}
	division = {
		name = "17th Machine-Gun Artillery Division"
		location = 664 #Barabash
		division_template = "Machinegun Artillery Division"
		start_experience_factor = 0.1
		start_equipment_factor = 0.01
	}
	division = {
		name = "127th Machine-Gun Artillery Division"
		location = 11879 #Sergeevka
		division_template = "Machinegun Artillery Division"
		start_experience_factor = 0.1
		start_equipment_factor = 0.01
	}
	division = {
		name = "21st Guards Tank Division"
		location = 12657 #Belogorsk
		division_template = "Tank Division"
		start_experience_factor = 0.2
		start_equipment_factor = 0.01
	}
	division = {
		name = "130th Machine-Gun Artillery Division"
		location = 664 #Lesozavodsk
		division_template = "Machinegun Artillery Division"
		start_experience_factor = 0.1
		start_equipment_factor = 0.01
	}
	division = {
		name = "33rd Motor Rifle Division"
		location = 1755 #Khomutovo
		division_template = "Motor Rifle Division (Mobilization)"
		start_experience_factor = 0.15
		start_equipment_factor = 0.01
	}
	division = {
		name = "79th Motor Rifle Division"
		location = 12446 #Leonidovo
		division_template = "Motor Rifle Division (Mobilization)"
		start_experience_factor = 0.15
		start_equipment_factor = 0.01
	}
	division = {
		name = "18th Machine-Gun Artillery Division"
		location = 14853 #Iturup
		division_template = "Machinegun Artillery Division"
		start_experience_factor = 0.1
		start_equipment_factor = 0.01
	}
	division = {
		name = "22nd Motor Rifle Division"
		location = 7878 #Petropavlovsk-Kamchatskiy
		division_template = "Motor Rifle Division (Mobilization)"
		start_experience_factor = 0.15
		start_equipment_factor = 0.01
	}
	division = {
		name = "83rd Guards Airborne Brigade"
		location = 3977
		division_template = "Airborne Brigade"
		start_experience_factor = 0.5
		start_equipment_factor = 0.01
	}
	division = {
		name = "121st Motor Rifle Division"
		location = 6989 #Monastyrishche
		division_template = "Motor Rifle Division (Mobilization)"
		start_experience_factor = 0.15
		start_equipment_factor = 0.01
	}
	division = {
		name = "55th Marine Division"
		location = 957 #Vladivostok
		division_template = "Naval Infantry Brigade"
		start_experience_factor = 0.4
		start_equipment_factor = 0.01
	}

	#NAVY
	#NORTHERN FLEET
	#BLACK SEA FLEET
	#BALTIC FLEET
	#PACIFIC FLEET
	#CASPIAN FLOTILLA

}

instant_effect = {
	### Helicopters

	add_equipment_to_stockpile = {
		type = attack_helicopter1 		#Mi-24
		amount = 525
		producer = SOV
	}

	add_equipment_to_stockpile = {
		type = transport_helicopter1 		#Mi-8
		amount = 701
		producer = SOV
	}

	add_equipment_to_stockpile = {
		type = transport_helicopter1 		#Mi-14
		#version_name = "Mil Mi-14"
		amount = 60
		producer = SOV
	}

	add_equipment_to_stockpile = {
		type = transport_helicopter2 		#Mi-26
		amount = 41
		producer = SOV
	}
	add_equipment_to_stockpile = {
		type = awacs_equipment_1 #Beriev A-50
		amount = 20
		producer = SOV
	}

	### Vehicles
	#KR: Reduced to CFO declared totals + 1/4 of reserves

	add_equipment_to_stockpile = {
	type = MBT_1 #t-55
	amount = 315 #1200
	}

	add_equipment_to_stockpile = {
	type = MBT_2
	#version_name = "T-72B"
	amount = 3856 #9700
	}

	add_equipment_to_stockpile = {
	type = MBT_3 #T-80
	amount = 3058
	}

	add_equipment_to_stockpile = {
	type = MBT_4 #T-90
	amount = 100
	}


	add_equipment_to_stockpile = {
	type = IFV_1 #BMP-1
	amount = 3500
	}

	add_equipment_to_stockpile = {
	type = IFV_3 #BMP-2
	amount = 3482
	}

	add_equipment_to_stockpile = {
	type = IFV_4 #BMP-3
	amount = 103
	}

	add_equipment_to_stockpile = {
	type = APC_1 #BTR-60
	amount = 1800
	}

	add_equipment_to_stockpile = {
	type = APC_2 #MT-LB
	amount = 2675
	}

	add_equipment_to_stockpile = {
	type = APC_3 #BTR-70
	amount = 842
	}

	add_equipment_to_stockpile = {
	type = APC_4 #BTR-80
	amount = 1800
	}

	add_equipment_to_stockpile = {
	type = util_vehicle_1 #UAZ-469
	amount = 1500
	}

	add_equipment_to_stockpile = {
	type = util_vehicle_2 #GAZ-3132
	amount = 1000
	}

	### Airborne Vehicles

	add_equipment_to_stockpile = {
	type = IFV_1
	amount = 1000
	}

	add_equipment_to_stockpile = {
	type = IFV_3
	amount = 400
	}

	add_equipment_to_stockpile = {
	type = IFV_4
	amount = 36
	}

	#Recce Tank
	add_equipment_to_stockpile = {
	type = Rec_tank_0 #PT-76
	amount = 150
	}

	### AA, ART, AGTM ###

	#SP-AA

	add_equipment_to_stockpile = {
	type = SP_Anti_Air_0 #SA-8 Osa
	amount = 650
	}

	add_equipment_to_stockpile = {
	type = SP_Anti_Air_1 #SA-11 Buk
	amount = 486
	}

	add_equipment_to_stockpile = {
	type = SP_Anti_Air_1
	#version_name = "9K35 Strela-10"
	amount = 350
	}

	add_equipment_to_stockpile = {
	type = SP_Anti_Air_1
	#version_name = "SA-15 Tor-M"
	amount = 150
	}

	add_equipment_to_stockpile = {
	type = SP_Anti_Air_2 #SA-19 Tunguska
	amount = 280
	}

	#MANPADS

	add_equipment_to_stockpile = {
	type = Anti_Air_0 #SA-14 Strela-2
	amount = 2000
	}

	add_equipment_to_stockpile = {
	type = Anti_Air_1 #SA-18 Igla
	amount = 700
	}

	#ATGM
	add_equipment_to_stockpile = {
		type = Anti_tank_0 #AT-3
		amount = 1200
	}
	add_equipment_to_stockpile = {
		type = Anti_tank_1
		variant_name = "9M113 Konkurs"
		producer = SOV
		amount = 1700
	}
	add_equipment_to_stockpile = {
		type = Anti_tank_1
		variant_name = "9M113M Konkurs-M"
		producer = SOV
		amount = 400
	}
	add_equipment_to_stockpile = {
		type = Anti_tank_1
		variant_name = "9M133 Kornet"
		producer = SOV
		amount = 100
	}

	add_equipment_to_stockpile = {
	type = Heavy_Anti_tank_0 #AT-3
	amount = 900
	}

	add_equipment_to_stockpile = {
	type = Heavy_Anti_tank_1 #AT-5 Konkurs
	amount = 810
	}

	### MLRS ###

	add_equipment_to_stockpile = {
	type = SP_R_arty_0 #BM-21 Grad
	amount = 1086
	}

	add_equipment_to_stockpile = {
	type = SP_R_arty_1 #BM-27 Uragan
	amount = 600
	}

	add_equipment_to_stockpile = {
	type = SP_R_arty_1
	#version_name = "TOS-1"
	amount = 36
	}

	add_equipment_to_stockpile = {
	type = SP_R_arty_1
	#version_name = "BM-30 Smerch"
	amount = 100
	}

	### Artillery ###
	#light

	add_equipment_to_stockpile = {
	type = artillery_0 #D-30
	amount = 1050
	}

	add_equipment_to_stockpile = {
	type = artillery_1 #2S9 Nona
	amount = 256
	}

	#SP

	add_equipment_to_stockpile = {
	type = SP_arty_0 #2S3 Akatsiya
	amount = 1450
	}

	add_equipment_to_stockpile = {
	type = SP_arty_0
	#version_name = "2S5 Giatsint-S"
	amount = 800
	}

	add_equipment_to_stockpile = {
	type = SP_arty_1 #2S19 Msta
	amount = 468
	}

	### Small Arms ###

	add_equipment_to_stockpile = {
	type = infantry_weapons1 #1975
	amount = 94000
	}

	add_equipment_to_stockpile = {
	type = infantry_weapons2 #1985 AK-74M
	amount = 20000
	}

	#C&C

	add_equipment_to_stockpile = {
	type = command_control_equipment #C2
	amount = 7300
	}

	add_equipment_to_stockpile = {
	type = command_control_equipment1 #C3
	amount = 4000
	}

}