﻿division_template = {
	name = "Tabaristan Militia"
	regiments = {
		Militia_Bat = { x = 0 y = 0 }
		Militia_Bat = { x = 0 y = 1 }
		Militia_Bat = { x = 0 y = 2 }
	}
}

units = {
	division = {
		name = "Gilak Liberation Front"
		location = 4609 #
		division_template = "Tabaristan Militia"
		start_experience_factor = 0.2
		start_equipment_factor = 0.75
		force_equipment_variants = { infantry_weapons1 = { owner = "SOV" } }
		force_equipment_variants = { Anti_tank_1 = { owner = "SOV" } }
		force_equipment_variants = { Anti_Air_0 = { owner = "SOV" } }
	}
	division = {
		name = "Mazanderani Freedom Fighters"
		location = 10768 #
		division_template = "Tabaristan Militia"
		start_experience_factor = 0.2
		start_equipment_factor = 0.75
		force_equipment_variants = { infantry_weapons1 = { owner = "SOV" } }
		force_equipment_variants = { Anti_tank_1 = { owner = "SOV" } }
		force_equipment_variants = { Anti_Air_0 = { owner = "SOV" } }
	}
}