﻿units = {

	### Naval OOB ###
	fleet = {
	name = "Vietnam Navy"
	   naval_base = 4119
		task_force = {
			name = "Vietnam Navy"
			location = 4119 #Haiphong
		   ship = { name = "011 Dinh Tien Hoang" definition = corvette start_experience_factor = 0.10 equipment = { missile_corvette_2 = { amount = 1 owner = VIE creator = SOV } } }
		   ship = { name = "012 Ly Thai To" definition = corvette start_experience_factor = 0.10 equipment = { missile_corvette_2 = { amount = 1 owner = VIE creator = SOV } } }
		   ship = { name = "HQ-09" definition = corvette start_experience_factor = 0.10 equipment = { corvette_1 = { amount = 1 owner = VIE creator = SOV } } }
		   ship = { name = "HQ-11" definition = corvette start_experience_factor = 0.10 equipment = { corvette_1 = { amount = 1 owner = VIE creator = SOV } } }
		   ship = { name = "HQ-13" definition = corvette start_experience_factor = 0.10 equipment = { corvette_1 = { amount = 1 owner = VIE creator = SOV } } }
		   ship = { name = "HQ-15" definition = corvette start_experience_factor = 0.10 equipment = { corvette_1 = { amount = 1 owner = VIE creator = SOV } } }
		   ship = { name = "HQ-17" definition = corvette start_experience_factor = 0.10 equipment = { corvette_1 = { amount = 1 owner = VIE creator = SOV } } }
		   ship = { name = "HQ-371" definition = corvette start_experience_factor = 0.10 equipment = { missile_corvette_1 = { amount = 1 owner = VIE creator = SOV } } }
		   ship = { name = "HQ-372" definition = corvette start_experience_factor = 0.10 equipment = { missile_corvette_1 = { amount = 1 owner = VIE creator = SOV } } }
		   ship = { name = "HQ-373" definition = corvette start_experience_factor = 0.10 equipment = { missile_corvette_1 = { amount = 1 owner = VIE creator = SOV } } }
		   ship = { name = "HQ-374" definition = corvette start_experience_factor = 0.10 equipment = { missile_corvette_1 = { amount = 1 owner = VIE creator = SOV } } }
		   ship = { name = "HQ-375" definition = corvette start_experience_factor = 0.10 equipment = { missile_corvette_1 = { amount = 1 owner = VIE creator = SOV } } }
		   ship = { name = "HQ-376" definition = corvette start_experience_factor = 0.10 equipment = { missile_corvette_1 = { amount = 1 owner = VIE creator = SOV } } }
		   ship = { name = "HQ-378" definition = corvette start_experience_factor = 0.10 equipment = { missile_corvette_1 = { amount = 1 owner = VIE creator = SOV } } }
		   ship = { name = "HQ-379" definition = corvette start_experience_factor = 0.10 equipment = { missile_corvette_1 = { amount = 1 owner = VIE creator = SOV } } }
		   ship = { name = "HQ-380" definition = corvette start_experience_factor = 0.10 equipment = { missile_corvette_1 = { amount = 1 owner = VIE creator = SOV } } }
		   ship = { name = "HQ-382" definition = corvette start_experience_factor = 0.10 equipment = { missile_corvette_1 = { amount = 1 owner = VIE creator = SOV } } }
		   ship = { name = "HQ-383" definition = corvette start_experience_factor = 0.10 equipment = { missile_corvette_1 = { amount = 1 owner = VIE creator = SOV } } }
		   ship = { name = "HQ-381" definition = corvette start_experience_factor = 0.10 equipment = { missile_corvette_1 = { amount = 1 owner = VIE creator = SOV } } }
		}
	}
	fleet = {
	name = "Flotilla 182"
	   naval_base = 4401
		task_force = {
			name = "Flotilla 182"
			location = 4401 #Ho Chi Minh City
			ship = { name = "182 Hanoi" definition = attack_submarine start_experience_factor = 0.10 equipment = { diesel_attack_submarine_3 = { amount = 1 owner = VIE creator = SOV } } }
		   ship = { name = "183 Ho Chi Minh City" definition = attack_submarine start_experience_factor = 0.10 equipment = { diesel_attack_submarine_3 = { amount = 1 owner = VIE creator = SOV } } }
		   ship = { name = "184 Hai Phong" definition = attack_submarine start_experience_factor = 0.10 equipment = { diesel_attack_submarine_3 = { amount = 1 owner = VIE creator = SOV } } }
		   ship = { name = "185 Khanh Hoa" definition = attack_submarine start_experience_factor = 0.10 equipment = { diesel_attack_submarine_3 = { amount = 1 owner = VIE creator = SOV } } }
		   ship = { name = "186 Da Nang" definition = attack_submarine start_experience_factor = 0.10 equipment = { diesel_attack_submarine_3 = { amount = 1 owner = VIE creator = SOV } } }
		   ship = { name = "187 Ba Ria-Vung Tau" definition = attack_submarine start_experience_factor = 0.10 equipment = { diesel_attack_submarine_3 = { amount = 1 owner = VIE creator = SOV } } }
		}
	}
}
